course_var1.2/interface/simulation/qsim/interface.msim.vcd
$comment
	File created using the following command:
		vcd file interface.msim.vcd -direction
$end
$date
	Thu Jun 05 01:56:56 2025
$end
$version
	ModelSim Version 10.1d
$end
$timescale
	1ps
$end
$scope module interface_vlg_vec_tst $end
$var reg 8 ! A [7:0] $end
$var reg 1 " Clock $end
$var reg 8 # DB [7:0] $end
$var reg 1 $ nIOR $end
$var reg 1 % nIOW $end
$var reg 1 & R $end
$var reg 1 ' Start $end
$var reg 1 ( Stop $end
$var wire 1 ) cnt [4] $end
$var wire 1 * cnt [3] $end
$var wire 1 + cnt [2] $end
$var wire 1 , cnt [1] $end
$var wire 1 - cnt [0] $end
$var wire 1 . Read $end
$var wire 1 / Ready $end
$var wire 1 0 Result $end
$var wire 1 1 sampler $end
$scope module i1 $end
$var wire 1 2 gnd $end
$var wire 1 3 vcc $end
$var wire 1 4 unknown $end
$var tri1 1 5 devclrn $end
$var tri1 1 6 devpor $end
$var tri1 1 7 devoe $end
$var wire 1 8 inst21~2_combout $end
$var wire 1 9 inst21~11_combout $end
$var wire 1 : inst21~12_combout $end
$var wire 1 ; inst14~combout $end
$var wire 1 < Clock~combout $end
$var wire 1 = nIOR~combout $end
$var wire 1 > inst14~clkctrl_outclk $end
$var wire 1 ? inst12|inst3|LPM_COUNTER_component|auto_generated|counter_comb_bita0~combout $end
$var wire 1 @ ~GND~combout $end
$var wire 1 A R~combout $end
$var wire 1 B R~clkctrl_outclk $end
$var wire 1 C Start~combout $end
$var wire 1 D inst12|inst3|LPM_COUNTER_component|auto_generated|counter_comb_bita1~combout $end
$var wire 1 E inst12|inst3|LPM_COUNTER_component|auto_generated|counter_comb_bita2~COUT $end
$var wire 1 F inst12|inst3|LPM_COUNTER_component|auto_generated|counter_comb_bita3~combout $end
$var wire 1 G inst12|inst3|LPM_COUNTER_component|auto_generated|counter_comb_bita3~COUT $end
$var wire 1 H inst12|inst3|LPM_COUNTER_component|auto_generated|counter_comb_bita4~combout $end
$var wire 1 I inst12|inst~0_combout $end
$var wire 1 J inst12|inst4~combout $end
$var wire 1 K inst12|inst3|LPM_COUNTER_component|auto_generated|counter_comb_bita0~COUT $end
$var wire 1 L inst12|inst3|LPM_COUNTER_component|auto_generated|counter_comb_bita1~COUT $end
$var wire 1 M inst12|inst3|LPM_COUNTER_component|auto_generated|counter_comb_bita2~combout $end
$var wire 1 N inst3|dffs[1]~feeder_combout $end
$var wire 1 O inst21~9_combout $end
$var wire 1 P inst3|dffs[2]~feeder_combout $end
$var wire 1 Q inst21~8_combout $end
$var wire 1 R inst21~10_combout $end
$var wire 1 S inst21~15_combout $end
$var wire 1 T inst21~16_combout $end
$var wire 1 U inst3|dffs[0]~feeder_combout $end
$var wire 1 V inst21~17_combout $end
$var wire 1 W inst21~18_combout $end
$var wire 1 X inst21~13_combout $end
$var wire 1 Y inst21~1_combout $end
$var wire 1 Z inst21~6_combout $end
$var wire 1 [ inst21~7_combout $end
$var wire 1 \ inst21~3_combout $end
$var wire 1 ] inst21~4_combout $end
$var wire 1 ^ inst21~5_combout $end
$var wire 1 _ Stop~combout $end
$var wire 1 ` inst16~feeder_combout $end
$var wire 1 a inst16~regout $end
$var wire 1 b inst1~1_combout $end
$var wire 1 c inst1~0_combout $end
$var wire 1 d inst1~combout $end
$var wire 1 e inst15~regout $end
$var wire 1 f inst17~combout $end
$var wire 1 g inst2~feeder_combout $end
$var wire 1 h nIOW~combout $end
$var wire 1 i inst2~regout $end
$var wire 1 j inst21~0_combout $end
$var wire 1 k inst21~14_combout $end
$var wire 1 l inst13~0_combout $end
$var wire 1 m inst12|inst~combout $end
$var wire 1 n inst12|inst3|LPM_COUNTER_component|auto_generated|safe_q [4] $end
$var wire 1 o inst12|inst3|LPM_COUNTER_component|auto_generated|safe_q [3] $end
$var wire 1 p inst12|inst3|LPM_COUNTER_component|auto_generated|safe_q [2] $end
$var wire 1 q inst12|inst3|LPM_COUNTER_component|auto_generated|safe_q [1] $end
$var wire 1 r inst12|inst3|LPM_COUNTER_component|auto_generated|safe_q [0] $end
$var wire 1 s A~combout [7] $end
$var wire 1 t A~combout [6] $end
$var wire 1 u A~combout [5] $end
$var wire 1 v A~combout [4] $end
$var wire 1 w A~combout [3] $end
$var wire 1 x A~combout [2] $end
$var wire 1 y A~combout [1] $end
$var wire 1 z A~combout [0] $end
$var wire 1 { inst3|dffs [2] $end
$var wire 1 | inst3|dffs [1] $end
$var wire 1 } inst3|dffs [0] $end
$var wire 1 ~ DB~combout [7] $end
$var wire 1 !! DB~combout [6] $end
$var wire 1 "! DB~combout [5] $end
$var wire 1 #! DB~combout [4] $end
$var wire 1 $! DB~combout [3] $end
$var wire 1 %! DB~combout [2] $end
$var wire 1 &! DB~combout [1] $end
$var wire 1 '! DB~combout [0] $end
$upscope $end
$upscope $end
$enddefinitions $end
#0
$dumpvars
b1111001 !
0"
b0 #
1$
1%
1&
0'
0(
0-
0,
0+
0*
0)
0.
0/
00
x1
02
13
x4
15
16
17
08
09
0:
0;
0<
1=
0>
1?
0@
1A
1B
0C
0D
0E
0F
1G
0H
1I
0J
0K
1L
0M
0N
1O
0P
0Q
0R
1S
1T
0U
0V
0W
0X
1Y
0Z
0[
0\
0]
0^
0_
0`
0a
1b
1c
0d
0e
0f
1g
1h
0i
0j
0k
0l
1m
0r
0q
0p
0o
0n
1z
0y
0x
1w
1v
1u
1t
0s
0}
0|
0{
0'!
0&!
0%!
z$!
z#!
z"!
z!!
z~
$end
#10000
0&
0A
0B
01
#15000
1"
1<
11
1f
1r
1Z
0O
1K
0?
1:
1-
1D
1X
#20000
0"
0<
01
0f
#35000
1"
1<
11
1f
0r
1q
0Z
0K
1?
0:
0S
0L
0D
0-
1,
1L
1D
0X
0T
1M
0M
#40000
0"
0<
01
0f
#55000
1"
1<
11
1f
1r
1Z
1K
0?
1:
1-
0L
0D
1M
#60000
0"
0<
01
0f
#75000
1"
1<
11
1f
1p
0r
0q
1\
0Z
1E
0M
0:
0K
1?
1S
1L
1D
1+
0-
0,
1]
1F
0D
1T
0E
1M
1^
0F
#80000
0"
0<
01
0f
#95000
1"
1<
11
1f
1r
0]
1K
0?
1-
0^
1D
#100000
b11111001 !
b10111001 !
b10011001 !
b10001001 !
b10000001 !
b10000000 !
0"
0z
0w
0v
0u
0t
1s
0<
01
0b
0c
0f
1d
#115000
1"
1<
11
1f
0r
1q
1]
0K
1?
0S
0L
0D
0-
1,
1^
1L
1D
0T
1E
0M
0E
1M
1F
0F
#120000
0"
0<
01
0f
#130000
0%
1'
0h
1C
11
1J
1e
#135000
1"
1<
01
1f
0p
0q
0\
1O
0M
1S
0D
0+
0,
0]
1T
0^
#140000
0$
1%
0"
0=
1h
0<
11
0J
0f
1i
1l
1.
#150000
0'
1$
0C
1=
01
#155000
1"
1<
11
1f
1j
1r
1Z
0O
1K
0?
1:
1-
1D
1X
1k
10
#160000
0"
0<
01
0f
0j
0k
00
#175000
1"
1<
11
1f
1j
1k
10
0r
1q
0Z
0K
1?
0:
0S
0L
0D
0-
1,
1L
1D
0X
0T
1M
0M
0k
00
#180000
0"
0<
01
0f
0j
#195000
1"
1<
11
1f
1j
1r
1Z
1K
0?
1:
1-
0L
0D
1M
#200000
0"
0<
01
0f
0j
#215000
1"
1<
11
1f
1j
1p
0r
0q
1\
0Z
1E
0M
0:
0K
1?
1S
1L
1D
1+
0-
0,
1]
1F
0D
1T
0E
1M
1^
0F
1k
10
#220000
0"
0<
01
0f
0j
0k
00
#235000
1"
1<
11
1f
1j
1k
10
1r
0]
1K
0?
1-
0^
1D
0k
00
#240000
0"
0<
01
0f
0j
#255000
1"
1<
11
1f
1j
0r
1q
1]
0K
1?
0S
0L
0D
0-
1,
1^
1L
1D
0T
1E
0M
1k
0E
1M
1F
0F
10
#260000
b10000001 !
0"
1z
0<
01
1b
0f
0d
0j
0k
00
#275000
1"
1<
11
1f
1j
1k
10
1r
0]
1K
0?
1-
0^
0L
0D
0k
1E
0M
1F
00
#280000
0"
0<
01
0f
0j
#295000
1"
1<
11
1f
1j
0p
0r
1o
0q
0\
1O
0E
1M
1]
0K
1?
0G
0F
1S
1L
1D
0+
0-
1*
0,
1G
1F
0D
1H
1T
0M
0H
#300000
b1 #
0"
1'!
0<
01
1U
0f
0j
#310000
1'
1C
11
#315000
1"
1<
01
1f
1j
1r
0]
1Z
0O
1K
0?
1-
1D
#320000
0"
0<
11
0f
0j
#335000
1"
1<
01
1f
1j
0r
1q
1]
0Z
0K
1?
0S
0L
0D
0-
1,
1L
1D
0T
1M
0M
#340000
0"
0<
11
0f
0j
#350000
0'
0C
01
#355000
1"
1<
11
1f
1j
1r
0]
1Z
1K
0?
1-
0L
0D
1M
#360000
0"
0<
01
0f
0j
#375000
1"
1<
11
1f
1j
1p
0r
0q
1\
0Z
1E
0M
1]
0K
1?
1S
1L
1D
1+
0-
0,
0G
0F
0D
1T
0E
1M
1H
1G
1F
0H
#380000
0"
0<
01
0f
0j
#390000
1(
1_
11
1`
#395000
1"
1<
01
1f
1j
1r
0]
1K
0?
1-
1D
#400000
0%
0"
0h
0<
11
0f
0j
1a
0e
0i
0l
0.
#410000
1%
1h
01
#415000
1"
1<
11
1f
0r
1q
1]
0K
1?
0S
0L
0D
0-
1,
1L
1D
0T
1E
0M
0E
1M
0G
0F
1G
1F
1H
0H
#420000
0$
0(
0"
0=
0_
0<
01
0`
0f
1i
1l
1.
#430000
1$
1=
11
#435000
1"
1<
01
1f
1j
1r
0]
1K
0?
1-
0L
0D
1E
0M
0G
0F
1H
#440000
0"
0<
11
0f
0j
#455000
1"
1<
01
1f
1j
0p
0r
1n
0o
0q
0\
1O
0E
1M
1]
0K
1?
0Y
1S
0H
1G
1F
1L
1D
0+
0-
1)
0*
0,
0]
0F
0D
1T
1H
0M
#460000
0"
0<
11
0f
0j
#475000
1"
1<
01
1f
1j
1r
1Z
0O
1K
0?
1:
1-
1D
1X
1k
10
#480000
0"
0<
11
0f
0j
0k
00
#495000
1"
1<
01
1f
1j
1k
10
0r
1q
0Z
0K
1?
0:
0L
0D
0-
1,
1L
1D
0X
1M
0M
0k
00
#500000
0"
0<
11
0f
0j
#515000
1"
1<
01
1f
1j
1r
1Z
1K
0?
1:
1-
0L
0D
1X
1M
1k
10
#520000
b11 #
b10 #
0"
0'!
1&!
0<
11
0U
1N
0f
0j
0k
00
#535000
1"
1<
01
1f
1j
1k
10
1p
0r
0q
1\
0Z
0I
1E
0M
0:
0K
1?
1L
1D
1+
0-
0,
1]
0m
1J
1F
0X
0D
0E
1M
0k
0F
1/
00
#540000
b10000000 !
0"
0z
0<
11
0b
0f
1d
0j
#555000
1"
1<
01
1f
1j
0p
0n
0\
1O
1I
0M
1Y
0H
0+
0)
0]
1m
0J
1^
0^
1k
0/
0k
10
00
#560000
1'
0%
0"
1C
0h
0<
11
1J
0f
0j
0a
1e
0i
0l
0.
#570000
0$
1%
0=
1h
01
0J
1i
1l
1.
#575000
1"
1<
11
1f
1j
1r
1Z
0O
1K
0?
1:
1-
1D
1X
1k
10
#580000
0'
1$
0"
0C
1=
0<
01
0f
0j
0k
00
#595000
1"
1<
11
1f
1j
1k
10
0r
1q
0Z
0K
1?
0:
0S
0L
0D
0-
1,
1L
1D
0X
0T
1M
0M
0k
00
#600000
0"
0<
01
0f
0j
#615000
1"
1<
11
1f
1j
1r
1Z
1K
0?
1:
1-
0L
0D
1M
#620000
0"
0<
01
0f
0j
#635000
1"
1<
11
1f
1j
1p
0r
0q
1\
0Z
1E
0M
0:
0K
1?
1S
1L
1D
1+
0-
0,
1]
1F
0D
1T
0E
1M
1^
0F
1k
10
#640000
0"
0<
01
0f
0j
0k
00
#655000
1"
1<
11
1f
1j
1k
10
1r
0]
1K
0?
1-
0^
1D
0k
00
#660000
0"
0<
01
0f
0j
#675000
1"
1<
11
1f
1j
0r
1q
1]
0K
1?
0S
0L
0D
0-
1,
1^
1L
1D
0T
1E
0M
1k
0E
1M
1F
0F
10
#680000
0"
0<
01
0f
0j
0k
00
#690000
b10000010 !
1y
11
1b
0d
#695000
1"
1<
01
1f
1j
1k
10
1r
0]
1K
0?
1-
0^
0L
0D
0k
1E
0M
1F
00
#700000
0"
0<
11
0f
0j
#715000
1"
1<
01
1f
1j
0p
0r
1o
0q
0\
1O
0E
1M
1]
0K
1?
0G
0F
1S
1L
1D
0+
0-
1*
0,
1G
1F
0D
1H
1T
0M
0H
#720000
0"
0<
11
0f
0j
#735000
1"
1<
01
1f
1j
1r
0]
1Z
0O
1K
0?
1-
1D
#740000
b11 #
0"
1'!
0<
11
1U
0f
0j
#755000
1"
1<
01
1f
1j
0r
1q
1]
0Z
0K
1?
0S
0L
0D
0-
1,
1L
1D
0T
1M
0M
#760000
0"
0<
11
0f
0j
#775000
1"
1<
01
1f
1j
1r
0]
1Z
1K
0?
1-
0L
0D
1M
#780000
0"
0<
11
0f
0j
#795000
1"
1<
01
1f
1j
1p
0r
0q
1\
0Z
1E
0M
1]
0K
1?
1S
1L
1D
1+
0-
0,
0G
0F
0D
1T
0E
1M
1H
1G
1F
0H
#800000
0"
0<
11
0f
0j
#815000
1"
1<
01
1f
1j
1r
0]
1K
0?
1-
1D
#820000
0"
0<
11
0f
0j
#835000
1"
1<
01
1f
1j
0r
1q
1]
0K
1?
0S
0L
0D
0-
1,
1L
1D
0T
1E
0M
0E
1M
0G
0F
1G
1F
1H
0H
#840000
0"
0<
11
0f
0j
#855000
1"
1<
01
1f
1j
1r
0]
1K
0?
1-
0L
0D
1E
0M
0G
0F
1H
#860000
0"
0<
11
0f
0j
#875000
1"
1<
01
1f
1j
0p
0r
1n
0o
0q
0\
1O
0E
1M
1]
0K
1?
0Y
1S
0H
1G
1F
1L
1D
0+
0-
1)
0*
0,
0]
0F
0D
1T
1H
0M
#880000
0"
0<
11
0f
0j
#895000
1"
1<
01
1f
1j
1r
1Z
0O
1K
0?
1:
1-
1D
1X
1k
10
#900000
0"
0<
11
0f
0j
0k
00
#915000
1"
1<
01
1f
1j
1k
10
0r
1q
0Z
0K
1?
0:
0L
0D
0-
1,
1L
1D
0X
1M
0M
0k
00
#920000
0"
0<
11
0f
0j
#930000
1(
b10000000 !
1_
0y
01
1`
0b
1d
#935000
1"
1<
11
1f
1j
1r
1Z
1K
0?
1:
1-
0L
0D
1X
1M
1k
10
#940000
0%
0"
0h
0<
01
0f
0j
0k
00
1a
0i
0l
0.
#950000
1%
1h
11
#955000
1"
1<
01
#960000
0(
0"
0_
0<
11
0`
#975000
1"
1<
01
#980000
b10000010 !
0"
1y
0<
11
1b
0d
#995000
1"
1<
01
