course_var2.2/interface/dc_scheme/simulation/qsim/dc_scheme.msim.vcd
$comment
	File created using the following command:
		vcd file dc_scheme.msim.vcd -direction
$end
$date
	Thu May 22 20:09:19 2025
$end
$version
	ModelSim Version 10.1d
$end
$timescale
	1ps
$end
$scope module dc_scheme_vlg_vec_tst $end
$var reg 1 ! clk_en $end
$var reg 1 " Clock $end
$var wire 1 # Output $end
$var wire 1 $ period $end
$var wire 1 % sampler $end
$scope module i1 $end
$var wire 1 & gnd $end
$var wire 1 ' vcc $end
$var wire 1 ( unknown $end
$var tri1 1 ) devclrn $end
$var tri1 1 * devpor $end
$var tri1 1 + devoe $end
$var wire 1 , inst1|LPM_COUNTER_component|auto_generated|counter_comb_bita0~combout $end
$var wire 1 - Clock~clkctrl_outclk $end
$var wire 1 . clk_en~combout $end
$var wire 1 / Clock~combout $end
$var wire 1 0 inst1|LPM_COUNTER_component|auto_generated|counter_comb_bita0~COUT $end
$var wire 1 1 inst1|LPM_COUNTER_component|auto_generated|counter_comb_bita1~combout $end
$var wire 1 2 ~GND~combout $end
$var wire 1 3 inst1|LPM_COUNTER_component|auto_generated|counter_comb_bita1~COUT $end
$var wire 1 4 inst1|LPM_COUNTER_component|auto_generated|counter_comb_bita2~combout $end
$var wire 1 5 inst1|LPM_COUNTER_component|auto_generated|counter_comb_bita2~COUT $end
$var wire 1 6 inst1|LPM_COUNTER_component|auto_generated|counter_comb_bita3~combout $end
$var wire 1 7 inst1|LPM_COUNTER_component|auto_generated|counter_comb_bita3~COUT $end
$var wire 1 8 inst1|LPM_COUNTER_component|auto_generated|counter_comb_bita4~combout $end
$var wire 1 9 inst|LPM_DECODE_component|auto_generated|w_anode361w[3]~0_combout $end
$var wire 1 : inst|LPM_DECODE_component|auto_generated|w_anode361w[3]~1_combout $end
$var wire 1 ; inst3~8_combout $end
$var wire 1 < inst3~9_combout $end
$var wire 1 = inst3~combout $end
$var wire 1 > inst1|LPM_COUNTER_component|auto_generated|safe_q [4] $end
$var wire 1 ? inst1|LPM_COUNTER_component|auto_generated|safe_q [3] $end
$var wire 1 @ inst1|LPM_COUNTER_component|auto_generated|safe_q [2] $end
$var wire 1 A inst1|LPM_COUNTER_component|auto_generated|safe_q [1] $end
$var wire 1 B inst1|LPM_COUNTER_component|auto_generated|safe_q [0] $end
$upscope $end
$upscope $end
$enddefinitions $end
#0
$dumpvars
1!
0"
x#
x$
x%
0&
1'
x(
1)
1*
1+
x,
x-
1.
0/
x0
x1
02
x3
x4
x5
x6
x7
x8
x9
x:
x;
x<
x=
0B
0A
0@
0?
0>
$end
#143
0-
#661
09
#1038
0:
#1052
17
#1092
00
#1105
05
#1122
1,
#1161
13
#1379
1;
#1558
08
#1598
01
#1611
06
#1667
04
#1958
1<
#3750
1"
0%
#4781
0$
#4890
1/
#5033
1-
#6195
0=
#6827
1B
#7919
10
#7949
0,
#8425
11
#9930
0#
#15000
0"
1%
#16140
0/
#16283
0-
#17445
1=
#18750
1"
0%
#19890
1/
#20033
1-
#21180
1#
#21195
0=
#21827
0B
1A
#22905
01
#22919
00
#22949
1,
#22950
0<
#23425
11
#24930
0#
#30000
0"
1%
#31140
0/
#31283
0-
#33750
1"
0%
#34890
1/
#35033
1-
#36827
1B
#37919
10
#37949
0,
#37950
1<
#38109
03
#38425
01
#38615
14
#45000
0"
1%
#46140
0/
#46283
0-
#47445
1=
#48750
1"
0%
#49890
1/
#50033
1-
#51180
1#
#51195
0=
#51827
0B
1@
0A
#52667
0;
#52905
11
#52919
00
#52932
15
#52949
1,
#52950
0<
#52958
04
#52988
13
#53074
05
#53425
01
#53494
14
#54930
0#
#60000
0"
1%
#61140
0/
#61283
0-
#63750
1"
0%
#64890
1/
#65033
1-
#66827
1B
#67919
10
#67949
0,
#68425
11
#75000
0"
1%
#76140
0/
#76283
0-
#78750
1"
0%
#79890
1/
#80033
1-
#81827
0B
1A
#82905
01
#82919
00
#82949
1,
#83425
11
#90000
0"
1%
#91140
0/
#91283
0-
#93750
1"
0%
#94890
1/
#95033
1-
#96827
1B
#97919
10
#97949
0,
#97950
1<
#98109
03
#98195
15
#98425
01
#98615
04
#98701
16
#105000
0"
1%
#106140
0/
#106283
0-
#107445
1=
#108750
1"
0%
#109890
1/
#110033
1-
#111180
1#
#111195
0=
#111827
0B
0@
1?
0A
#112879
07
#112905
11
#112906
06
#112908
0<
#112919
00
#112932
05
#112949
1,
#112958
14
#112988
13
#113018
17
#113425
01
#113438
16
#113494
04
#114930
0#
#120000
0"
1%
#121140
0/
#121283
0-
#123750
1"
0%
#124890
1/
#125033
1-
#126827
1B
#127919
10
#127949
0,
#128425
11
#135000
0"
1%
#136140
0/
#136283
0-
#138750
1"
0%
#139890
1/
#140033
1-
#141827
0B
1A
#142905
01
#142919
00
#142949
1,
#143425
11
#150000
0"
1%
#151140
0/
#151283
0-
#153750
1"
0%
#154890
1/
#155033
1-
#156827
1B
#157919
10
#157949
0,
#158109
03
#158425
01
#158615
14
#165000
0"
1%
#166140
0/
#166283
0-
#168750
1"
0%
#169890
1/
#170033
1-
#171827
0B
1@
0A
#172905
11
#172919
00
#172932
15
#172949
1,
#172958
04
#172988
13
#173018
07
#173074
05
#173160
17
#173425
01
#173494
14
#180000
0"
1%
#181140
0/
#181283
0-
#183750
1"
0%
#184890
1/
#185033
1-
#186827
1B
#187919
10
#187949
0,
#188425
11
#195000
0"
1%
#196140
0/
#196283
0-
#198750
1"
0%
#199890
1/
#200033
1-
#201827
0B
1A
#202905
01
#202919
00
#202949
1,
#203425
11
#210000
0"
1%
#211140
0/
#211283
0-
#213750
1"
0%
#214890
1/
#215033
1-
#216827
1B
#217919
10
#217949
0,
#217950
1<
#218109
03
#218195
15
#218281
07
#218425
01
#218615
04
#218701
06
#218787
18
#225000
0"
1%
#226140
0/
#226283
0-
#227445
1=
#228750
1"
0%
#229890
1/
#230033
1-
#231180
1#
#231195
0=
#231827
0B
0@
0?
1>
0A
#232779
08
#232879
17
#232905
11
#232906
16
#232908
0<
#232919
00
#232932
05
#232949
1,
#232958
14
#232988
13
#233385
18
#233425
01
#233438
06
#233494
04
#234930
0#
#240000
0"
1%
#241140
0/
#241283
0-
#243750
1"
0%
#244890
1/
#245033
1-
#246827
1B
#247919
10
#247949
0,
#248425
11
#255000
0"
1%
#256140
0/
#256283
0-
#258750
1"
0%
#259890
1/
#260033
1-
#261827
0B
1A
#262905
01
#262919
00
#262949
1,
#263425
11
#270000
0"
1%
#271140
0/
#271283
0-
#273750
1"
0%
#274890
1/
#275033
1-
#276827
1B
#277919
10
#277949
0,
#278109
03
#278425
01
#278615
14
#285000
0"
1%
#286140
0/
#286283
0-
#288750
1"
0%
#289890
1/
#290033
1-
#291827
0B
1@
0A
#292905
11
#292919
00
#292932
15
#292949
1,
#292958
04
#292988
13
#293074
05
#293425
01
#293494
14
#300000
0"
1%
#301140
0/
#301283
0-
#303750
1"
0%
#304890
1/
#305033
1-
#306827
1B
#307919
10
#307949
0,
#308425
11
#315000
0"
1%
#316140
0/
#316283
0-
#318750
1"
0%
#319890
1/
#320033
1-
#321827
0B
1A
#322905
01
#322919
00
#322949
1,
#323425
11
#330000
0"
1%
#331140
0/
#331283
0-
#333750
1"
0%
#334890
1/
#335033
1-
#336827
1B
#337919
10
#337949
0,
#337950
1<
#338109
03
#338195
15
#338425
01
#338615
04
#338701
16
#345000
0"
1%
#346140
0/
#346283
0-
#347445
1=
#348750
1"
0%
#349890
1/
#350033
1-
#351180
1#
#351195
0=
#351827
0B
0@
1?
0A
#352488
19
#352879
07
#352905
11
#352906
06
#352908
0<
#352919
00
#352932
05
#352949
1,
#352958
14
#352988
13
#353018
17
#353425
01
#353438
16
#353494
04
#354930
0#
#360000
0"
1%
#361140
0/
#361283
0-
#363750
1"
0%
#364890
1/
#365033
1-
#366827
1B
#367919
10
#367949
0,
#368425
11
#375000
0"
1%
#376140
0/
#376283
0-
#378750
1"
0%
#379890
1/
#380033
1-
#381827
0B
1A
#382898
1;
#382905
01
#382919
00
#382949
1,
#383425
11
#390000
0"
1%
#391140
0/
#391283
0-
#393750
1"
0%
#394890
1/
#395033
1-
#396827
1B
#397919
10
#397949
0,
#397950
1<
#398109
03
#398425
01
#398615
14
#405000
0"
1%
#406140
0/
#406283
0-
#407445
1=
#408750
1"
0%
#409890
1/
#410033
1-
#411180
1#
#411195
0=
#411827
0B
1@
0A
#412905
11
#412919
00
#412932
15
#412949
1,
#412950
0<
#412958
04
#412988
13
#413018
07
#413074
05
#413160
17
#413425
01
#413494
14
#414930
0#
#420000
0"
1%
#421140
0/
#421283
0-
#423750
1"
0%
#424890
1/
#425033
1-
#426827
1B
#427919
10
#427949
0,
#427950
1<
#428425
11
#435000
0"
1%
#436140
0/
#436283
0-
#437445
1=
#438750
1"
0%
#439890
1/
#440033
1-
#441180
1#
#441195
0=
#441827
0B
1A
#442799
1:
#442905
01
#442919
00
#442949
1,
#443425
11
#444930
0#
#446542
1$
#450000
0"
1%
#451140
0/
#451283
0-
#452445
1=
#453750
1"
0%
#454890
1/
#455033
1-
#456180
1#
#456195
0=
#456827
0@
0?
0>
0A
#457488
09
#457779
08
#457865
0:
#457905
01
#457906
06
#457958
04
#459930
0#
#461608
0$
#465000
0"
1%
#466140
0/
#466283
0-
#467445
1=
#468750
1"
0%
#469890
1/
#470033
1-
#471180
1#
#471195
0=
#471827
1B
#472919
10
#472949
0,
#473425
11
#474930
0#
#480000
0"
1%
#481140
0/
#481283
0-
#482445
1=
#483750
1"
0%
#484890
1/
#485033
1-
#486180
1#
#486195
0=
#486827
0B
1A
#487905
01
#487919
00
#487949
1,
#487950
0<
#488425
11
#489930
0#
#495000
0"
1%
#496140
0/
#496283
0-
#498750
1"
0%
#499890
1/
#500033
1-
#501827
1B
#502919
10
#502949
0,
#502950
1<
#503109
03
#503425
01
#503615
14
#510000
0"
1%
#511140
0/
#511283
0-
#512445
1=
#513750
1"
0%
#514890
1/
#515033
1-
#516180
1#
#516195
0=
#516827
0B
1@
0A
#517667
0;
#517905
11
#517919
00
#517932
15
#517949
1,
#517950
0<
#517958
04
#517988
13
#518074
05
#518425
01
#518494
14
#519930
0#
#525000
0"
1%
#526140
0/
#526283
0-
#528750
1"
0%
#529890
1/
#530033
1-
#531827
1B
#532919
10
#532949
0,
#533425
11
#540000
0"
1%
#541140
0/
#541283
0-
#543750
1"
0%
#544890
1/
#545033
1-
#546827
0B
1A
#547905
01
#547919
00
#547949
1,
#548425
11
#555000
0"
1%
#556140
0/
#556283
0-
#558750
1"
0%
#559890
1/
#560033
1-
#561827
1B
#562919
10
#562949
0,
#562950
1<
#563109
03
#563195
15
#563425
01
#563615
04
#563701
16
#570000
0"
1%
#571140
0/
#571283
0-
#572445
1=
#573750
1"
0%
#574890
1/
#575033
1-
#576180
1#
#576195
0=
#576827
0B
0@
1?
0A
#577879
07
#577905
11
#577906
06
#577908
0<
#577919
00
#577932
05
#577949
1,
#577958
14
#577988
13
#578018
17
#578425
01
#578438
16
#578494
04
#579930
0#
#585000
0"
1%
#586140
0/
#586283
0-
#588750
1"
0%
#589890
1/
#590033
1-
#591827
1B
#592919
10
#592949
0,
#593425
11
#600000
0"
1%
#601140
0/
#601283
0-
#603750
1"
0%
#604890
1/
#605033
1-
#606827
0B
1A
#607905
01
#607919
00
#607949
1,
#608425
11
#615000
0"
1%
#616140
0/
#616283
0-
#618750
1"
0%
#619890
1/
#620033
1-
#621827
1B
#622919
10
#622949
0,
#623109
03
#623425
01
#623615
14
#630000
0"
1%
#631140
0/
#631283
0-
#633750
1"
0%
#634890
1/
#635033
1-
#636827
0B
1@
0A
#637905
11
#637919
00
#637932
15
#637949
1,
#637958
04
#637988
13
#638018
07
#638074
05
#638160
17
#638425
01
#638494
14
#645000
0"
1%
#646140
0/
#646283
0-
#648750
1"
0%
#649890
1/
#650033
1-
#651827
1B
#652919
10
#652949
0,
#653425
11
#660000
0"
1%
#661140
0/
#661283
0-
#663750
1"
0%
#664890
1/
#665033
1-
#666827
0B
1A
#667905
01
#667919
00
#667949
1,
#668425
11
#675000
0"
1%
#676140
0/
#676283
0-
#678750
1"
0%
#679890
1/
#680033
1-
#681827
1B
#682919
10
#682949
0,
#682950
1<
#683109
03
#683195
15
#683281
07
#683425
01
#683615
04
#683701
06
#683787
18
#690000
0"
1%
#691140
0/
#691283
0-
#692445
1=
#693750
1"
0%
#694890
1/
#695033
1-
#696180
1#
#696195
0=
#696827
0B
0@
0?
1>
0A
#697779
08
#697879
17
#697905
11
#697906
16
#697908
0<
#697919
00
#697932
05
#697949
1,
#697958
14
#697988
13
#698385
18
#698425
01
#698438
06
#698494
04
#699930
0#
#705000
0"
1%
#706140
0/
#706283
0-
#708750
1"
0%
#709890
1/
#710033
1-
#711827
1B
#712919
10
#712949
0,
#713425
11
#720000
0"
1%
#721140
0/
#721283
0-
#723750
1"
0%
#724890
1/
#725033
1-
#726827
0B
1A
#727905
01
#727919
00
#727949
1,
#728425
11
#735000
0"
1%
#736140
0/
#736283
0-
#738750
1"
0%
#739890
1/
#740033
1-
#741827
1B
#742919
10
#742949
0,
#743109
03
#743425
01
#743615
14
#750000
0"
1%
#751140
0/
#751283
0-
#753750
1"
0%
#754890
1/
#755033
1-
#756827
0B
1@
0A
#757905
11
#757919
00
#757932
15
#757949
1,
#757958
04
#757988
13
#758074
05
#758425
01
#758494
14
#765000
0"
1%
#766140
0/
#766283
0-
#768750
1"
0%
#769890
1/
#770033
1-
#771827
1B
#772919
10
#772949
0,
#773425
11
#780000
0"
1%
#781140
0/
#781283
0-
#783750
1"
0%
#784890
1/
#785033
1-
#786827
0B
1A
#787905
01
#787919
00
#787949
1,
#788425
11
#795000
0"
1%
#796140
0/
#796283
0-
#798750
1"
0%
#799890
1/
#800033
1-
#801827
1B
#802919
10
#802949
0,
#802950
1<
#803109
03
#803195
15
#803425
01
#803615
04
#803701
16
#810000
0"
1%
#811140
0/
#811283
0-
#812445
1=
#813750
1"
0%
#814890
1/
#815033
1-
#816180
1#
#816195
0=
#816827
0B
0@
1?
0A
#817488
19
#817879
07
#817905
11
#817906
06
#817908
0<
#817919
00
#817932
05
#817949
1,
#817958
14
#817988
13
#818018
17
#818425
01
#818438
16
#818494
04
#819930
0#
#825000
0"
1%
#826140
0/
#826283
0-
#828750
1"
0%
#829890
1/
#830033
1-
#831827
1B
#832919
10
#832949
0,
#833425
11
#840000
0"
1%
#841140
0/
#841283
0-
#843750
1"
0%
#844890
1/
#845033
1-
#846827
0B
1A
#847898
1;
#847905
01
#847919
00
#847949
1,
#848425
11
#855000
0"
1%
#856140
0/
#856283
0-
#858750
1"
0%
#859890
1/
#860033
1-
#861827
1B
#862919
10
#862949
0,
#862950
1<
#863109
03
#863425
01
#863615
14
#870000
0"
1%
#871140
0/
#871283
0-
#872445
1=
#873750
1"
0%
#874890
1/
#875033
1-
#876180
1#
#876195
0=
#876827
0B
1@
0A
#877905
11
#877919
00
#877932
15
#877949
1,
#877950
0<
#877958
04
#877988
13
#878018
07
#878074
05
#878160
17
#878425
01
#878494
14
#879930
0#
#885000
0"
1%
#886140
0/
#886283
0-
#888750
1"
0%
#889890
1/
#890033
1-
#891827
1B
#892919
10
#892949
0,
#892950
1<
#893425
11
#900000
0"
1%
#901140
0/
#901283
0-
#902445
1=
#903750
1"
0%
#904890
1/
#905033
1-
#906180
1#
#906195
0=
#906827
0B
1A
#907799
1:
#907905
01
#907919
00
#907949
1,
#908425
11
#909930
0#
#911542
1$
#915000
0"
1%
#916140
0/
#916283
0-
#917445
1=
#918750
1"
0%
#919890
1/
#920033
1-
#921180
1#
#921195
0=
#921827
0@
0?
0>
0A
#922488
09
#922779
08
#922865
0:
#922905
01
#922906
06
#922958
04
#924930
0#
#926608
0$
#930000
0"
1%
#931140
0/
#931283
0-
#932445
1=
#933750
1"
0%
#934890
1/
#935033
1-
#936180
1#
#936195
0=
#936827
1B
#937919
10
#937949
0,
#938425
11
#939930
0#
#945000
0"
1%
#946140
0/
#946283
0-
#947445
1=
#948750
1"
0%
#949890
1/
#950033
1-
#951180
1#
#951195
0=
#951827
0B
1A
#952905
01
#952919
00
#952949
1,
#952950
0<
#953425
11
#954930
0#
#960000
0"
1%
#961140
0/
#961283
0-
#963750
1"
0%
#964890
1/
#965033
1-
#966827
1B
#967919
10
#967949
0,
#967950
1<
#968109
03
#968425
01
#968615
14
#975000
0"
1%
#976140
0/
#976283
0-
#977445
1=
#978750
1"
0%
#979890
1/
#980033
1-
#981180
1#
#981195
0=
#981827
0B
1@
0A
#982667
0;
#982905
11
#982919
00
#982932
15
#982949
1,
#982950
0<
#982958
04
#982988
13
#983074
05
#983425
01
#983494
14
#984930
0#
#990000
0"
1%
#991140
0/
#991283
0-
#993750
1"
0%
#994890
1/
#995033
1-
#996827
1B
#997919
10
#997949
0,
#998425
11
