course_var1.2/prom_mux/simulation/qsim/prom_mux.msim.vcd
$comment
	File created using the following command:
		vcd file prom_mux.msim.vcd -direction
$end
$date
	Thu May 29 00:48:40 2025
$end
$version
	ModelSim Version 10.1d
$end
$timescale
	1ps
$end
$scope module prom_mux_vlg_vec_tst $end
$var reg 1 ! Clock $end
$var reg 3 " md [2:0] $end
$var reg 5 # td [4:0] $end
$var wire 1 $ result $end
$var wire 1 % sampler $end
$scope module i1 $end
$var wire 1 & gnd $end
$var wire 1 ' vcc $end
$var wire 1 ( unknown $end
$var tri1 1 ) devclrn $end
$var tri1 1 * devpor $end
$var tri1 1 + devoe $end
$var wire 1 , inst3|LPM_MUX_component|auto_generated|_~2_combout $end
$var wire 1 - inst3|LPM_MUX_component|auto_generated|_~4_combout $end
$var wire 1 . inst3|LPM_MUX_component|auto_generated|_~5_combout $end
$var wire 1 / inst4~6_combout $end
$var wire 1 0 Clock~combout $end
$var wire 1 1 Clock~clkctrl_outclk $end
$var wire 1 2 inst3|LPM_MUX_component|auto_generated|_~3_combout $end
$var wire 1 3 inst4~10_combout $end
$var wire 1 4 inst4~11_combout $end
$var wire 1 5 inst4~0_combout $end
$var wire 1 6 inst3|LPM_MUX_component|auto_generated|_~0_combout $end
$var wire 1 7 inst3|LPM_MUX_component|auto_generated|_~1_combout $end
$var wire 1 8 inst4~1_combout $end
$var wire 1 9 inst4~8_combout $end
$var wire 1 : inst4~3_combout $end
$var wire 1 ; inst4~2_combout $end
$var wire 1 < inst4~4_combout $end
$var wire 1 = inst4~5_combout $end
$var wire 1 > inst4~7_combout $end
$var wire 1 ? inst4~9_combout $end
$var wire 1 @ td~combout [4] $end
$var wire 1 A td~combout [3] $end
$var wire 1 B td~combout [2] $end
$var wire 1 C td~combout [1] $end
$var wire 1 D td~combout [0] $end
$var wire 1 E md~combout [2] $end
$var wire 1 F md~combout [1] $end
$var wire 1 G md~combout [0] $end
$var wire 1 H inst|srom|rom_block|auto_generated|q_a [19] $end
$var wire 1 I inst|srom|rom_block|auto_generated|q_a [18] $end
$var wire 1 J inst|srom|rom_block|auto_generated|q_a [17] $end
$var wire 1 K inst|srom|rom_block|auto_generated|q_a [16] $end
$var wire 1 L inst|srom|rom_block|auto_generated|q_a [15] $end
$var wire 1 M inst|srom|rom_block|auto_generated|q_a [14] $end
$var wire 1 N inst|srom|rom_block|auto_generated|q_a [13] $end
$var wire 1 O inst|srom|rom_block|auto_generated|q_a [12] $end
$var wire 1 P inst|srom|rom_block|auto_generated|q_a [11] $end
$var wire 1 Q inst|srom|rom_block|auto_generated|q_a [10] $end
$var wire 1 R inst|srom|rom_block|auto_generated|q_a [9] $end
$var wire 1 S inst|srom|rom_block|auto_generated|q_a [8] $end
$var wire 1 T inst|srom|rom_block|auto_generated|q_a [7] $end
$var wire 1 U inst|srom|rom_block|auto_generated|q_a [6] $end
$var wire 1 V inst|srom|rom_block|auto_generated|q_a [5] $end
$var wire 1 W inst|srom|rom_block|auto_generated|q_a [4] $end
$var wire 1 X inst|srom|rom_block|auto_generated|q_a [3] $end
$var wire 1 Y inst|srom|rom_block|auto_generated|q_a [2] $end
$var wire 1 Z inst|srom|rom_block|auto_generated|q_a [1] $end
$var wire 1 [ inst|srom|rom_block|auto_generated|q_a [0] $end
$var wire 1 \ inst|srom|rom_block|auto_generated|ram_block1a0_PORTADATAOUT_bus [19] $end
$var wire 1 ] inst|srom|rom_block|auto_generated|ram_block1a0_PORTADATAOUT_bus [18] $end
$var wire 1 ^ inst|srom|rom_block|auto_generated|ram_block1a0_PORTADATAOUT_bus [17] $end
$var wire 1 _ inst|srom|rom_block|auto_generated|ram_block1a0_PORTADATAOUT_bus [16] $end
$var wire 1 ` inst|srom|rom_block|auto_generated|ram_block1a0_PORTADATAOUT_bus [15] $end
$var wire 1 a inst|srom|rom_block|auto_generated|ram_block1a0_PORTADATAOUT_bus [14] $end
$var wire 1 b inst|srom|rom_block|auto_generated|ram_block1a0_PORTADATAOUT_bus [13] $end
$var wire 1 c inst|srom|rom_block|auto_generated|ram_block1a0_PORTADATAOUT_bus [12] $end
$var wire 1 d inst|srom|rom_block|auto_generated|ram_block1a0_PORTADATAOUT_bus [11] $end
$var wire 1 e inst|srom|rom_block|auto_generated|ram_block1a0_PORTADATAOUT_bus [10] $end
$var wire 1 f inst|srom|rom_block|auto_generated|ram_block1a0_PORTADATAOUT_bus [9] $end
$var wire 1 g inst|srom|rom_block|auto_generated|ram_block1a0_PORTADATAOUT_bus [8] $end
$var wire 1 h inst|srom|rom_block|auto_generated|ram_block1a0_PORTADATAOUT_bus [7] $end
$var wire 1 i inst|srom|rom_block|auto_generated|ram_block1a0_PORTADATAOUT_bus [6] $end
$var wire 1 j inst|srom|rom_block|auto_generated|ram_block1a0_PORTADATAOUT_bus [5] $end
$var wire 1 k inst|srom|rom_block|auto_generated|ram_block1a0_PORTADATAOUT_bus [4] $end
$var wire 1 l inst|srom|rom_block|auto_generated|ram_block1a0_PORTADATAOUT_bus [3] $end
$var wire 1 m inst|srom|rom_block|auto_generated|ram_block1a0_PORTADATAOUT_bus [2] $end
$var wire 1 n inst|srom|rom_block|auto_generated|ram_block1a0_PORTADATAOUT_bus [1] $end
$var wire 1 o inst|srom|rom_block|auto_generated|ram_block1a0_PORTADATAOUT_bus [0] $end
$upscope $end
$upscope $end
$enddefinitions $end
#0
$dumpvars
0!
b0 "
b0 #
x$
x%
0&
1'
x(
1)
1*
1+
x,
x-
x.
x/
00
x1
x2
x3
x4
x5
x6
x7
x8
x9
x:
x;
x<
x=
x>
x?
0D
0C
0B
0A
0@
0G
0F
0E
0[
0Z
0Y
0X
0W
0V
0U
0T
0S
0R
0Q
0P
0O
0N
0M
0L
0K
0J
0I
0H
0o
0n
0m
0l
0k
0j
0i
0h
0g
0f
0e
0d
0c
0b
0a
0`
0_
0^
0]
0\
$end
#143
01
#1218
0;
#1410
0/
#1688
0:
#1754
0=
#1905
03
#1906
09
#2600
05
#2647
0<
#2893
04
#3340
08
#3342
0>
#4334
0?
#6825
06
#6882
0,
#6890
0-
#7812
07
#7895
0.
#7929
02
#8974
0$
#22500
1!
0%
#23640
10
#23783
11
#26240
15
#28298
1n
1k
1i
1^
1\
1Z
1W
1U
1J
1H
#29516
1-
#30000
0!
1%
#30521
1.
#31140
00
#31283
01
#31569
13
#33045
03
#33740
05
#50000
b1 #
0%
#50984
1D
#52500
1!
1%
#53640
10
#53783
11
#55545
13
#56240
15
#57586
17
#57659
0.
#57662
12
#57663
0-
#58455
18
#58707
03
#59449
1?
#60000
0!
0%
#61140
00
#61283
01
#63740
05
#64089
1$
#64480
08
#65474
0?
#70114
0$
#80000
b11 #
b10 #
1%
#80984
1C
0D
#82500
1!
0%
#83640
10
#83783
11
#86240
15
#86980
18
#87586
07
#87662
02
#87874
1-
#87974
1?
#88455
08
#88879
1.
#89449
0?
#89927
13
#90000
0!
1%
#91140
00
#91283
01
#93045
03
#93740
05
#110000
b11 #
0%
#110984
1D
#112500
1!
1%
#113640
10
#113783
11
#115545
13
#116240
15
#117586
17
#117588
16
#117653
1,
#117659
0.
#117662
12
#118455
18
#118575
07
#118707
03
#119444
08
#119449
1?
#120000
0!
0%
#120438
0?
#121140
00
#121283
01
#123740
05
#140000
b111 #
b101 #
b100 #
1%
#140964
1B
#140984
0C
0D
#142500
1!
0%
#143640
10
#143783
11
#146240
15
#147585
05
#147586
17
#147659
1.
#147809
06
#147866
0,
#148707
13
#148796
07
#148913
02
#149695
14
#150000
0!
1%
#150740
1?
#151140
00
#151283
01
#153045
03
#154033
04
#155078
0?
#155380
1$
#159718
0$
#170000
b101 #
0%
#170984
1D
#172500
1!
1%
#173640
10
#173783
11
#175545
13
#176533
14
#177578
1?
#177586
17
#177659
0.
#177662
12
#177663
0-
#178707
03
#179695
04
#180000
0!
0%
#180740
0?
#181140
00
#181283
01
#200000
b111 #
b110 #
1%
#200984
1C
0D
#202500
1!
0%
#203640
10
#203783
11
#207586
07
#207662
02
#207874
1-
#208879
1.
#209927
13
#210000
0!
1%
#210915
14
#211140
00
#211283
01
#211960
1?
#213045
03
#214033
04
#215078
0?
#230000
b111 #
0%
#230984
1D
#232500
1!
1%
#233640
10
#233783
11
#235545
13
#236533
14
#237578
1?
#237586
17
#237588
16
#237653
1,
#237659
0.
#237662
12
#238575
07
#238707
03
#239695
04
#240000
0!
0%
#240740
0?
#241140
00
#241283
01
#260000
b1111 #
b1011 #
b1001 #
b1000 #
1%
#260964
0B
#260974
1A
#260984
0C
0D
#262500
1!
0%
#263640
10
#263783
11
#267586
17
#267659
1.
#267785
19
#267809
06
#267866
0,
#268707
13
#268796
07
#268913
02
#270000
0!
1%
#271140
00
#271283
01
#273045
03
#273046
09
#290000
b1001 #
0%
#290984
1D
#292500
1!
1%
#293640
10
#293783
11
#295545
13
#295546
19
#297586
17
#297659
0.
#297662
12
#297663
0-
#298707
03
#300000
0!
0%
#301140
00
#301283
01
#303046
09
#320000
b1011 #
b1010 #
1%
#320984
1C
0D
#322500
1!
0%
#323640
10
#323783
11
#325546
19
#327586
07
#327662
02
#327874
1-
#328879
1.
#329927
13
#330000
0!
1%
#331140
00
#331283
01
#333045
03
#333046
09
#350000
b1011 #
0%
#350984
1D
#352500
1!
1%
#353640
10
#353783
11
#355545
13
#355546
19
#357586
17
#357588
16
#357653
1,
#357659
0.
#357662
12
#358575
07
#358707
03
#360000
0!
0%
#361140
00
#361283
01
#363046
09
#380000
b1111 #
b1101 #
b1100 #
1%
#380964
1B
#380984
0C
0D
#382500
1!
0%
#383640
10
#383783
11
#385546
19
#387586
17
#387659
1.
#387809
06
#387866
0,
#388707
13
#388796
07
#388913
02
#390000
0!
1%
#391140
00
#391283
01
#393045
03
#393046
09
#410000
b1101 #
0%
#410984
1D
#412500
1!
1%
#413640
10
#413783
11
#415545
13
#415546
19
#417586
17
#417659
0.
#417662
12
#417663
0-
#418707
03
#420000
0!
0%
#421140
00
#421283
01
#423046
09
#440000
b1111 #
b1110 #
1%
#440984
1C
0D
#442500
1!
0%
#443640
10
#443783
11
#445546
19
#447586
07
#447662
02
#447874
1-
#448879
1.
#449927
13
#450000
0!
1%
#451140
00
#451283
01
#453045
03
#453046
09
#470000
b1111 #
0%
#470984
1D
#472500
1!
1%
#473640
10
#473783
11
#475545
13
#475546
19
#477586
17
#477588
16
#477653
1,
#477659
0.
#477662
12
#478575
07
#478707
03
#480000
0!
0%
#481140
00
#481283
01
#483046
09
#500000
b11111 #
b10111 #
b10011 #
b10001 #
b10000 #
1%
#500964
0B
#500974
0A
#500984
0C
0D
#500985
1@
#502500
1!
0%
#503640
10
#503783
11
#505546
19
#507236
09
#507239
13
#507586
17
#507659
1.
#507809
06
#507866
0,
#508227
14
#508796
07
#508913
02
#509272
1?
#509908
03
#510000
0!
1%
#510896
04
#511140
00
#511283
01
#511941
0?
#530000
b10001 #
0%
#530984
1D
#532500
1!
1%
#533640
10
#533783
11
#537586
17
#537659
0.
#537662
12
#537663
0-
#538657
13
#539645
14
#540000
0!
0%
#540690
1?
#541140
00
#541283
01
#543045
03
#544033
04
#545078
0?
#545330
1$
#549718
0$
#560000
b10011 #
b10010 #
1%
#560984
1C
0D
#562500
1!
0%
#563640
10
#563783
11
#565545
13
#566533
14
#567578
1?
#567586
07
#567662
02
#567874
1-
#568657
03
#568879
1.
#569645
04
#570000
0!
1%
#570690
0?
#571140
00
#571283
01
#590000
b10011 #
0%
#590984
1D
#592500
1!
1%
#593640
10
#593783
11
#597586
17
#597588
16
#597653
1,
#597659
0.
#597662
12
#598575
07
#598657
13
#599645
14
#600000
0!
0%
#600690
1?
#601140
00
#601283
01
#603045
03
#604033
04
#605078
0?
#605330
1$
#609718
0$
#620000
b10111 #
b10101 #
b10100 #
1%
#620964
1B
#620984
0C
0D
#622500
1!
0%
#623640
10
#623783
11
#625545
13
#626533
14
#627578
1?
#627583
04
#627586
17
#627659
1.
#627809
06
#627866
0,
#628628
0?
#628796
07
#628913
02
#629908
03
#630000
0!
1%
#631140
00
#631283
01
#650000
b10101 #
0%
#650984
1D
#652500
1!
1%
#653640
10
#653783
11
#657586
17
#657659
0.
#657662
12
#657663
0-
#658657
13
#660000
0!
0%
#661140
00
#661283
01
#663045
03
#680000
b10111 #
b10110 #
1%
#680984
1C
0D
#682500
1!
0%
#683640
10
#683783
11
#685545
13
#687586
07
#687662
02
#687874
1-
#688657
03
#688879
1.
#690000
0!
1%
#691140
00
#691283
01
#710000
b10111 #
0%
#710984
1D
#712500
1!
1%
#713640
10
#713783
11
#717586
17
#717588
16
#717653
1,
#717659
0.
#717662
12
#718575
07
#718657
13
#720000
0!
0%
#721140
00
#721283
01
#723045
03
#740000
b11111 #
b11011 #
b11001 #
b11000 #
1%
#740964
0B
#740974
1A
#740984
0C
0D
#742500
1!
0%
#743640
10
#743783
11
#745545
13
#747586
17
#747659
1.
#747809
06
#747866
0,
#748796
07
#748913
02
#749908
03
#750000
0!
1%
#751140
00
#751283
01
#770000
b11001 #
0%
#770984
1D
#772500
1!
1%
#773640
10
#773783
11
#777586
17
#777659
0.
#777662
12
#777663
0-
#778657
13
#780000
0!
0%
#781140
00
#781283
01
#783045
03
#800000
b11011 #
b11010 #
1%
#800984
1C
0D
#802500
1!
0%
#803640
10
#803783
11
#805545
13
#807586
07
#807662
02
#807874
1-
#808657
03
#808879
1.
#810000
0!
1%
#811140
00
#811283
01
#830000
b11011 #
0%
#830984
1D
#832500
1!
1%
#833640
10
#833783
11
#837586
17
#837588
16
#837653
1,
#837659
0.
#837662
12
#838575
07
#838657
13
#840000
0!
0%
#841140
00
#841283
01
#843045
03
#860000
b11111 #
b11101 #
b11100 #
1%
#860964
1B
#860984
0C
0D
#862500
1!
0%
#863640
10
#863783
11
#865545
13
#867586
17
#867659
1.
#867809
06
#867866
0,
#868796
07
#868913
02
#869908
03
#870000
0!
1%
#871140
00
#871283
01
#890000
b11101 #
0%
#890984
1D
#892500
1!
1%
#893640
10
#893783
11
#897586
17
#897659
0.
#897662
12
#897663
0-
#898657
13
#900000
0!
0%
#901140
00
#901283
01
#903045
03
#920000
b11111 #
b11110 #
1%
#920984
1C
0D
#922500
1!
0%
#923640
10
#923783
11
#925545
13
#927586
07
#927662
02
#927874
1-
#928657
03
#928879
1.
#930000
0!
1%
#931140
00
#931283
01
#950000
b11111 #
0%
#950984
1D
#952500
1!
1%
#953640
10
#953783
11
#957586
17
#957588
16
#957653
1,
#957659
0.
#957662
12
#958575
07
#958657
13
#960000
0!
0%
#961140
00
#961283
01
#963045
03
#980000
b1111 #
b111 #
b11 #
b1 #
b0 #
1%
#980964
0B
#980974
0A
#980984
0C
0D
#980985
0@
#982500
1!
0%
#983640
10
#983783
11
#985545
13
#987239
03
#987585
15
#987586
17
#987659
1.
#987809
06
#987866
0,
#988455
18
#988707
13
#988796
07
#988913
02
#989449
1?
#989665
08
#990000
0!
1%
#990659
0?
#991140
00
#991283
01
#993045
03
#993740
05
