course_var3.4/scheme1/simulation/qsim/scheme1.msim.vcd
$comment
	File created using the following command:
		vcd file scheme1.msim.vcd -direction
$end
$date
	Fri Jun 06 00:19:46 2025
$end
$version
	ModelSim Version 10.1d
$end
$timescale
	1ps
$end
$scope module scheme1_vlg_vec_tst $end
$var reg 1 ! Clock $end
$var reg 1 " reset $end
$var reg 1 # Start $end
$var reg 1 $ Stop $end
$var wire 1 % z [2] $end
$var wire 1 & z [1] $end
$var wire 1 ' z [0] $end
$var wire 1 ( sampler $end
$scope module i1 $end
$var wire 1 ) gnd $end
$var wire 1 * vcc $end
$var wire 1 + unknown $end
$var tri1 1 , devclrn $end
$var tri1 1 - devpor $end
$var tri1 1 . devoe $end
$var wire 1 / Clock~combout $end
$var wire 1 0 Clock~clkctrl_outclk $end
$var wire 1 1 inst2|inst2|dffs[4]~feeder_combout $end
$var wire 1 2 reset~combout $end
$var wire 1 3 reset~clkctrl_outclk $end
$var wire 1 4 Stop~combout $end
$var wire 1 5 Start~combout $end
$var wire 1 6 inst11~0_combout $end
$var wire 1 7 inst11~regout $end
$var wire 1 8 inst2|inst2|dffs[5]~feeder_combout $end
$var wire 1 9 inst2|inst2|dffs[6]~feeder_combout $end
$var wire 1 : inst2|inst2|dffs[7]~feeder_combout $end
$var wire 1 ; inst2|inst2|dffs[8]~feeder_combout $end
$var wire 1 < inst2|inst2|dffs[9]~feeder_combout $end
$var wire 1 = inst2|inst1~1_combout $end
$var wire 1 > inst2|inst1~2_combout $end
$var wire 1 ? inst2|inst2|dffs[1]~feeder_combout $end
$var wire 1 @ inst2|inst2|dffs[2]~feeder_combout $end
$var wire 1 A inst2|inst2|dffs[3]~feeder_combout $end
$var wire 1 B inst2|inst1~0_combout $end
$var wire 1 C inst|inst~combout $end
$var wire 1 D inst|inst1~0_combout $end
$var wire 1 E inst2|inst2|dffs [9] $end
$var wire 1 F inst2|inst2|dffs [8] $end
$var wire 1 G inst2|inst2|dffs [7] $end
$var wire 1 H inst2|inst2|dffs [6] $end
$var wire 1 I inst2|inst2|dffs [5] $end
$var wire 1 J inst2|inst2|dffs [4] $end
$var wire 1 K inst2|inst2|dffs [3] $end
$var wire 1 L inst2|inst2|dffs [2] $end
$var wire 1 M inst2|inst2|dffs [1] $end
$var wire 1 N inst2|inst2|dffs [0] $end
$upscope $end
$upscope $end
$enddefinitions $end
#0
$dumpvars
0!
0"
1#
0$
0'
1&
1%
x(
0)
1*
x+
1,
1-
1.
0/
00
01
02
03
04
15
16
07
08
09
0:
0;
0<
1=
1>
0?
0@
0A
1B
0C
1D
0N
0M
0L
0K
0J
0I
0H
0G
0F
0E
$end
#15000
1!
1/
10
0(
17
#20000
0#
05
1(
#30000
0!
0/
00
0(
#45000
1!
1/
10
1(
1N
1C
0B
1?
0>
0%
0&
#60000
0!
0/
00
0(
#75000
1!
1/
10
1(
1M
0N
1@
0C
0?
1&
#90000
0!
0/
00
0(
#105000
1!
1/
10
1(
1L
0M
1A
0@
#120000
0!
0/
00
0(
#135000
1!
1/
10
1(
1K
0L
11
0A
#150000
0!
0/
00
0(
#165000
1!
1/
10
1(
0K
1J
1B
01
0=
18
1%
#180000
0!
0/
00
0(
#195000
1!
1/
10
1(
1I
0J
19
08
#210000
0!
0/
00
0(
#225000
1!
1/
10
1(
1H
0I
1:
09
#240000
0!
0/
00
0(
#255000
1!
1/
10
1(
1G
0H
1;
0:
#270000
0!
0/
00
0(
#285000
1!
1/
10
1(
1F
0G
0D
1C
1<
1=
0;
1'
0&
#300000
0!
0/
00
0(
#315000
1!
1/
10
1(
1E
0F
1>
0<
#330000
0!
0/
00
0(
#345000
1!
1/
10
1(
1N
0E
0B
1?
1D
0>
0%
0'
#360000
0!
0/
00
0(
#375000
1!
1/
10
1(
1M
0N
1@
0C
0?
1&
#390000
0!
0/
00
0(
#405000
1!
1/
10
1(
1L
0M
1A
0@
#420000
0!
0/
00
0(
#435000
1!
1/
10
1(
1K
0L
11
0A
#450000
0!
0/
00
0(
#465000
1!
1/
10
1(
0K
1J
1B
01
0=
18
1%
#480000
0!
0/
00
0(
#495000
1!
1/
10
1(
1I
0J
19
08
#510000
0!
0/
00
0(
#525000
1!
1/
10
1(
1H
0I
1:
09
#540000
0!
0/
00
0(
#555000
1!
1/
10
1(
1G
0H
1;
0:
#570000
0!
0/
00
0(
#585000
1!
1/
10
1(
1F
0G
0D
1C
1<
1=
0;
1'
0&
#600000
0!
0/
00
0(
#615000
1!
1/
10
1(
1E
0F
1>
0<
#630000
0!
0/
00
0(
#645000
1!
1/
10
1(
1N
0E
0B
1?
1D
0>
0%
0'
#660000
0!
0/
00
0(
#675000
1!
1/
10
1(
1M
0N
1@
0C
0?
1&
#690000
0!
0/
00
0(
#705000
1!
1/
10
1(
1L
0M
1A
0@
#720000
0!
0/
00
0(
#735000
1!
1/
10
1(
1K
0L
11
0A
#750000
0!
0/
00
0(
#765000
1!
1/
10
1(
0K
1J
1B
01
0=
18
1%
#780000
0!
0/
00
0(
#795000
1!
1/
10
1(
1I
0J
19
08
#810000
0!
0/
00
0(
#825000
1!
1/
10
1(
1H
0I
1:
09
#840000
0!
0/
00
0(
#855000
1!
1/
10
1(
1G
0H
1;
0:
#870000
0!
0/
00
0(
#885000
1!
1/
10
1(
1F
0G
0D
1C
1<
1=
0;
1'
0&
#900000
0!
0/
00
0(
#915000
1!
1/
10
1(
1E
0F
1>
0<
#920000
1$
14
0(
06
#930000
0!
0/
00
1(
#945000
1!
1/
10
0(
1N
0E
07
0B
1?
1D
0>
0%
0'
#960000
0$
0!
04
0/
00
1(
#975000
1!
1/
10
0(
#990000
0!
0/
00
1(
#1005000
1!
1/
10
0(
#1020000
0!
0/
00
1(
#1035000
1!
1/
10
0(
#1050000
0!
0/
00
1(
#1065000
1!
1/
10
0(
#1080000
1#
0!
15
0/
00
1(
16
#1095000
1!
1/
10
0(
17
#1110000
0!
0/
00
1(
#1120000
0#
05
0(
#1125000
1!
1/
10
1(
1M
0N
1@
0C
0?
1&
#1140000
0!
0/
00
0(
#1155000
1!
1/
10
1(
1L
0M
1A
0@
#1170000
0!
0/
00
0(
#1185000
1!
1/
10
1(
1K
0L
11
0A
#1200000
0!
0/
00
0(
#1215000
1!
1/
10
1(
0K
1J
1B
01
0=
18
1%
#1230000
0!
0/
00
0(
#1245000
1!
1/
10
1(
1I
0J
19
08
#1260000
0!
0/
00
0(
#1275000
1!
1/
10
1(
1H
0I
1:
09
#1290000
0!
0/
00
0(
#1305000
1!
1/
10
1(
1G
0H
1;
0:
#1320000
0!
0/
00
0(
#1335000
1!
1/
10
1(
1F
0G
0D
1C
1<
1=
0;
1'
0&
#1350000
0!
0/
00
0(
#1365000
1!
1/
10
1(
1E
0F
1>
0<
#1380000
0!
0/
00
0(
#1395000
1!
1/
10
1(
1N
0E
0B
1?
1D
0>
0%
0'
#1410000
0!
0/
00
0(
#1420000
1"
12
13
1(
0N
0C
1B
0?
1>
1%
1&
#1425000
1!
1/
10
0(
#1440000
0"
0!
02
0/
00
03
1(
#1455000
1!
1/
10
0(
1N
1C
0B
1?
0>
0%
0&
#1470000
0!
0/
00
1(
#1485000
1!
1/
10
0(
1M
0N
1@
0C
0?
1&
#1500000
0!
0/
00
1(
#1515000
1!
1/
10
0(
1L
0M
1A
0@
#1530000
0!
0/
00
1(
#1545000
1!
1/
10
0(
1K
0L
11
0A
#1560000
0!
0/
00
1(
#1575000
1!
1/
10
0(
0K
1J
1B
01
0=
18
1%
#1590000
0!
0/
00
1(
#1605000
1!
1/
10
0(
1I
0J
19
08
#1620000
0!
0/
00
1(
#1635000
1!
1/
10
0(
1H
0I
1:
09
#1650000
0!
0/
00
1(
#1665000
1!
1/
10
0(
1G
0H
1;
0:
#1680000
0!
0/
00
1(
#1695000
1!
1/
10
0(
1F
0G
0D
1C
1<
1=
0;
1'
0&
#1710000
0!
0/
00
1(
#1725000
1!
1/
10
0(
1E
0F
1>
0<
#1740000
0!
0/
00
1(
#1755000
1!
1/
10
0(
1N
0E
0B
1?
1D
0>
0%
0'
#1770000
0!
0/
00
1(
#1785000
1!
1/
10
0(
1M
0N
1@
0C
0?
1&
#1800000
0!
0/
00
1(
#1815000
1!
1/
10
0(
1L
0M
1A
0@
#1830000
0!
0/
00
1(
#1845000
1!
1/
10
0(
1K
0L
11
0A
#1860000
0!
0/
00
1(
#1875000
1!
1/
10
0(
0K
1J
1B
01
0=
18
1%
#1890000
0!
0/
00
1(
#1905000
1!
1/
10
0(
1I
0J
19
08
#1920000
0!
0/
00
1(
#1935000
1!
1/
10
0(
1H
0I
1:
09
#1950000
0!
0/
00
1(
#1965000
1!
1/
10
0(
1G
0H
1;
0:
#1980000
0!
0/
00
1(
#1995000
1!
1/
10
0(
1F
0G
0D
1C
1<
1=
0;
1'
0&
