course_var2.2/mux_scheme/simulation/qsim/mux_scheme.msim.vcd
$comment
	File created using the following command:
		vcd file mux_scheme.msim.vcd -direction
$end
$date
	Wed May 28 11:45:35 2025
$end
$version
	ModelSim Version 10.1d
$end
$timescale
	1ps
$end
$scope module mux_scheme_vlg_vec_tst $end
$var reg 1 ! Clock $end
$var reg 1 " Enable $end
$var wire 1 # Cnt [4] $end
$var wire 1 $ Cnt [3] $end
$var wire 1 % Cnt [2] $end
$var wire 1 & Cnt [1] $end
$var wire 1 ' Cnt [0] $end
$var wire 1 ( Period $end
$var wire 1 ) Result $end
$var wire 1 * sampler $end
$scope module i1 $end
$var wire 1 + gnd $end
$var wire 1 , vcc $end
$var wire 1 - unknown $end
$var tri1 1 . devclrn $end
$var tri1 1 / devpor $end
$var tri1 1 0 devoe $end
$var wire 1 1 inst7|LPM_COUNTER_component|auto_generated|counter_comb_bita0~COUT $end
$var wire 1 2 inst7|LPM_COUNTER_component|auto_generated|counter_comb_bita1~COUT $end
$var wire 1 3 inst7|LPM_COUNTER_component|auto_generated|counter_comb_bita2~combout $end
$var wire 1 4 ~GND~combout $end
$var wire 1 5 inst7|LPM_COUNTER_component|auto_generated|counter_comb_bita3~COUT $end
$var wire 1 6 inst7|LPM_COUNTER_component|auto_generated|counter_comb_bita4~combout $end
$var wire 1 7 Enable~combout $end
$var wire 1 8 inst7|LPM_COUNTER_component|auto_generated|counter_comb_bita1~combout $end
$var wire 1 9 inst~0_combout $end
$var wire 1 : inst~combout $end
$var wire 1 ; inst7|LPM_COUNTER_component|auto_generated|counter_comb_bita2~COUT $end
$var wire 1 < inst7|LPM_COUNTER_component|auto_generated|counter_comb_bita3~combout $end
$var wire 1 = inst16~1_combout $end
$var wire 1 > inst16~2_combout $end
$var wire 1 ? Clock~combout $end
$var wire 1 @ inst16~0_combout $end
$var wire 1 A inst16~3_combout $end
$var wire 1 B Clock~clkctrl_outclk $end
$var wire 1 C inst7|LPM_COUNTER_component|auto_generated|counter_comb_bita0~combout $end
$var wire 1 D inst7|LPM_COUNTER_component|auto_generated|safe_q [4] $end
$var wire 1 E inst7|LPM_COUNTER_component|auto_generated|safe_q [3] $end
$var wire 1 F inst7|LPM_COUNTER_component|auto_generated|safe_q [2] $end
$var wire 1 G inst7|LPM_COUNTER_component|auto_generated|safe_q [1] $end
$var wire 1 H inst7|LPM_COUNTER_component|auto_generated|safe_q [0] $end
$upscope $end
$upscope $end
$enddefinitions $end
#0
$dumpvars
0!
1"
x'
x&
x%
x$
x#
x(
x)
x*
0+
1,
x-
1.
1/
10
x1
x2
x3
04
x5
x6
17
x8
x9
x:
x;
x<
x=
x>
0?
x@
xA
xB
xC
0H
0G
0F
0E
0D
$end
#143
0B
#1037
09
#1042
15
#1114
01
#1144
1C
#1366
0;
#1394
0>
#1397
0@
#1428
12
#1516
0=
#1548
06
#1603
0:
#1620
08
#1872
0<
#1934
03
#1960
0A
#3822
0#
#3824
0&
#4093
0%
#4223
0'
#4231
0$
#5326
0(
#6121
0)
#26400
1!
0*
#27540
1?
#27683
1B
#28937
1@
#29500
1A
#30000
0!
1*
#31140
0?
#31283
0B
#32537
0@
#33080
1H
#33100
0A
#33661
1)
#34194
11
#34224
0C
#34700
18
#37261
0)
#37303
1'
#56400
1!
0*
#57540
1?
#57683
1B
#58937
1@
#59500
1A
#60000
0!
1*
#61140
0?
#61283
0B
#62537
0@
#63080
0H
1G
#63100
0A
#63661
1)
#64194
01
#64224
1C
#64596
1=
#66904
1&
#67261
0)
#67303
0'
#86400
1!
0*
#87540
1?
#87683
1B
#88937
1@
#90000
0!
1*
#91140
0?
#91283
0B
#92537
0@
#93080
1H
#94194
11
#94224
0C
0=
#94384
02
#94700
08
#94890
13
#97303
1'
#116400
1!
0*
#117540
1?
#117683
1B
#118937
1@
#119500
1A
#120000
0!
1*
#121140
0?
#121283
0B
#122537
0@
#123080
0H
1F
0G
#123100
0A
#123661
1)
#124194
01
#124224
1C
#124446
1;
#124473
03
#124508
12
#124594
0;
#124596
1>
#125014
13
#126904
0&
#127173
1%
#127261
0)
#127303
0'
#146400
1!
0*
#147540
1?
#147683
1B
#148937
1@
#150000
0!
1*
#151140
0?
#151283
0B
#152537
0@
#153080
1H
#154194
11
#154224
0C
#154700
18
#157303
1'
#176400
1!
0*
#177540
1?
#177683
1B
#178937
1@
#180000
0!
1*
#181140
0?
#181283
0B
#182537
0@
#183080
0H
1G
#184194
01
#184224
1C
#184596
0>
#186904
1&
#187303
0'
#206400
1!
0*
#207540
1?
#207683
1B
#208937
1@
#209500
1A
#210000
0!
1*
#211140
0?
#211283
0B
#212537
0@
#213080
1H
#213100
0A
#213661
1)
#214194
11
#214224
0C
1=
#214384
02
#214470
1;
#214700
08
#214890
03
#214976
1<
#217261
0)
#217303
1'
#236400
1!
0*
#237540
1?
#237683
1B
#238937
1@
#240000
0!
1*
#241140
0?
#241283
0B
#242537
0@
#243080
0H
1E
0F
0G
#244122
05
#244149
0<
#244194
01
#244224
1C
#244446
0;
#244473
13
#244508
12
#244532
15
#244596
0=
#244952
1<
#245014
03
#246904
0&
#247173
0%
#247303
0'
#247311
1$
#266400
1!
0*
#267540
1?
#267683
1B
#268937
1@
#270000
0!
1*
#271140
0?
#271283
0B
#272537
0@
#273080
1H
#274194
11
#274224
0C
#274700
18
#277303
1'
#296400
1!
0*
#297540
1?
#297683
1B
#298937
1@
#300000
0!
1*
#301140
0?
#301283
0B
#302537
0@
#303080
0H
1G
#304194
01
#304224
1C
#304596
1=
#306904
1&
#307303
0'
#326400
1!
0*
#327540
1?
#327683
1B
#328937
1@
#329500
1A
#330000
0!
1*
#331140
0?
#331283
0B
#332537
0@
#333080
1H
#333100
0A
#333661
1)
#334194
11
#334224
0C
0=
#334384
02
#334700
08
#334890
13
#337261
0)
#337303
1'
#356400
1!
0*
#357540
1?
#357683
1B
#358937
1@
#360000
0!
1*
#361140
0?
#361283
0B
#362537
0@
#363080
0H
1F
0G
#364194
01
#364224
1C
#364446
1;
#364473
03
#364508
12
#364532
05
#364594
0;
#364596
1>
#364680
15
#365014
13
#366904
0&
#367173
1%
#367303
0'
#386400
1!
0*
#387540
1?
#387683
1B
#388937
1@
#390000
0!
1*
#391140
0?
#391283
0B
#392537
0@
#393080
1H
#394194
11
#394224
0C
#394700
18
#397303
1'
#416400
1!
0*
#417540
1?
#417683
1B
#418937
1@
#420000
0!
1*
#421140
0?
#421283
0B
#422537
0@
#423080
0H
1G
#424194
01
#424224
1C
#424596
0>
#426904
1&
#427303
0'
#446400
1!
0*
#447540
1?
#447683
1B
#448937
1@
#450000
0!
1*
#451140
0?
#451283
0B
#452537
0@
#453080
1H
#454194
11
#454224
0C
1=
#454384
02
#454470
1;
#454556
05
#454700
08
#454890
03
#454976
0<
#455062
16
#457303
1'
#476400
1!
0*
#477540
1?
#477683
1B
#478937
1@
#479500
1A
#480000
0!
1*
#481140
0?
#481283
0B
#482537
0@
#483080
0H
0E
0F
0G
1D
#483100
0A
#483661
1)
#484054
06
#484122
15
#484149
1<
#484194
01
#484224
1C
#484446
0;
#484473
13
#484508
12
#484628
16
#484952
0<
#485014
03
#486902
1#
#486904
0&
#487173
0%
#487261
0)
#487303
0'
#487311
0$
#506400
1!
0*
#507540
1?
#507683
1B
#508937
1@
#510000
0!
1*
#511140
0?
#511283
0B
#512537
0@
#513080
1H
#514194
11
#514221
1>
#514224
0C
0=
#514700
18
#517303
1'
#536400
1!
0*
#537540
1?
#537683
1B
#538937
1@
#540000
0!
1*
#541140
0?
#541283
0B
#542537
0@
#543080
0H
1G
#544194
01
#544221
0>
#544224
1C
1=
#544596
0=
1>
#546904
1&
#547303
0'
#566400
1!
0*
#567540
1?
#567683
1B
#568937
1@
#570000
0!
1*
#571140
0?
#571283
0B
#572537
0@
#573080
1H
#574194
11
#574221
0>
#574224
0C
1=
#574384
02
#574700
08
#574890
13
#577303
1'
#596400
1!
0*
#597540
1?
#597683
1B
#598937
1@
#600000
0!
1*
#601140
0?
#601283
0B
#602537
0@
#603080
0H
1F
0G
#604194
01
#604224
1C
#604446
1;
#604473
03
#604508
12
#604594
0;
#604596
0=
#605014
13
#606904
0&
#607173
1%
#607303
0'
#626400
1!
0*
#627540
1?
#627683
1B
#628937
1@
#629500
1A
#630000
0!
1*
#631140
0?
#631283
0B
#632537
0@
#633080
1H
#633100
0A
#633661
1)
#634194
11
#634224
0C
1=
#634700
18
#637261
0)
#637303
1'
#656400
1!
0*
#657540
1?
#657683
1B
#658937
1@
#660000
0!
1*
#661140
0?
#661283
0B
#662537
0@
#663080
0H
1G
#664194
01
#664224
1C
0=
#664596
1=
#666904
1&
#667303
0'
#686400
1!
0*
#687540
1?
#687683
1B
#688937
1@
#690000
0!
1*
#691140
0?
#691283
0B
#692537
0@
#693080
1H
#694194
11
#694221
1>
#694224
0C
0=
#694384
02
#694470
1;
#694700
08
#694890
03
#694976
1<
#697303
1'
#716400
1!
0*
#717540
1?
#717683
1B
#718937
1@
#720000
0!
1*
#721140
0?
#721283
0B
#722537
0@
#723080
0H
1E
0F
0G
#724122
05
#724149
0<
#724194
01
#724224
1C
#724446
0;
#724473
13
#724508
12
#724532
15
#724596
1=
0>
#724952
1<
#725014
03
#726904
0&
#727173
0%
#727303
0'
#727311
1$
#746400
1!
0*
#747540
1?
#747683
1B
#748937
1@
#749500
1A
#750000
0!
1*
#751140
0?
#751283
0B
#752537
0@
#753080
1H
#753100
0A
#753661
1)
#754194
11
#754221
1>
#754224
0C
0=
#754700
18
#757261
0)
#757303
1'
#776400
1!
0*
#777540
1?
#777683
1B
#778937
1@
#780000
0!
1*
#781140
0?
#781283
0B
#782537
0@
#783080
0H
1G
#784194
01
#784221
0>
#784224
1C
1=
#784596
0=
1>
#786904
1&
#787303
0'
#806400
1!
0*
#807540
1?
#807683
1B
#808937
1@
#810000
0!
1*
#811140
0?
#811283
0B
#812537
0@
#813080
1H
#814194
11
#814221
0>
#814224
0C
1=
#814384
02
#814700
08
#814890
13
#817303
1'
#836400
1!
0*
#837540
1?
#837683
1B
#838937
1@
#839500
1A
#840000
0!
1*
#841140
0?
#841283
0B
#842537
0@
#843080
0H
1F
0G
#843100
0A
#843661
1)
#844194
01
#844224
1C
#844446
1;
#844473
03
#844508
12
#844532
05
#844594
0;
#844596
0=
#844680
15
#845014
13
#846904
0&
#847173
1%
#847261
0)
#847303
0'
#866400
1!
0*
#867540
1?
#867683
1B
#868937
1@
#870000
0!
1*
#871140
0?
#871283
0B
#872537
0@
#873080
1H
#874194
11
#874224
0C
1=
#874700
18
#877303
1'
#896400
1!
0*
#897540
1?
#897683
1B
#898937
1@
#899500
1A
#900000
0!
1*
#901140
0?
#901283
0B
#902537
0@
#903080
0H
1G
#903100
0A
#903661
1)
#903949
19
#904194
01
#904224
1C
0=
#904515
1:
#904596
1=
#906904
1&
#907261
0)
#907303
0'
#908238
1(
#926400
1!
0*
#927540
1?
#927683
1B
#928937
1@
#929500
1A
#930000
0!
1*
#931140
0?
#931283
0B
#932537
0@
#933080
0E
0F
0G
0D
#933100
0A
#933661
1)
#934054
06
#934117
09
#934149
0<
#934420
08
#934473
03
#934596
0=
#934683
0:
#936902
0#
#936904
0&
#937173
0%
#937261
0)
#937311
0$
#938406
0(
#940000
0"
0*
#940985
07
#956400
1!
1*
#957540
1?
#957683
1B
#960000
0!
0*
#961140
0?
#961283
0B
#986400
1!
1*
#987540
1?
#987683
1B
#990000
0!
0*
#991140
0?
