course_var2.2/interface/simulation/qsim/interface.msim.vcd
$comment
	File created using the following command:
		vcd file interface.msim.vcd -direction
$end
$date
	Sun Jun 01 19:55:56 2025
$end
$version
	ModelSim Version 10.1d
$end
$timescale
	1ps
$end
$scope module interface_vlg_vec_tst $end
$var reg 8 ! AD [7:0] $end
$var reg 1 " Clock $end
$var reg 1 # nIOR $end
$var reg 1 $ nIOW $end
$var reg 1 % Start $end
$var reg 1 & Stop $end
$var wire 1 ' count [4] $end
$var wire 1 ( count [3] $end
$var wire 1 ) count [2] $end
$var wire 1 * count [1] $end
$var wire 1 + count [0] $end
$var wire 1 , En $end
$var wire 1 - Per_stop $end
$var wire 1 . Read $end
$var wire 1 / Result $end
$var wire 1 0 sa $end
$var wire 1 1 T $end
$var wire 1 2 sampler $end
$scope module i1 $end
$var wire 1 3 gnd $end
$var wire 1 4 vcc $end
$var wire 1 5 unknown $end
$var tri1 1 6 devclrn $end
$var tri1 1 7 devpor $end
$var tri1 1 8 devoe $end
$var wire 1 9 inst19|inst9|LPM_COUNTER_component|auto_generated|counter_comb_bita0~combout $end
$var wire 1 : inst19|inst9|LPM_COUNTER_component|auto_generated|counter_comb_bita4~combout $end
$var wire 1 ; inst19|inst~combout $end
$var wire 1 < nIOR~combout $end
$var wire 1 = inst19|inst~clkctrl_outclk $end
$var wire 1 > inst|inst1|LPM_COUNTER_component|auto_generated|counter_comb_bita0~combout $end
$var wire 1 ? ~GND~combout $end
$var wire 1 @ inst|inst1|LPM_COUNTER_component|auto_generated|counter_comb_bita2~COUT $end
$var wire 1 A inst|inst1|LPM_COUNTER_component|auto_generated|counter_comb_bita3~combout $end
$var wire 1 B Stop~combout $end
$var wire 1 C Start~combout $end
$var wire 1 D inst2~0_combout $end
$var wire 1 E inst19|inst9|LPM_COUNTER_component|auto_generated|counter_comb_bita0~COUT $end
$var wire 1 F inst19|inst9|LPM_COUNTER_component|auto_generated|counter_comb_bita1~combout $end
$var wire 1 G inst19|inst9|LPM_COUNTER_component|auto_generated|counter_comb_bita1~COUT $end
$var wire 1 H inst19|inst9|LPM_COUNTER_component|auto_generated|counter_comb_bita2~combout $end
$var wire 1 I inst19|inst9|LPM_COUNTER_component|auto_generated|counter_comb_bita2~COUT $end
$var wire 1 J inst19|inst9|LPM_COUNTER_component|auto_generated|counter_comb_bita3~combout $end
$var wire 1 K inst19|inst9|LPM_COUNTER_component|auto_generated|counter_comb_bita3~COUT $end
$var wire 1 L inst19|inst9|LPM_COUNTER_component|auto_generated|counter_comb_bita4~COUT $end
$var wire 1 M inst19|inst9|LPM_COUNTER_component|auto_generated|counter_comb_bita5~combout $end
$var wire 1 N inst19|inst9|LPM_COUNTER_component|auto_generated|counter_comb_bita5~COUT $end
$var wire 1 O inst19|inst9|LPM_COUNTER_component|auto_generated|counter_comb_bita6~combout $end
$var wire 1 P inst19|inst12|LPM_DECODE_component|auto_generated|w_anode1185w[3]~0_combout $end
$var wire 1 Q inst2~regout $end
$var wire 1 R inst|inst1|LPM_COUNTER_component|auto_generated|counter_comb_bita3~COUT $end
$var wire 1 S inst|inst1|LPM_COUNTER_component|auto_generated|counter_comb_bita4~combout $end
$var wire 1 T inst|inst|LPM_DECODE_component|auto_generated|w_anode361w[3]~0_combout $end
$var wire 1 U inst|inst|LPM_DECODE_component|auto_generated|w_anode361w[3]~1_combout $end
$var wire 1 V inst|inst1|LPM_COUNTER_component|auto_generated|counter_comb_bita0~COUT $end
$var wire 1 W inst|inst1|LPM_COUNTER_component|auto_generated|counter_comb_bita1~combout $end
$var wire 1 X inst|inst1|LPM_COUNTER_component|auto_generated|counter_comb_bita1~COUT $end
$var wire 1 Y inst|inst1|LPM_COUNTER_component|auto_generated|counter_comb_bita2~combout $end
$var wire 1 Z inst7~1_combout $end
$var wire 1 [ inst7~2_combout $end
$var wire 1 \ Clock~combout $end
$var wire 1 ] inst19|inst~0_combout $end
$var wire 1 ^ inst1~1_combout $end
$var wire 1 _ inst1~0_combout $end
$var wire 1 ` inst1~combout $end
$var wire 1 a inst14~regout $end
$var wire 1 b inst7~0_combout $end
$var wire 1 c inst7~3_combout $end
$var wire 1 d inst35~0_combout $end
$var wire 1 e inst13~feeder_combout $end
$var wire 1 f nIOW~combout $end
$var wire 1 g inst13~regout $end
$var wire 1 h inst36~0_combout $end
$var wire 1 i inst12~0_combout $end
$var wire 1 j inst11~0_combout $end
$var wire 1 k inst9~0_combout $end
$var wire 1 l inst10~0_combout $end
$var wire 1 m inst8~0_combout $end
$var wire 1 n inst19|inst12|LPM_DECODE_component|auto_generated|w_anode1185w [3] $end
$var wire 1 o inst19|inst12|LPM_DECODE_component|auto_generated|w_anode1185w [2] $end
$var wire 1 p inst19|inst12|LPM_DECODE_component|auto_generated|w_anode1185w [1] $end
$var wire 1 q inst19|inst12|LPM_DECODE_component|auto_generated|w_anode1185w [0] $end
$var wire 1 r inst|inst1|LPM_COUNTER_component|auto_generated|safe_q [4] $end
$var wire 1 s inst|inst1|LPM_COUNTER_component|auto_generated|safe_q [3] $end
$var wire 1 t inst|inst1|LPM_COUNTER_component|auto_generated|safe_q [2] $end
$var wire 1 u inst|inst1|LPM_COUNTER_component|auto_generated|safe_q [1] $end
$var wire 1 v inst|inst1|LPM_COUNTER_component|auto_generated|safe_q [0] $end
$var wire 1 w AD~combout [7] $end
$var wire 1 x AD~combout [6] $end
$var wire 1 y AD~combout [5] $end
$var wire 1 z AD~combout [4] $end
$var wire 1 { AD~combout [3] $end
$var wire 1 | AD~combout [2] $end
$var wire 1 } AD~combout [1] $end
$var wire 1 ~ AD~combout [0] $end
$var wire 1 !! inst19|inst9|LPM_COUNTER_component|auto_generated|safe_q [6] $end
$var wire 1 "! inst19|inst9|LPM_COUNTER_component|auto_generated|safe_q [5] $end
$var wire 1 #! inst19|inst9|LPM_COUNTER_component|auto_generated|safe_q [4] $end
$var wire 1 $! inst19|inst9|LPM_COUNTER_component|auto_generated|safe_q [3] $end
$var wire 1 %! inst19|inst9|LPM_COUNTER_component|auto_generated|safe_q [2] $end
$var wire 1 &! inst19|inst9|LPM_COUNTER_component|auto_generated|safe_q [1] $end
$var wire 1 '! inst19|inst9|LPM_COUNTER_component|auto_generated|safe_q [0] $end
$upscope $end
$upscope $end
$enddefinitions $end
#0
$dumpvars
b111001 !
0"
1#
1$
0%
0&
x+
x*
x)
x(
x'
x,
x-
x.
x/
x0
x1
x2
03
14
x5
16
17
18
x9
x:
x;
1<
x=
x>
0?
x@
xA
0B
0C
xD
xE
xF
xG
xH
xI
xJ
xK
xL
xM
xN
xO
xP
xQ
xR
xS
xT
xU
xV
xW
xX
xY
xZ
x[
0\
x]
x^
x_
x`
0a
xb
xc
xd
1e
1f
xg
xh
xi
xj
xk
xl
xm
zq
zp
zo
xn
0v
0u
0t
0s
0r
1~
0}
0|
1{
1z
1y
0x
0w
0'!
0&!
0%!
0$!
0#!
0"!
0!!
$end
#267
0Q
0g
#665
0T
#780
1_
#855
0;
#1022
0n
#1042
0V
#1044
1N
1K
#1058
0j
#1060
0l
#1065
0P
#1068
1X
#1070
1>
#1072
0U
#1073
1R
#1084
0E
#1097
0I
0L
#1107
0@
#1114
19
#1142
0]
#1144
0i
#1148
0k
#1150
1G
#1330
0m
#1335
0`
#1365
0b
#1384
0d
#1400
0[
#1455
0Z
#1548
0W
#1550
0:
0O
#1574
0Y
#1579
0S
#1590
0F
#1603
0M
0J
#1613
0A
#1656
0H
#1767
0h
#1973
0=
#2559
0c
#4410
0,
#5212
0*
#5263
01
#5273
0'
#5484
0(
#5516
0-
#5522
0+
#5733
00
#5880
1^
#5889
0)
#5932
0.
#6254
0D
#6292
0/
#17600
1"
02
#18585
1\
#20000
0"
12
#20985
0\
#37600
1"
02
#38585
1\
#40000
0"
12
#40985
0\
#57600
1"
02
#58585
1\
#60000
0"
12
#60985
0\
#77600
1"
02
#78585
1\
#80000
0"
12
#80985
0\
#90000
b1111001 !
b1011001 !
b1001001 !
b1000001 !
b1000000 !
1%
02
#90975
0{
#90985
1C
#90995
1x
#91005
0~
#91140
0y
0z
#96885
0^
#97056
0_
#97239
1D
#97600
1"
12
#98344
1`
#98585
1\
#100000
0$
0"
02
#100985
0\
#101140
0f
#102634
1a
#103304
1Q
#104018
1d
#107447
1,
#108367
10
#110000
1$
12
#111140
1f
#117600
1"
02
#118585
1\
#119928
1]
#120000
0#
0%
0"
12
#120985
0<
0\
0C
#122328
0]
#122888
1v
#123276
1g
#123930
1V
#123958
0>
#124436
1W
#124776
1h
#124779
1m
#128941
1.
#128971
1+
#130000
b0 !
1#
02
#130985
1<
#130995
0x
#137056
1_
#137600
1"
12
#137611
0`
#138585
1\
#139928
1]
#140000
0"
02
#140887
1b
#140985
0\
#142081
1c
#142328
0]
#142888
1u
0v
#143287
0b
#143930
0V
#143948
1l
#143958
1>
#144018
1[
#144218
0m
#144481
0c
#148100
1*
#148410
0+
#157600
1"
12
#158585
1\
#159928
1]
#160000
0"
02
#160887
1b
#160985
0\
#162328
0]
#162888
1v
#163287
0b
#163930
1V
#163958
0>
#164016
0X
#164217
1c
#164218
1m
#164436
0W
#164481
0c
#164522
1Y
#168410
1+
#177600
1"
12
#178585
1\
#179928
1]
#180000
0"
02
#180887
1b
#180985
0\
#182081
1c
#182328
0]
#182888
1t
0u
0v
#183287
0b
#183930
0V
#183948
0l
#183956
1X
#183958
1>
#184018
0[
#184036
1k
#184217
0c
#184218
0m
#184285
1Z
#188100
0*
#188410
0+
#188777
1)
#197600
1"
12
#198585
1\
#199928
1]
#200000
0"
02
#200887
1b
#200985
0\
#202328
0]
#202888
1v
#203287
0b
#203930
1V
#203958
0>
#204218
1m
#204436
1W
#208410
1+
#217600
1"
12
#218585
1\
#219928
1]
#220000
0"
02
#220887
1b
#220985
0\
#222328
0]
#222888
1u
0v
#223287
0b
#223930
0V
#223948
1l
#223958
1>
#224018
1[
#224218
0m
#228100
1*
#228410
0+
#237600
1"
12
#238585
1\
#239928
1]
#240000
0"
02
#240887
1b
#240985
0\
#242081
1c
#242328
0]
#242888
1v
#243287
0b
#243930
1V
#243958
0>
#244016
0X
#244102
1@
#244217
0c
#244218
1m
#244436
0W
#244522
0Y
#244608
1A
#248410
1+
#257600
1"
12
#258585
1\
#259928
1]
#260000
0"
02
#260887
1b
#260985
0\
#262328
0]
#262888
0t
0u
0v
1s
#263287
0b
#263930
0V
#263946
1j
#263948
0l
#263956
1X
#263958
1>
#263961
0R
#263988
0A
#263995
0@
#264018
0[
#264036
0k
#264081
1R
#264217
1c
#264218
0m
#264481
0c
#264501
1A
#268100
0*
#268372
1(
#268410
0+
#268777
0)
#277600
1"
12
#278585
1\
#279928
1]
#280000
0"
02
#280887
1b
#280985
0\
#282328
0]
#282888
1v
#283287
0b
#283930
1V
#283958
0>
#284218
1m
#284436
1W
#288410
1+
#297600
1"
12
#298585
1\
#299928
1]
#300000
0"
02
#300887
1b
#300985
0\
#302328
0]
#302888
1u
0v
#303287
0b
#303930
0V
#303948
1l
#303958
1>
#304018
1[
#304218
0m
#308100
1*
#308410
0+
#317600
1"
12
#318585
1\
#319928
1]
#320000
0"
02
#320887
1b
#320985
0\
#322081
1c
#322328
0]
#322888
1v
#323287
0b
#323930
1V
#323958
0>
#324016
0X
#324217
0c
#324218
1m
#324436
0W
#324522
1Y
#328410
1+
#337600
1"
12
#338585
1\
#339928
1]
#340000
0"
02
#340887
1b
#340985
0\
#342328
0]
#342888
1t
0u
0v
#343287
0b
#343930
0V
#343948
0l
#343956
1X
#343958
1>
#344018
0[
#344036
1k
#344217
1c
#344218
0m
#344481
0c
#348100
0*
#348410
0+
#348777
1)
#357600
1"
12
#358585
1\
#359928
1]
#360000
0"
02
#360887
1b
#360985
0\
#362328
0]
#362888
1v
#363287
0b
#363930
1V
#363958
0>
#364218
1m
#364436
1W
#368410
1+
#377600
1"
12
#378585
1\
#379928
1]
#380000
0"
02
#380887
1b
#380985
0\
#382328
0]
#382888
1u
0v
#383287
0b
#383930
0V
#383948
1l
#383958
1>
#384018
1[
#384021
0Z
#384218
0m
#388100
1*
#388410
0+
#397600
1"
12
#398585
1\
#399928
1]
#400000
0"
02
#400887
1b
#400985
0\
#402328
0]
#402888
1v
#403287
0b
#403930
1V
#403958
0>
#404016
0X
#404102
1@
#404188
0R
#404217
1c
#404218
1m
#404436
0W
#404481
0c
#404522
0Y
#404608
0A
#404694
1S
#408410
1+
#417600
1"
12
#418585
1\
#419928
1]
#420000
0"
02
#420887
1b
#420985
0\
#422081
1c
#422328
0]
#422888
0t
0u
0v
1r
0s
#423287
0b
#423552
0S
#423930
0V
#423946
0j
#423948
0l
#423956
1X
#423958
1>
#423961
1R
#423988
1A
#423995
0@
#424018
0[
#424032
1i
#424036
0k
#424217
0c
#424218
0m
#424343
1Z
#424467
1S
#424501
0A
#428100
0*
#428161
1'
#428372
0(
#428410
0+
#428777
0)
#437600
1"
12
#438585
1\
#439928
1]
#440000
0"
02
#440887
1b
#440985
0\
#442328
0]
#442888
1v
#443287
0b
#443930
1V
#443958
0>
#444218
1m
#444436
1W
#448410
1+
#457600
1"
12
#458585
1\
#459928
1]
#460000
0"
02
#460887
1b
#460985
0\
#462328
0]
#462888
1u
0v
#463287
0b
#463930
0V
#463948
1l
#463958
1>
#464218
0m
#468100
1*
#468410
0+
#477600
1"
12
#478585
1\
#479928
1]
#480000
0"
02
#480887
1b
#480985
0\
#482328
0]
#482888
1v
#483287
0b
#483930
1V
#483958
0>
#484016
0X
#484218
1m
#484436
0W
#484522
1Y
#488410
1+
#497600
1"
12
#498585
1\
#499928
1]
#500000
0"
02
#500887
1b
#500985
0\
#502328
0]
#502888
1t
0u
0v
#503287
0b
#503930
0V
#503948
0l
#503956
1X
#503958
1>
#503989
1T
#504036
1k
#504218
0m
#504288
1[
#508100
0*
#508410
0+
#508777
1)
#517600
1"
12
#518585
1\
#519928
1]
#520000
0"
02
#520887
1b
#520985
0\
#522081
1c
#522328
0]
#522888
1v
#523287
0b
#523839
0T
#523930
1V
#523958
0>
#524217
0c
#524218
1m
#524436
1W
#528410
1+
#537600
1"
12
#538585
1\
#539928
1]
#540000
0"
02
#540887
1b
#540985
0\
#542328
0]
#542888
1u
0v
#543287
0b
#543839
1T
#543930
0V
#543948
1l
#543958
1>
#544018
0[
#544217
1c
#544218
0m
#544481
0c
#548100
1*
#548410
0+
#557600
1"
12
#558585
1\
#559928
1]
#560000
0"
02
#560887
1b
#560985
0\
#562328
0]
#562888
1v
#563287
0b
#563839
0T
#563930
1V
#563958
0>
#564016
0X
#564102
1@
#564218
1m
#564436
0W
#564522
0Y
#564608
1A
#568410
1+
#577600
1"
12
#578585
1\
#579928
1]
#580000
0"
02
#580887
1b
#580985
0\
#582328
0]
#582888
0t
0u
0v
1s
#583287
0b
#583930
0V
#583946
1j
#583948
0l
#583956
1X
#583958
1>
#583961
0R
#583988
0A
#583995
0@
#584018
1[
#584036
0k
#584081
1R
#584218
0m
#584501
1A
#588100
0*
#588372
1(
#588410
0+
#588777
0)
#597600
1"
12
#598585
1\
#599928
1]
#600000
0"
02
#600887
1b
#600985
0\
#602081
1c
#602328
0]
#602888
1v
#603287
0b
#603930
1V
#603958
0>
#604217
0c
#604218
1m
#604436
1W
#608410
1+
#617600
1"
12
#618585
1\
#619928
1]
#620000
0"
02
#620887
1b
#620985
0\
#622328
0]
#622888
1u
0v
#623287
0b
#623930
0V
#623948
1l
#623958
1>
#624021
0Z
#624217
1c
#624218
0m
#624481
0c
#628100
1*
#628410
0+
#637600
1"
12
#638585
1\
#639928
1]
#640000
0"
02
#640887
1b
#640985
0\
#642328
0]
#642888
1v
#643287
0b
#643930
1V
#643958
0>
#644016
0X
#644217
1c
#644218
1m
#644436
0W
#644481
0c
#644522
1Y
#648410
1+
#657600
1"
12
#658585
1\
#659928
1]
#660000
0"
02
#660887
1b
#660985
0\
#662081
1c
#662328
0]
#662888
1t
0u
0v
#663287
0b
#663930
0V
#663948
0l
#663956
1X
#663958
1>
#663989
1T
#664036
1k
#664217
0c
#664218
0m
#668100
0*
#668410
0+
#668777
1)
#677600
1"
12
#678585
1\
#679928
1]
#680000
0"
02
#680887
1b
#680985
0\
#682328
0]
#682888
1v
#683287
0b
#683839
0T
#683930
1V
#683958
0>
#684217
1c
#684218
1m
#684436
1W
#684481
0c
#688410
1+
#697600
1"
12
#698585
1\
#699928
1]
#700000
0"
02
#700887
1b
#700985
0\
#702081
1c
#702328
0]
#702888
1u
0v
#703287
0b
#703839
1T
#703930
0V
#703948
1l
#703958
1>
#704021
1Z
#704217
0c
#704218
0m
#704417
1U
#708100
1*
#708410
0+
#708608
11
#717600
1"
12
#718585
1\
#719928
1]
#720000
0"
02
#720495
1;
#720887
1b
#720985
0\
#721613
1=
#722081
1c
#722328
0]
#722888
0t
0u
0r
0s
#722895
0;
#723287
0b
#723407
1'!
#723552
0S
#723553
0T
#723946
0j
#723948
0l
#723960
0U
#723983
0W
#723988
0A
#724013
0=
#724021
0Y
#724032
0i
#724036
0k
#724288
0[
#724343
0Z
#724481
0c
#724491
1E
#724521
09
#724997
1F
#728100
0*
#728151
01
#728161
0'
#728372
0(
#728777
0)
#737600
1"
12
#738585
1\
#739928
1]
#740000
0"
02
#740887
1b
#740985
0\
#742081
1c
#742328
0]
#742888
1v
#743287
0b
#743930
1V
#743958
0>
#744218
1m
#744436
1W
#744481
0c
#748410
1+
#757600
1"
12
#758585
1\
#759928
1]
#760000
0"
02
#760887
1b
#760985
0\
#762081
1c
#762328
0]
#762888
1u
0v
#763287
0b
#763930
0V
#763948
1l
#763958
1>
#764018
1[
#764218
0m
#764481
0c
#768100
1*
#768410
0+
#777600
1"
12
#778585
1\
#779928
1]
#780000
0"
02
#780887
1b
#780985
0\
#782328
0]
#782888
1v
#783287
0b
#783930
1V
#783958
0>
#784016
0X
#784217
1c
#784218
1m
#784436
0W
#784481
0c
#784522
1Y
#788410
1+
#797600
1"
12
#798585
1\
#799928
1]
#800000
0"
02
#800887
1b
#800985
0\
#802081
1c
#802328
0]
#802888
1t
0u
0v
#803287
0b
#803930
0V
#803948
0l
#803956
1X
#803958
1>
#804018
0[
#804036
1k
#804217
0c
#804218
0m
#804285
1Z
#808100
0*
#808410
0+
#808777
1)
#817600
1"
12
#818585
1\
#819928
1]
#820000
0"
02
#820887
1b
#820985
0\
#822328
0]
#822888
1v
#823287
0b
#823930
1V
#823958
0>
#824218
1m
#824436
1W
#828410
1+
#837600
1"
12
#838585
1\
#839928
1]
#840000
0"
02
#840887
1b
#840985
0\
#842328
0]
#842888
1u
0v
#843287
0b
#843930
0V
#843948
1l
#843958
1>
#844018
1[
#844218
0m
#848100
1*
#848410
0+
#857600
1"
12
#858585
1\
#859928
1]
#860000
0"
02
#860887
1b
#860985
0\
#862081
1c
#862328
0]
#862888
1v
#863287
0b
#863930
1V
#863958
0>
#864016
0X
#864102
1@
#864217
0c
#864218
1m
#864436
0W
#864522
0Y
#864608
1A
#868410
1+
#877600
1"
12
#878585
1\
#879928
1]
#880000
0"
02
#880887
1b
#880985
0\
#882328
0]
#882888
0t
0u
0v
1s
#883287
0b
#883930
0V
#883946
1j
#883948
0l
#883956
1X
#883958
1>
#883961
0R
#883988
0A
#883995
0@
#884018
0[
#884036
0k
#884081
1R
#884217
1c
#884218
0m
#884481
0c
#884501
1A
#888100
0*
#888372
1(
#888410
0+
#888777
0)
#897600
1"
12
#898585
1\
#899928
1]
#900000
0"
02
#900887
1b
#900985
0\
#902328
0]
#902888
1v
#903287
0b
#903930
1V
#903958
0>
#904218
1m
#904436
1W
#908410
1+
#917600
1"
12
#918585
1\
#919928
1]
#920000
0"
02
#920887
1b
#920985
0\
#922328
0]
#922888
1u
0v
#923287
0b
#923930
0V
#923948
1l
#923958
1>
#924018
1[
#924218
0m
#928100
1*
#928410
0+
#937600
1"
12
#938585
1\
#939928
1]
#940000
0"
02
#940887
1b
#940985
0\
#942081
1c
#942328
0]
#942888
1v
#943287
0b
#943930
1V
#943958
0>
#944016
0X
#944217
0c
#944218
1m
#944436
0W
#944522
1Y
#948410
1+
#957600
1"
12
#958585
1\
#959928
1]
#960000
0"
02
#960887
1b
#960985
0\
#962328
0]
#962888
1t
0u
0v
#963287
0b
#963930
0V
#963948
0l
#963956
1X
#963958
1>
#964018
0[
#964036
1k
#964217
1c
#964218
0m
#964481
0c
#968100
0*
#968410
0+
#968777
1)
#977600
1"
12
#978585
1\
#979928
1]
#980000
0"
02
#980887
1b
#980985
0\
#982328
0]
#982888
1v
#983287
0b
#983930
1V
#983958
0>
#984218
1m
#984436
1W
#988410
1+
#997600
1"
12
#998585
1\
#999928
1]
