course_var4.3/cnteprom/simulation/qsim/cnteprom.msim.vcd
$comment
	File created using the following command:
		vcd file cnteprom.msim.vcd -direction
$end
$date
	Mon May 26 09:58:16 2025
$end
$version
	ModelSim Version 10.1d
$end
$timescale
	1ps
$end
$scope module cnteprom_vlg_vec_tst $end
$var reg 1 ! Clock $end
$var reg 1 " Reset $end
$var reg 1 # Start $end
$var reg 1 $ Stop $end
$var wire 1 % Period $end
$var wire 1 & Q [9] $end
$var wire 1 ' Q [8] $end
$var wire 1 ( Q [7] $end
$var wire 1 ) Q [6] $end
$var wire 1 * Q [5] $end
$var wire 1 + Q [4] $end
$var wire 1 , Q [3] $end
$var wire 1 - Q [2] $end
$var wire 1 . Q [1] $end
$var wire 1 / Q [0] $end
$var wire 1 0 sampler $end
$scope module i1 $end
$var wire 1 1 gnd $end
$var wire 1 2 vcc $end
$var wire 1 3 unknown $end
$var tri1 1 4 devclrn $end
$var tri1 1 5 devpor $end
$var tri1 1 6 devoe $end
$var wire 1 7 inst|LPM_COUNTER_component|auto_generated|counter_comb_bita0~COUT $end
$var wire 1 8 inst|LPM_COUNTER_component|auto_generated|counter_comb_bita1~combout $end
$var wire 1 9 ~GND~combout $end
$var wire 1 : Reset~combout $end
$var wire 1 ; Reset~clkctrl_outclk $end
$var wire 1 < Start~combout $end
$var wire 1 = inst5~combout $end
$var wire 1 > Stop~combout $end
$var wire 1 ? inst|LPM_COUNTER_component|auto_generated|counter_comb_bita1~COUT $end
$var wire 1 @ inst|LPM_COUNTER_component|auto_generated|counter_comb_bita2~COUT $end
$var wire 1 A inst|LPM_COUNTER_component|auto_generated|counter_comb_bita3~COUT $end
$var wire 1 B inst|LPM_COUNTER_component|auto_generated|counter_comb_bita4~combout $end
$var wire 1 C inst|LPM_COUNTER_component|auto_generated|counter_comb_bita2~combout $end
$var wire 1 D inst3~0_combout $end
$var wire 1 E inst|LPM_COUNTER_component|auto_generated|counter_comb_bita0~combout $end
$var wire 1 F inst3~combout $end
$var wire 1 G Clock~combout $end
$var wire 1 H Clock~clkctrl_outclk $end
$var wire 1 I inst|LPM_COUNTER_component|auto_generated|counter_comb_bita3~combout $end
$var wire 1 J inst15~combout $end
$var wire 1 K inst14~combout $end
$var wire 1 L inst13~combout $end
$var wire 1 M inst12~combout $end
$var wire 1 N inst11~combout $end
$var wire 1 O inst10~combout $end
$var wire 1 P inst9~combout $end
$var wire 1 Q inst8~combout $end
$var wire 1 R inst7~combout $end
$var wire 1 S inst6~combout $end
$var wire 1 T inst1|srom|rom_block|auto_generated|q_a [9] $end
$var wire 1 U inst1|srom|rom_block|auto_generated|q_a [8] $end
$var wire 1 V inst1|srom|rom_block|auto_generated|q_a [7] $end
$var wire 1 W inst1|srom|rom_block|auto_generated|q_a [6] $end
$var wire 1 X inst1|srom|rom_block|auto_generated|q_a [5] $end
$var wire 1 Y inst1|srom|rom_block|auto_generated|q_a [4] $end
$var wire 1 Z inst1|srom|rom_block|auto_generated|q_a [3] $end
$var wire 1 [ inst1|srom|rom_block|auto_generated|q_a [2] $end
$var wire 1 \ inst1|srom|rom_block|auto_generated|q_a [1] $end
$var wire 1 ] inst1|srom|rom_block|auto_generated|q_a [0] $end
$var wire 1 ^ inst|LPM_COUNTER_component|auto_generated|safe_q [4] $end
$var wire 1 _ inst|LPM_COUNTER_component|auto_generated|safe_q [3] $end
$var wire 1 ` inst|LPM_COUNTER_component|auto_generated|safe_q [2] $end
$var wire 1 a inst|LPM_COUNTER_component|auto_generated|safe_q [1] $end
$var wire 1 b inst|LPM_COUNTER_component|auto_generated|safe_q [0] $end
$var wire 1 c inst1|srom|rom_block|auto_generated|ram_block1a0_PORTADATAOUT_bus [9] $end
$var wire 1 d inst1|srom|rom_block|auto_generated|ram_block1a0_PORTADATAOUT_bus [8] $end
$var wire 1 e inst1|srom|rom_block|auto_generated|ram_block1a0_PORTADATAOUT_bus [7] $end
$var wire 1 f inst1|srom|rom_block|auto_generated|ram_block1a0_PORTADATAOUT_bus [6] $end
$var wire 1 g inst1|srom|rom_block|auto_generated|ram_block1a0_PORTADATAOUT_bus [5] $end
$var wire 1 h inst1|srom|rom_block|auto_generated|ram_block1a0_PORTADATAOUT_bus [4] $end
$var wire 1 i inst1|srom|rom_block|auto_generated|ram_block1a0_PORTADATAOUT_bus [3] $end
$var wire 1 j inst1|srom|rom_block|auto_generated|ram_block1a0_PORTADATAOUT_bus [2] $end
$var wire 1 k inst1|srom|rom_block|auto_generated|ram_block1a0_PORTADATAOUT_bus [1] $end
$var wire 1 l inst1|srom|rom_block|auto_generated|ram_block1a0_PORTADATAOUT_bus [0] $end
$upscope $end
$upscope $end
$enddefinitions $end
#0
$dumpvars
0!
0"
0#
1$
0%
0/
0.
0-
0,
0+
0*
0)
0(
0'
0&
x0
01
12
x3
14
15
16
07
08
09
0:
0;
0<
1=
1>
1?
0@
1A
0B
0C
0D
1E
0F
0G
0H
0I
0J
0K
0L
0M
0N
0O
0P
0Q
0R
0S
0]
0\
0[
0Z
0Y
0X
0W
0V
0U
0T
0b
0a
0`
0_
0^
0l
0k
0j
0i
0h
0g
0f
0e
0d
0c
$end
#9375
1!
1G
1H
00
#10000
1#
1<
10
0=
#12500
0!
0G
0H
00
#21875
1!
1G
1H
10
1b
17
0E
18
#25000
0!
0G
0H
00
1l
1]
#34375
1!
1G
1H
10
1S
1/
0b
1a
07
1E
0?
08
1?
18
1C
0C
#37500
0!
0G
0H
00
0S
0/
0l
1k
0]
1\
#46875
1!
1G
1H
10
1R
1.
1b
17
0E
0?
08
1C
#50000
0!
0G
0H
00
0R
0.
0k
1j
0\
1[
#59375
1!
1G
1H
10
1Q
1-
0b
1`
0a
07
1E
1@
0C
1?
18
08
1I
0@
1C
0I
#62500
0!
0G
0H
00
0Q
0-
0j
1i
0[
1Z
#71875
1!
1G
1H
10
1P
1,
1b
17
0E
18
#75000
0!
0G
0H
00
0P
0,
0i
1h
0Z
1Y
#84375
1!
1G
1H
10
1O
1+
0b
1a
07
1E
0?
08
1?
18
1@
0C
0@
1C
1I
0I
#87500
0!
0G
0H
00
0O
0+
0h
1g
0Y
1X
#96875
1!
1G
1H
10
1N
1*
1b
17
0E
0?
08
1@
0C
1I
#100000
0!
0G
0H
00
0N
0*
0g
1f
0X
1W
#109375
1!
1G
1H
10
1M
1)
1_
0b
0`
0a
0A
0I
07
1E
0@
1C
1?
18
1B
08
1A
1I
0C
0B
#112500
0!
0G
0H
00
0M
0)
0f
1e
0W
1V
#121875
1!
1G
1H
10
1L
1(
1b
17
0E
18
#125000
0!
0G
0H
00
0L
0(
0e
1d
0V
1U
#134375
1!
1G
1H
10
1K
1'
0b
1a
07
1E
0?
08
1?
18
1C
0C
#137500
0!
0G
0H
00
0K
0'
0d
1c
0U
1T
#146875
1!
1G
1H
10
1J
1&
1b
17
0E
0?
08
1C
#150000
0!
0G
0H
00
0J
0&
1d
0c
1U
0T
#159375
1!
1G
1H
10
1K
1'
0b
1`
0a
07
1E
1@
0C
1?
18
08
0A
0I
0@
1C
1B
1A
1I
0B
#162500
0!
0G
0H
00
0K
0'
1e
0d
1V
0U
#171875
1!
1G
1H
10
1L
1(
1b
17
0E
18
#175000
0!
0G
0H
00
0L
0(
1f
0e
1W
0V
#184375
1!
1G
1H
10
1M
1)
0b
1a
07
1E
0?
08
1?
18
1@
0C
0@
1C
0A
0I
1A
1I
1B
0B
#187500
0!
0G
0H
00
0M
0)
1g
0f
1X
0W
#196875
1!
1G
1H
10
1N
1*
1b
17
0E
0?
08
1@
0C
0A
0I
1B
#200000
0!
0G
0H
00
0N
0*
1h
0g
1Y
0X
#209375
1!
1G
1H
10
1O
1+
0_
0b
0`
1^
0a
1A
1I
07
1E
0@
1C
0B
1?
18
1B
08
0I
0C
#212500
0!
0G
0H
00
0O
0+
1i
0h
1Z
0Y
#221875
1!
1G
1H
10
1P
1,
1b
17
0E
18
#225000
0!
0G
0H
00
0P
0,
1j
0i
1[
0Z
#234375
1!
1G
1H
10
1Q
1-
0b
1a
07
1E
0?
08
1?
18
1C
0C
#237500
0!
0G
0H
00
0Q
0-
1k
0j
1\
0[
#246875
1!
1G
1H
10
1R
1.
1b
17
0E
0?
08
1C
#250000
0!
0G
0H
00
0R
0.
1l
0k
1]
0\
#259375
1!
1G
1H
10
1S
1/
0b
1`
0a
07
1E
1@
0C
1?
18
08
1I
0@
1C
0I
#262500
0!
0G
0H
00
0S
0/
0l
1k
0]
1\
#271875
1!
1G
1H
10
1R
1.
1b
17
0E
18
#275000
0!
0G
0H
00
0R
0.
0k
1j
0\
1[
#284375
1!
1G
1H
10
1Q
1-
0b
1a
07
1E
1D
0?
08
1?
18
1@
0C
0@
1C
1I
0I
#287500
0!
0G
0H
00
0Q
0-
0j
1i
0[
1Z
#296875
1!
1G
1H
10
1P
1,
1b
1F
1=
17
0E
0?
08
1%
1@
0C
1I
#300000
0!
0G
0H
00
0P
0,
1j
0i
1[
0Z
#309375
1!
1G
1H
10
1Q
1-
0b
0`
0^
0a
0F
0=
07
1E
0D
0@
1C
0B
1?
18
08
0I
0C
0%
#312500
0!
0G
0H
00
0Q
0-
1k
0j
1\
0[
#321875
1!
1G
1H
10
1R
1.
1b
17
0E
18
#325000
0!
0G
0H
00
0R
0.
1l
0k
1]
0\
#334375
1!
1G
1H
10
1S
1/
0b
1a
07
1E
0?
08
1?
18
1C
0C
#337500
0!
0G
0H
00
0S
0/
0l
1k
0]
1\
#346875
1!
1G
1H
10
1R
1.
1b
17
0E
0?
08
1C
#350000
0!
0G
0H
00
0R
0.
0k
1j
0\
1[
#359375
1!
1G
1H
10
1Q
1-
0b
1`
0a
07
1E
1@
0C
1?
18
08
1I
0@
1C
0I
#362500
0!
0G
0H
00
0Q
0-
0j
1i
0[
1Z
#371875
1!
1G
1H
10
1P
1,
1b
17
0E
18
#375000
0!
0G
0H
00
0P
0,
0i
1h
0Z
1Y
#384375
1!
1G
1H
10
1O
1+
0b
1a
07
1E
0?
08
1?
18
1@
0C
0@
1C
1I
0I
#387500
0!
0G
0H
00
0O
0+
0h
1g
0Y
1X
#396875
1!
1G
1H
10
1N
1*
1b
17
0E
0?
08
1@
0C
1I
#400000
0!
0G
0H
00
0N
0*
0g
1f
0X
1W
#409375
1!
1G
1H
10
1M
1)
1_
0b
0`
0a
0A
0I
07
1E
0@
1C
1?
18
1B
08
1A
1I
0C
0B
#412500
0!
0G
0H
00
0M
0)
0f
1e
0W
1V
#421875
1!
1G
1H
10
1L
1(
1b
17
0E
18
#425000
0!
0G
0H
00
0L
0(
0e
1d
0V
1U
#434375
1!
1G
1H
10
1K
1'
0b
1a
07
1E
0?
08
1?
18
1C
0C
#437500
0!
0G
0H
00
0K
0'
0d
1c
0U
1T
#446875
1!
1G
1H
10
1J
1&
1b
17
0E
0?
08
1C
#450000
0!
0G
0H
00
0J
0&
1d
0c
1U
0T
#459375
1!
1G
1H
10
1K
1'
0b
1`
0a
07
1E
1@
0C
1?
18
08
0A
0I
0@
1C
1B
1A
1I
0B
#462500
0!
0G
0H
00
0K
0'
1e
0d
1V
0U
#471875
1!
1G
1H
10
1L
1(
1b
17
0E
18
#475000
0!
0G
0H
00
0L
0(
1f
0e
1W
0V
#484375
1!
1G
1H
10
1M
1)
0b
1a
07
1E
0?
08
1?
18
1@
0C
0@
1C
0A
0I
1A
1I
1B
0B
#487500
0!
0G
0H
00
0M
0)
1g
0f
1X
0W
#496875
1!
1G
1H
10
1N
1*
1b
17
0E
0?
08
1@
0C
0A
0I
1B
#500000
0!
0G
0H
00
0N
0*
1h
0g
1Y
0X
#509375
1!
1G
1H
10
1O
1+
0_
0b
0`
1^
0a
1A
1I
07
1E
0@
1C
0B
1?
18
1B
08
0I
0C
#512500
0!
0G
0H
00
0O
0+
1i
0h
1Z
0Y
#521875
1!
1G
1H
10
1P
1,
1b
17
0E
18
#525000
0!
0G
0H
00
0P
0,
1j
0i
1[
0Z
#534375
1!
1G
1H
10
1Q
1-
0b
1a
07
1E
0?
08
1?
18
1C
0C
#537500
0!
0G
0H
00
0Q
0-
1k
0j
1\
0[
#546875
1!
1G
1H
10
1R
1.
1b
17
0E
0?
08
1C
#550000
0!
0G
0H
00
0R
0.
1l
0k
1]
0\
#559375
1!
1G
1H
10
1S
1/
0b
1`
0a
07
1E
1@
0C
1?
18
08
1I
0@
1C
0I
#562500
0!
0G
0H
00
0S
0/
0l
1k
0]
1\
#571875
1!
1G
1H
10
1R
1.
1b
17
0E
18
#575000
0!
0G
0H
00
0R
0.
0k
1j
0\
1[
#584375
1!
1G
1H
10
1Q
1-
0b
1a
07
1E
1D
0?
08
1?
18
1@
0C
0@
1C
1I
0I
#587500
0!
0G
0H
00
0Q
0-
0j
1i
0[
1Z
#596875
1!
1G
1H
10
1P
1,
1b
1F
1=
17
0E
0?
08
1%
1@
0C
1I
#600000
0!
0G
0H
00
0P
0,
1j
0i
1[
0Z
#609375
1!
1G
1H
10
1Q
1-
0b
0`
0^
0a
0F
0=
07
1E
0D
0@
1C
0B
1?
18
08
0I
0C
0%
#610000
0$
0>
00
#612500
0!
0G
0H
10
0Q
0-
1k
0j
1\
0[
#621875
1!
1G
1H
00
1R
1.
#625000
0!
0G
0H
10
0R
0.
1l
0k
1]
0\
#634375
1!
1G
1H
00
1S
1/
#637500
0!
0G
0H
10
0S
0/
#646875
1!
1G
1H
00
1S
1/
#650000
0!
0G
0H
10
0S
0/
#659375
1!
1G
1H
00
1S
1/
#662500
0!
0G
0H
10
0S
0/
#671875
1!
1G
1H
00
1S
1/
#675000
0!
0G
0H
10
0S
0/
#684375
1!
1G
1H
00
1S
1/
#687500
0!
0G
0H
10
0S
0/
#696875
1!
1G
1H
00
1S
1/
#700000
0!
0G
0H
10
0S
0/
#709375
1!
1G
1H
00
1S
1/
#712500
0!
0G
0H
10
0S
0/
#721875
1!
1G
1H
00
1S
1/
#725000
0!
0G
0H
10
0S
0/
#734375
1!
1G
1H
00
1S
1/
#737500
0!
0G
0H
10
0S
0/
#746875
1!
1G
1H
00
1S
1/
#750000
0!
0G
0H
10
0S
0/
#759375
1!
1G
1H
00
1S
1/
#762500
0!
0G
0H
10
0S
0/
#771875
1!
1G
1H
00
1S
1/
#775000
0!
0G
0H
10
0S
0/
#784375
1!
1G
1H
00
1S
1/
#787500
0!
0G
0H
10
0S
0/
#796875
1!
1G
1H
00
1S
1/
#800000
0!
0G
0H
10
0S
0/
#809375
1!
1G
1H
00
1S
1/
#812500
0!
0G
0H
10
0S
0/
#821875
1!
1G
1H
00
1S
1/
#825000
0!
0G
0H
10
0S
0/
#834375
1!
1G
1H
00
1S
1/
#837500
0!
0G
0H
10
0S
0/
#846875
1!
1G
1H
00
1S
1/
#850000
0!
0G
0H
10
0S
0/
#859375
1!
1G
1H
00
1S
1/
#862500
0!
0G
0H
10
0S
0/
#871875
1!
1G
1H
00
1S
1/
#875000
0!
0G
0H
10
0S
0/
#884375
1!
1G
1H
00
1S
1/
#887500
0!
0G
0H
10
0S
0/
#896875
1!
1G
1H
00
1S
1/
#900000
0!
0G
0H
10
0S
0/
#909375
1!
1G
1H
00
1S
1/
#912500
0!
0G
0H
10
0S
0/
#921875
1!
1G
1H
00
1S
1/
#925000
0!
0G
0H
10
0S
0/
#934375
1!
1G
1H
00
1S
1/
#937500
0!
0G
0H
10
0S
0/
#946875
1!
1G
1H
00
1S
1/
#950000
0!
0G
0H
10
0S
0/
#959375
1!
1G
1H
00
1S
1/
#962500
0!
0G
0H
10
0S
0/
#971875
1!
1G
1H
00
1S
1/
#975000
0!
0G
0H
10
0S
0/
#984375
1!
1G
1H
00
1S
1/
#987500
0!
0G
0H
10
0S
0/
#996875
1!
1G
1H
00
1S
1/
