course_var2.1/interface/simulation/qsim/interface.msim.vcd
$comment
	File created using the following command:
		vcd file interface.msim.vcd -direction
$end
$date
	Mon Jun 02 13:53:00 2025
$end
$version
	ModelSim Version 10.1d
$end
$timescale
	1ps
$end
$scope module interface_vlg_vec_tst $end
$var reg 8 ! AD [7:0] $end
$var reg 1 " Clock $end
$var reg 1 # nIOR $end
$var reg 1 $ nIOW $end
$var reg 1 % nStart $end
$var reg 1 & nStop $end
$var wire 1 ' count [4] $end
$var wire 1 ( count [3] $end
$var wire 1 ) count [2] $end
$var wire 1 * count [1] $end
$var wire 1 + count [0] $end
$var wire 1 , Enable $end
$var wire 1 - Read $end
$var wire 1 . Result $end
$var wire 1 / SA $end
$var wire 1 0 T $end
$var wire 1 1 T_stop $end
$var wire 1 2 sampler $end
$scope module i1 $end
$var wire 1 3 gnd $end
$var wire 1 4 vcc $end
$var wire 1 5 unknown $end
$var tri1 1 6 devclrn $end
$var tri1 1 7 devpor $end
$var tri1 1 8 devoe $end
$var wire 1 9 inst7|inst9|LPM_COUNTER_component|auto_generated|counter_comb_bita0~combout $end
$var wire 1 : inst7|inst~combout $end
$var wire 1 ; nIOR~combout $end
$var wire 1 < inst7|inst~clkctrl_outclk $end
$var wire 1 = nStop~combout $end
$var wire 1 > nStart~combout $end
$var wire 1 ? inst~0_combout $end
$var wire 1 @ inst7|inst9|LPM_COUNTER_component|auto_generated|counter_comb_bita0~COUT $end
$var wire 1 A inst7|inst9|LPM_COUNTER_component|auto_generated|counter_comb_bita1~combout $end
$var wire 1 B inst7|inst9|LPM_COUNTER_component|auto_generated|counter_comb_bita1~COUT $end
$var wire 1 C inst7|inst9|LPM_COUNTER_component|auto_generated|counter_comb_bita2~combout $end
$var wire 1 D inst7|inst9|LPM_COUNTER_component|auto_generated|counter_comb_bita2~COUT $end
$var wire 1 E inst7|inst9|LPM_COUNTER_component|auto_generated|counter_comb_bita3~combout $end
$var wire 1 F inst7|inst9|LPM_COUNTER_component|auto_generated|counter_comb_bita3~COUT $end
$var wire 1 G inst7|inst9|LPM_COUNTER_component|auto_generated|counter_comb_bita4~COUT $end
$var wire 1 H inst7|inst9|LPM_COUNTER_component|auto_generated|counter_comb_bita5~combout $end
$var wire 1 I inst7|inst9|LPM_COUNTER_component|auto_generated|counter_comb_bita5~COUT $end
$var wire 1 J inst7|inst9|LPM_COUNTER_component|auto_generated|counter_comb_bita6~combout $end
$var wire 1 K inst7|inst9|LPM_COUNTER_component|auto_generated|counter_comb_bita4~combout $end
$var wire 1 L inst7|inst12|LPM_DECODE_component|auto_generated|w_anode1185w[3]~0_combout $end
$var wire 1 M inst~regout $end
$var wire 1 N inst1|inst1~0_combout $end
$var wire 1 O inst1|inst1~1_combout $end
$var wire 1 P inst1|inst1~combout $end
$var wire 1 Q inst1|inst14~regout $end
$var wire 1 R Clock~combout $end
$var wire 1 S inst2|inst36~1_combout $end
$var wire 1 T inst8|inst26|LPM_COUNTER_component|auto_generated|counter_comb_bita0~combout $end
$var wire 1 U ~GND~combout $end
$var wire 1 V inst37~0_combout $end
$var wire 1 W inst8|inst26|LPM_COUNTER_component|auto_generated|counter_comb_bita0~COUT $end
$var wire 1 X inst8|inst26|LPM_COUNTER_component|auto_generated|counter_comb_bita1~combout $end
$var wire 1 Y inst8|inst26|LPM_COUNTER_component|auto_generated|counter_comb_bita1~COUT $end
$var wire 1 Z inst8|inst26|LPM_COUNTER_component|auto_generated|counter_comb_bita2~COUT $end
$var wire 1 [ inst8|inst26|LPM_COUNTER_component|auto_generated|counter_comb_bita3~combout $end
$var wire 1 \ inst8|inst26|LPM_COUNTER_component|auto_generated|counter_comb_bita3~COUT $end
$var wire 1 ] inst8|inst26|LPM_COUNTER_component|auto_generated|counter_comb_bita4~combout $end
$var wire 1 ^ inst8|inst13~0_combout $end
$var wire 1 _ inst8|inst26|LPM_COUNTER_component|auto_generated|counter_comb_bita2~combout $end
$var wire 1 ` inst2|inst36~2_combout $end
$var wire 1 a inst2|inst36~0_combout $end
$var wire 1 b inst2|inst36~3_combout $end
$var wire 1 c inst13~feeder_combout $end
$var wire 1 d nIOW~combout $end
$var wire 1 e inst13~regout $end
$var wire 1 f inst36~combout $end
$var wire 1 g inst2|inst41~combout $end
$var wire 1 h inst2|inst40~combout $end
$var wire 1 i inst2|inst39~combout $end
$var wire 1 j inst2|inst38~combout $end
$var wire 1 k inst2|inst37~combout $end
$var wire 1 l AD~combout [7] $end
$var wire 1 m AD~combout [6] $end
$var wire 1 n AD~combout [5] $end
$var wire 1 o AD~combout [4] $end
$var wire 1 p AD~combout [3] $end
$var wire 1 q AD~combout [2] $end
$var wire 1 r AD~combout [1] $end
$var wire 1 s AD~combout [0] $end
$var wire 1 t inst7|inst9|LPM_COUNTER_component|auto_generated|safe_q [6] $end
$var wire 1 u inst7|inst9|LPM_COUNTER_component|auto_generated|safe_q [5] $end
$var wire 1 v inst7|inst9|LPM_COUNTER_component|auto_generated|safe_q [4] $end
$var wire 1 w inst7|inst9|LPM_COUNTER_component|auto_generated|safe_q [3] $end
$var wire 1 x inst7|inst9|LPM_COUNTER_component|auto_generated|safe_q [2] $end
$var wire 1 y inst7|inst9|LPM_COUNTER_component|auto_generated|safe_q [1] $end
$var wire 1 z inst7|inst9|LPM_COUNTER_component|auto_generated|safe_q [0] $end
$var wire 1 { inst8|inst26|LPM_COUNTER_component|auto_generated|safe_q [4] $end
$var wire 1 | inst8|inst26|LPM_COUNTER_component|auto_generated|safe_q [3] $end
$var wire 1 } inst8|inst26|LPM_COUNTER_component|auto_generated|safe_q [2] $end
$var wire 1 ~ inst8|inst26|LPM_COUNTER_component|auto_generated|safe_q [1] $end
$var wire 1 !! inst8|inst26|LPM_COUNTER_component|auto_generated|safe_q [0] $end
$var wire 1 "! inst7|inst12|LPM_DECODE_component|auto_generated|w_anode1185w [3] $end
$var wire 1 #! inst7|inst12|LPM_DECODE_component|auto_generated|w_anode1185w [2] $end
$var wire 1 $! inst7|inst12|LPM_DECODE_component|auto_generated|w_anode1185w [1] $end
$var wire 1 %! inst7|inst12|LPM_DECODE_component|auto_generated|w_anode1185w [0] $end
$upscope $end
$upscope $end
$enddefinitions $end
#0
$dumpvars
b101001 !
0"
1#
1$
1%
1&
x+
x*
x)
x(
x'
x,
x-
x.
x/
x0
x1
x2
03
14
x5
16
17
18
x9
x:
1;
x<
1=
1>
x?
x@
xA
xB
xC
xD
xE
xF
xG
xH
xI
xJ
xK
xL
xM
xN
xO
xP
0Q
0R
xS
xT
0U
xV
xW
xX
xY
xZ
x[
x\
x]
x^
x_
x`
xa
xb
1c
1d
xe
xf
xg
xh
xi
xj
xk
1s
0r
0q
1p
0o
1n
0m
0l
0z
0y
0x
0w
0v
0u
0t
0!!
0~
0}
0|
0{
z%!
z$!
z#!
x"!
$end
#267
0M
0e
#668
0^
#675
0f
#830
0L
#972
1a
#1022
0"!
#1033
0W
#1038
1F
#1044
1I
#1061
1T
0V
#1068
0k
0S
#1076
1\
1Y
#1092
0D
#1093
0@
#1097
0G
#1105
0Z
#1108
0g
#1123
19
#1150
1B
#1333
0:
#1412
0h
#1417
0j
#1453
1`
#1516
0?
#1539
0X
#1544
0K
#1550
0J
#1582
0_
0]
#1598
0E
#1599
0A
#1603
0H
#1611
0[
#1656
0C
#1671
0i
#2118
0b
#2761
0<
#4315
0/
#4418
0-
#4741
00
#4781
11
#5237
0+
#5293
0,
#5297
0'
#5591
0(
#5888
1O
#5955
0*
#6001
1N
#6224
0)
#6326
0.
#7132
0P
#10000
0%
02
#11130
0>
#12646
1?
#20000
0$
12
#21005
0d
#22500
1"
02
#23289
1M
#23495
1R
#30000
1$
0"
12
#30995
0R
#31005
1d
#40000
0#
1%
02
#40975
0;
#41130
1>
#42863
1e
#50000
1#
12
#50975
1;
#52500
1"
02
#53495
1R
#60000
0"
12
#60995
0R
#70000
b111001 !
b110001 !
b110000 !
0%
02
#70985
1o
0p
0s
#71130
0>
#76986
0N
#77597
0O
#78841
1P
#80000
0$
12
#81005
0d
#82500
1"
02
#82875
0e
#83289
1Q
#83495
1R
#84350
1V
#87604
1/
#88582
1,
#90000
1$
0"
12
#90995
0R
#91005
1d
#93251
1!!
#94284
1W
#94312
0T
#94790
1X
#100000
0#
1%
02
#100975
0;
#101130
1>
#102863
1e
#104013
1f
#104275
1k
#107756
1-
#108444
1+
#110000
1#
12
#110975
1;
#112500
1"
02
#113495
1R
#118958
1S
#120000
0"
12
#120008
1b
#120995
0R
#123251
1~
0!!
#124216
1.
#124227
0`
#124284
0W
#124312
1T
#124668
1j
#124687
0k
#125296
0b
#126458
0S
#128856
0+
#129206
1*
#129504
0.
#130000
b10000 !
b0 !
02
#130985
0o
#131025
0n
#136986
1N
#138755
0P
#142500
1"
12
#143495
1R
#148958
1S
#150000
0"
02
#150995
0R
#153251
1!!
#154284
1W
#154312
0T
#154370
0Y
#154638
1`
#154687
1k
#154790
0X
#154876
1_
#155707
1b
#156458
0S
#157508
0b
#158856
1+
#172500
1"
12
#173495
1R
#178958
1S
#180000
0"
02
#180008
1b
#180995
0R
#183251
1}
0~
0!!
#184216
1.
#184284
0W
#184312
1T
#184327
1Y
#184668
0j
#184687
0k
#184704
0`
#184922
1i
#185773
0b
#186458
0S
#188856
0+
#189206
0*
#189475
1)
#189981
0.
#202500
1"
12
#203495
1R
#208958
1S
#210000
0"
02
#210995
0R
#213251
1!!
#214284
1W
#214312
0T
#214638
1`
#214687
1k
#214790
1X
#215707
1b
#216458
0S
#217508
0b
#218856
1+
#232500
1"
12
#233495
1R
#238958
1S
#240000
0"
02
#240008
1b
#240995
0R
#243251
1~
0!!
#244216
1.
#244284
0W
#244312
1T
#244638
0`
#244668
1j
#244687
0k
#245707
0b
#246458
0S
#248856
0+
#249206
1*
#249915
0.
#262500
1"
12
#263495
1R
#268958
1S
#270000
0"
02
#270995
0R
#273251
1!!
#274284
1W
#274312
0T
#274370
0Y
#274456
1Z
#274638
1`
#274687
1k
#274790
0X
#274876
0_
#274962
1[
#275707
1b
#276458
0S
#277508
0b
#278856
1+
#292500
1"
12
#293495
1R
#298958
1S
#300000
0"
02
#300008
1b
#300995
0R
#303251
0}
1|
0~
0!!
#304216
1.
#304284
0W
#304312
1T
#304327
0\
1Y
#304354
0[
#304356
0Z
#304442
1\
#304663
1h
#304668
0j
#304687
0k
#304704
0a
#304862
1[
#304922
0i
#305487
0b
#306458
0S
#308842
1(
#308856
0+
#309206
0*
#309475
0)
#309695
0.
#322500
1"
12
#323495
1R
#328958
1S
#330000
0"
02
#330995
0R
#333251
1!!
#334284
1W
#334312
0T
#334687
1k
#334790
1X
#336458
0S
#338856
1+
#352500
1"
12
#353495
1R
#358958
1S
#360000
0"
02
#360995
0R
#363251
1~
0!!
#364227
0`
#364284
0W
#364312
1T
#364668
1j
#364687
0k
#366458
0S
#368856
0+
#369206
1*
#382500
1"
12
#383495
1R
#388958
1S
#390000
0"
02
#390995
0R
#393251
1!!
#394284
1W
#394312
0T
#394370
0Y
#394638
1`
#394687
1k
#394790
0X
#394876
1_
#396458
0S
#398856
1+
#412500
1"
12
#413495
1R
#418958
1S
#420000
0"
02
#420995
0R
#423251
1}
0~
0!!
#424284
0W
#424312
1T
#424327
1Y
#424668
0j
#424687
0k
#424704
0`
#424922
1i
#426458
0S
#428856
0+
#429206
0*
#429475
1)
#442500
1"
12
#443495
1R
#448958
1S
#450000
0"
02
#450995
0R
#453251
1!!
#454284
1W
#454312
0T
#454638
1`
#454687
1k
#454790
1X
#456458
0S
#458856
1+
#472500
1"
12
#473495
1R
#478958
1S
#480000
0"
02
#480995
0R
#483251
1~
0!!
#484284
0W
#484312
1T
#484638
0`
#484668
1j
#484687
0k
#484704
1a
#486458
0S
#488856
0+
#489206
1*
#502500
1"
12
#503495
1R
#508958
1S
#510000
0"
02
#510995
0R
#513251
1!!
#514284
1W
#514312
0T
#514370
0Y
#514456
1Z
#514542
0\
#514638
1`
#514687
1k
#514790
0X
#514876
0_
#514962
0[
#515048
1]
#515707
1b
#516458
0S
#517508
0b
#518856
1+
#532500
1"
12
#533495
1R
#538958
1S
#540000
0"
02
#540008
1b
#540995
0R
#543251
0}
1{
0|
0~
0!!
#543914
0]
#544216
1.
#544284
0W
#544312
1T
#544327
1\
1Y
#544354
1[
#544356
0Z
#544359
1g
#544663
0h
#544668
0j
#544687
0k
#544704
0a
#544833
1]
#544862
0[
#544922
0i
#545487
0b
#546458
0S
#548548
1'
#548842
0(
#548856
0+
#549206
0*
#549475
0)
#549695
0.
#562500
1"
12
#563495
1R
#568958
1S
#570000
0"
02
#570995
0R
#573251
1!!
#574284
1W
#574312
0T
#574687
1k
#574790
1X
#576458
0S
#578856
1+
#592500
1"
12
#593495
1R
#598958
1S
#600000
0"
02
#600995
0R
#603251
1~
0!!
#604227
0`
#604284
0W
#604312
1T
#604668
1j
#604687
0k
#606458
0S
#608856
0+
#609206
1*
#622500
1"
12
#623495
1R
#628958
1S
#630000
0"
02
#630995
0R
#633251
1!!
#634284
1W
#634312
0T
#634370
0Y
#634638
1`
#634687
1k
#634790
0X
#634876
1_
#636458
0S
#638856
1+
#652500
1"
12
#653495
1R
#658958
1S
#660000
0"
02
#660995
0R
#663251
1}
0~
0!!
#664284
0W
#664312
1T
#664327
1Y
#664668
0j
#664687
0k
#664704
0`
#664922
1i
#666458
0S
#668856
0+
#669206
0*
#669475
1)
#682500
1"
12
#683495
1R
#688958
1S
#690000
0"
02
#690995
0R
#693251
1!!
#694284
1W
#694312
0T
#694638
1`
#694687
1k
#694790
1X
#696458
0S
#698856
1+
#712500
1"
12
#713495
1R
#718958
1S
#720000
0"
02
#720995
0R
#723251
1~
0!!
#724284
0W
#724312
1T
#724638
0`
#724668
1j
#724687
0k
#724704
1a
#726458
0S
#728856
0+
#729206
1*
#742500
1"
12
#743495
1R
#748958
1S
#750000
0"
02
#750995
0R
#753251
1!!
#754284
1W
#754312
0T
#754370
0Y
#754456
1Z
#754638
1`
#754687
1k
#754790
0X
#754876
0_
#754962
1[
#755707
1b
#756458
0S
#757508
0b
#758856
1+
#772500
1"
12
#773495
1R
#778958
1S
#780000
0"
02
#780008
1b
#780995
0R
#783251
0}
1|
0~
0!!
#784216
1.
#784284
0W
#784312
1T
#784327
0\
1Y
#784354
0[
#784356
0Z
#784442
1\
#784663
1h
#784668
0j
#784687
0k
#784705
0a
#784862
1[
#784922
0i
#785488
0b
#786458
0S
#788842
1(
#788856
0+
#789206
0*
#789475
0)
#789696
0.
#802500
1"
12
#803495
1R
#808958
1S
#810000
0"
02
#810995
0R
#813251
1!!
#814284
1W
#814312
0T
#814687
1k
#814790
1X
#816458
0S
#818856
1+
#832500
1"
12
#833495
1R
#838958
1S
#840000
0"
02
#840995
0R
#843251
1~
0!!
#844227
0`
#844284
0W
#844312
1T
#844668
1j
#844687
0k
#844704
1a
#846458
0S
#848856
0+
#849206
1*
#862500
1"
12
#863495
1R
#868958
1S
#870000
0"
02
#870995
0R
#873251
1!!
#874284
1W
#874312
0T
#874370
0Y
#874638
1`
#874687
1k
#874790
0X
#874876
1_
#875707
1b
#876458
0S
#877508
0b
#878856
1+
#892500
1"
12
#893495
1R
#898958
1S
#900000
0"
02
#900008
1b
#900995
0R
#903251
1}
0~
0!!
#904216
1.
#904284
0W
#904312
1T
#904327
1Y
#904668
0j
#904687
0k
#904704
0`
#904922
1i
#905773
0b
#906458
0S
#908856
0+
#909206
0*
#909475
1)
#909981
0.
#922500
1"
12
#923495
1R
#928958
1S
#930000
0"
02
#930995
0R
#933251
1!!
#934284
1W
#934312
0T
#934638
1`
#934687
1k
#934790
1X
#935707
1b
#936458
0S
#937508
0b
#938856
1+
#940000
b100000 !
b110000 !
12
#940985
1o
#941025
1n
#947205
0N
#948974
1P
#952500
1"
02
#953495
1R
#958958
1S
#960000
0"
12
#960008
1b
#960995
0R
#963251
1~
0!!
#964110
1^
#964216
1.
#964284
0W
#964312
1T
#964638
0`
#964668
1j
#964687
0k
#966458
0S
#967508
0b
#968183
10
#968856
0+
#969206
1*
#970000
0&
02
#971140
0=
#971716
0.
#973397
0?
#982500
1"
12
#983495
1R
#984584
1:
#986012
1<
#987823
1z
#988916
1@
#988946
09
#988958
1S
#989422
1A
#990000
0$
0"
02
#990008
1b
#990995
0R
#991005
0d
#992084
0:
#992875
0e
#993251
0}
0{
0|
0~
#993289
0M
#993512
0<
#993914
0]
#993919
0^
#994025
0f
#994216
1.
#994237
0V
#994289
0S
#994354
0X
0[
#994359
0g
#994382
0_
#994663
0h
#994668
0j
#994704
1`
#994922
0i
#995229
0b
#997768
0-
#997992
00
#998469
0,
#998548
0'
#998842
0(
#999206
0*
#999437
0.
#999475
0)
#1000000
1&
1$
12
#1001005
1d
#1001140
1=
#1010000
0#
02
#1010975
0;
#1012500
1"
12
#1012863
1e
#1013495
1R
#1020000
1#
0"
02
#1020975
1;
#1020995
0R
#1042500
1"
12
#1043495
1R
#1050000
b10000 !
b0 !
0"
02
#1050985
0o
#1050995
0R
#1051025
0n
#1056986
1N
#1058755
0P
#1070000
0%
12
#1071130
0>
#1072500
1"
02
#1072646
1?
#1073495
1R
#1080000
0$
0"
12
#1080995
0R
#1081005
0d
#1082875
0e
#1083289
0Q
1M
#1087604
0/
#1090000
1$
02
#1091005
1d
#1100000
0#
1%
12
#1100975
0;
#1101130
1>
#1102500
1"
02
#1102863
1e
#1103495
1R
#1110000
1#
0"
12
#1110975
1;
#1110995
0R
#1130000
b100000 !
b110000 !
0%
02
#1130985
1o
#1131025
1n
#1131130
0>
#1132500
1"
12
#1133495
1R
#1137205
0N
#1138974
1P
#1140000
0$
0"
02
#1140995
0R
#1141005
0d
#1142875
0e
#1143289
1Q
#1144350
1V
#1147604
1/
#1148582
1,
#1150000
1$
12
#1151005
1d
#1160000
0#
1%
02
#1160975
0;
#1161130
1>
#1162500
1"
12
#1162863
1e
#1163495
1R
#1164013
1f
#1167756
1-
#1168958
1S
#1170000
1#
0"
02
#1170008
1b
#1170975
1;
#1170995
0R
#1173251
1!!
#1174216
1.
#1174284
1W
#1174312
0T
#1174687
1k
#1174790
1X
#1176458
0S
#1177508
0b
#1178856
1+
#1181716
0.
#1192500
1"
12
#1193495
1R
#1198958
1S
