course_var1.2/decoder/simulation/qsim/decoder.msim.vcd
$comment
	File created using the following command:
		vcd file decoder.msim.vcd -direction
$end
$date
	Thu May 29 00:33:33 2025
$end
$version
	ModelSim Version 10.1d
$end
$timescale
	1ps
$end
$scope module decoder_vlg_vec_tst $end
$var reg 1 ! Clock $end
$var reg 3 " md [2:0] $end
$var reg 5 # td [4:0] $end
$var wire 1 $ result $end
$var wire 1 % sampler $end
$scope module i1 $end
$var wire 1 & gnd $end
$var wire 1 ' vcc $end
$var wire 1 ( unknown $end
$var tri1 1 ) devclrn $end
$var tri1 1 * devpor $end
$var tri1 1 + devoe $end
$var wire 1 , inst19~10_combout $end
$var wire 1 - inst19~5_combout $end
$var wire 1 . inst19~6_combout $end
$var wire 1 / inst19~7_combout $end
$var wire 1 0 inst19~8_combout $end
$var wire 1 1 inst19~9_combout $end
$var wire 1 2 inst19~13_combout $end
$var wire 1 3 inst19~14_combout $end
$var wire 1 4 inst19~11_combout $end
$var wire 1 5 inst19~2_combout $end
$var wire 1 6 inst19~1_combout $end
$var wire 1 7 inst19~3_combout $end
$var wire 1 8 inst19~0_combout $end
$var wire 1 9 inst19~4_combout $end
$var wire 1 : Clock~combout $end
$var wire 1 ; inst19~12_combout $end
$var wire 1 < td~combout [4] $end
$var wire 1 = td~combout [3] $end
$var wire 1 > td~combout [2] $end
$var wire 1 ? td~combout [1] $end
$var wire 1 @ td~combout [0] $end
$var wire 1 A md~combout [2] $end
$var wire 1 B md~combout [1] $end
$var wire 1 C md~combout [0] $end
$upscope $end
$upscope $end
$enddefinitions $end
#0
$dumpvars
0!
b0 "
b0 #
x$
x%
0&
1'
x(
1)
1*
1+
x,
x-
x.
x/
x0
x1
x2
x3
x4
x5
x6
x7
x8
x9
0:
x;
0@
0?
0>
0=
0<
0C
0B
0A
$end
#6641
01
#6642
00
#6812
1-
#6813
15
#6814
16
#6871
0.
#6895
09
#6925
18
#6943
0,
#7203
0/
#7278
03
#7384
07
#7591
0;
#7848
04
#7982
02
#12168
0$
#22500
1!
0%
#23485
1:
#30000
0!
1%
#30985
0:
#50000
b1 #
0%
#50964
1@
#52500
1!
1%
#53485
1:
#57902
06
#58472
17
#60000
0!
0%
#60380
19
#60985
0:
#61076
1;
#65653
1$
#67880
09
#68576
0;
#73153
0$
#80000
b11 #
b10 #
1%
#80964
0@
#80994
1?
#82500
1!
0%
#83485
1:
#87902
16
#88472
07
#90000
0!
1%
#90985
0:
#110000
b11 #
0%
#110964
1@
#112500
1!
1%
#113485
1:
#117421
08
#117423
11
#117902
06
#118472
17
#120000
0!
0%
#120985
0:
#140000
b111 #
b101 #
b100 #
1%
#140964
0@
#140984
1>
#140994
0?
#142500
1!
0%
#143485
1:
#147421
18
#147423
01
#147792
07
#147902
16
#148045
1.
#149036
14
#149950
1;
#150000
0!
1%
#150985
0:
#154527
1$
#157450
0;
#162027
0$
#170000
b101 #
0%
#170964
1@
#172500
1!
1%
#173485
1:
#177902
06
#178045
0.
#179036
04
#180000
0!
0%
#180985
0:
#200000
b111 #
b110 #
1%
#200964
0@
#200994
1?
#202500
1!
0%
#203485
1:
#207902
16
#208045
1.
#209036
14
#209950
1;
#210000
0!
1%
#210985
0:
#214527
1$
#217450
0;
#222027
0$
#230000
b111 #
0%
#230964
1@
#232500
1!
1%
#233485
1:
#237421
08
#237423
11
#237902
06
#238045
0.
#239036
04
#240000
0!
0%
#240985
0:
#260000
b1111 #
b1011 #
b1001 #
b1000 #
1%
#260964
0@
#260984
0>
#260985
1=
#260994
0?
#262500
1!
0%
#263485
1:
#267421
18
#267423
01
#267792
17
#267811
0-
#267902
16
#268125
1,
#268169
11
#268472
07
#269164
12
#270000
0!
1%
#270985
0:
#290000
b1001 #
0%
#290964
1@
#292500
1!
1%
#293485
1:
#297423
01
#297902
06
#298472
17
#300000
0!
0%
#300985
0:
#320000
b1011 #
b1010 #
1%
#320964
0@
#320994
1?
#322500
1!
0%
#323485
1:
#327423
11
#327902
16
#328125
0,
#328169
01
#328472
07
#329164
02
#330000
0!
1%
#330985
0:
#350000
b1011 #
0%
#350964
1@
#352500
1!
1%
#353485
1:
#357421
08
#357423
11
#357902
06
#358472
17
#360000
0!
0%
#360985
0:
#380000
b1111 #
b1101 #
b1100 #
1%
#380964
0@
#380984
1>
#380994
0?
#382500
1!
0%
#383485
1:
#387421
18
#387423
01
#387792
07
#387902
16
#388125
1,
#388169
11
#389164
12
#390000
0!
1%
#390985
0:
#410000
b1101 #
0%
#410964
1@
#412500
1!
1%
#413485
1:
#417423
01
#417902
06
#420000
0!
0%
#420985
0:
#440000
b1111 #
b1110 #
1%
#440964
0@
#440994
1?
#442500
1!
0%
#443485
1:
#447423
11
#447902
16
#448125
0,
#448169
01
#449164
02
#450000
0!
1%
#450985
0:
#470000
b1111 #
0%
#470964
1@
#472500
1!
1%
#473485
1:
#477421
08
#477423
11
#477902
06
#480000
0!
0%
#480985
0:
#500000
b11111 #
b10111 #
b10011 #
b10001 #
b10000 #
1%
#500964
0@
#500984
0>
#500985
1<
0=
#500994
0?
#502500
1!
0%
#503485
1:
#507423
01
#507792
17
#507811
1-
#507902
16
#508196
18
#508472
07
#510000
0!
1%
#510985
0:
#530000
b10001 #
0%
#530964
1@
#532500
1!
1%
#533485
1:
#537902
06
#538472
17
#540000
0!
0%
#540380
19
#540985
0:
#541076
1;
#545653
1$
#547880
09
#548576
0;
#553153
0$
#560000
b10011 #
b10010 #
1%
#560964
0@
#560994
1?
#562500
1!
0%
#563485
1:
#567902
16
#568196
08
#568472
07
#570000
0!
1%
#570985
0:
#590000
b10011 #
0%
#590964
1@
#592500
1!
1%
#593485
1:
#597421
18
#597423
11
#597902
06
#598472
17
#600000
0!
0%
#600380
19
#600985
0:
#601076
1;
#605653
1$
#607880
09
#608576
0;
#613153
0$
#620000
b10111 #
b10101 #
b10100 #
1%
#620964
0@
#620984
1>
#620994
0?
#622500
1!
0%
#623485
1:
#627421
08
#627423
01
#627792
07
#627902
16
#628045
1.
#628196
18
#629036
14
#630000
0!
1%
#630985
0:
#650000
b10101 #
0%
#650964
1@
#652500
1!
1%
#653485
1:
#657902
06
#658045
0.
#659036
04
#660000
0!
0%
#660985
0:
#680000
b10111 #
b10110 #
1%
#680964
0@
#680994
1?
#682500
1!
0%
#683485
1:
#687902
16
#688045
1.
#688196
08
#689036
14
#690000
0!
1%
#690985
0:
#710000
b10111 #
0%
#710964
1@
#712500
1!
1%
#713485
1:
#717421
18
#717423
11
#717902
06
#718045
0.
#719036
04
#720000
0!
0%
#720985
0:
#740000
b11111 #
b11011 #
b11001 #
b11000 #
1%
#740964
0@
#740984
0>
#740985
1=
#740994
0?
#742500
1!
0%
#743485
1:
#747421
08
#747423
01
#747792
17
#747811
0-
#747902
16
#748125
1,
#748169
11
#748196
18
#748472
07
#749164
12
#750000
0!
1%
#750985
0:
#770000
b11001 #
0%
#770964
1@
#772500
1!
1%
#773485
1:
#777423
01
#777902
06
#778472
17
#780000
0!
0%
#780985
0:
#800000
b11011 #
b11010 #
1%
#800964
0@
#800994
1?
#802500
1!
0%
#803485
1:
#807423
11
#807902
16
#808125
0,
#808169
01
#808196
08
#808472
07
#809164
02
#810000
0!
1%
#810985
0:
#830000
b11011 #
0%
#830964
1@
#832500
1!
1%
#833485
1:
#837421
18
#837423
11
#837902
06
#838472
17
#840000
0!
0%
#840985
0:
#860000
b11111 #
b11101 #
b11100 #
1%
#860964
0@
#860984
1>
#860994
0?
#862500
1!
0%
#863485
1:
#867421
08
#867423
01
#867792
07
#867902
16
#868125
1,
#868169
11
#868196
18
#869164
12
#870000
0!
1%
#870985
0:
#890000
b11101 #
0%
#890964
1@
#892500
1!
1%
#893485
1:
#897423
01
#897902
06
#900000
0!
0%
#900985
0:
#920000
b11111 #
b11110 #
1%
#920964
0@
#920994
1?
#922500
1!
0%
#923485
1:
#927423
11
#927902
16
#928125
0,
#928169
01
#928196
08
#929164
02
#930000
0!
1%
#930985
0:
#950000
b11111 #
0%
#950964
1@
#952500
1!
1%
#953485
1:
#957421
18
#957423
11
#957902
06
#960000
0!
0%
#960985
0:
#980000
b1111 #
b111 #
b11 #
b1 #
b0 #
1%
#980964
0@
#980984
0>
#980985
0<
0=
#980994
0?
#982500
1!
0%
#983485
1:
#987423
01
#987792
17
#987811
1-
#987902
16
#988472
07
#990000
0!
1%
#990985
0:
