course_var4.3/decoder/simulation/qsim/decoder.msim.vcd
$comment
	File created using the following command:
		vcd file decoder.msim.vcd -direction
$end
$date
	Mon May 26 10:07:35 2025
$end
$version
	ModelSim Version 10.1d
$end
$timescale
	1ps
$end
$scope module decoder_vlg_vec_tst $end
$var reg 1 ! Clock $end
$var reg 1 " Reset $end
$var reg 1 # Start $end
$var reg 1 $ Stop $end
$var wire 1 % Period $end
$var wire 1 & Q [9] $end
$var wire 1 ' Q [8] $end
$var wire 1 ( Q [7] $end
$var wire 1 ) Q [6] $end
$var wire 1 * Q [5] $end
$var wire 1 + Q [4] $end
$var wire 1 , Q [3] $end
$var wire 1 - Q [2] $end
$var wire 1 . Q [1] $end
$var wire 1 / Q [0] $end
$var wire 1 0 sampler $end
$scope module i1 $end
$var wire 1 1 gnd $end
$var wire 1 2 vcc $end
$var wire 1 3 unknown $end
$var tri1 1 4 devclrn $end
$var tri1 1 5 devpor $end
$var tri1 1 6 devoe $end
$var wire 1 7 Start~combout $end
$var wire 1 8 Clock~clkctrl_outclk $end
$var wire 1 9 inst|LPM_COUNTER_component|auto_generated|counter_comb_bita0~COUT $end
$var wire 1 : inst|LPM_COUNTER_component|auto_generated|counter_comb_bita1~combout $end
$var wire 1 ; ~GND~combout $end
$var wire 1 < Reset~combout $end
$var wire 1 = Reset~clkctrl_outclk $end
$var wire 1 > inst|LPM_COUNTER_component|auto_generated|counter_comb_bita2~COUT $end
$var wire 1 ? inst|LPM_COUNTER_component|auto_generated|counter_comb_bita3~COUT $end
$var wire 1 @ inst|LPM_COUNTER_component|auto_generated|counter_comb_bita4~combout $end
$var wire 1 A Stop~combout $end
$var wire 1 B inst|LPM_COUNTER_component|auto_generated|counter_comb_bita0~combout $end
$var wire 1 C inst18~2_combout $end
$var wire 1 D inst5~combout $end
$var wire 1 E inst|LPM_COUNTER_component|auto_generated|counter_comb_bita1~COUT $end
$var wire 1 F inst|LPM_COUNTER_component|auto_generated|counter_comb_bita2~combout $end
$var wire 1 G inst22~8_combout $end
$var wire 1 H inst2|LPM_DECODE_component|auto_generated|w_anode279w[3]~4_combout $end
$var wire 1 I inst|LPM_COUNTER_component|auto_generated|counter_comb_bita3~combout $end
$var wire 1 J Clock~combout $end
$var wire 1 K inst20~0_combout $end
$var wire 1 L inst24~3_combout $end
$var wire 1 M inst24~2_combout $end
$var wire 1 N inst23~0_combout $end
$var wire 1 O inst22~9_combout $end
$var wire 1 P inst22~10_combout $end
$var wire 1 Q inst19~0_combout $end
$var wire 1 R inst21~combout $end
$var wire 1 S inst20~combout $end
$var wire 1 T inst19~combout $end
$var wire 1 U inst18~4_combout $end
$var wire 1 V inst18~3_combout $end
$var wire 1 W inst15~0_combout $end
$var wire 1 X inst17~0_combout $end
$var wire 1 Y inst16~0_combout $end
$var wire 1 Z inst16~1_combout $end
$var wire 1 [ inst15~combout $end
$var wire 1 \ inst|LPM_COUNTER_component|auto_generated|safe_q [4] $end
$var wire 1 ] inst|LPM_COUNTER_component|auto_generated|safe_q [3] $end
$var wire 1 ^ inst|LPM_COUNTER_component|auto_generated|safe_q [2] $end
$var wire 1 _ inst|LPM_COUNTER_component|auto_generated|safe_q [1] $end
$var wire 1 ` inst|LPM_COUNTER_component|auto_generated|safe_q [0] $end
$upscope $end
$upscope $end
$enddefinitions $end
#0
$dumpvars
0!
0"
0#
1$
0%
0/
0.
0-
0,
0+
0*
0)
0(
0'
0&
x0
01
12
x3
14
15
16
07
08
09
0:
0;
0<
0=
0>
1?
0@
1A
1B
0C
1D
1E
0F
0G
0H
0I
0J
0K
0L
0M
0N
0O
0P
0Q
0R
0S
0T
0U
0V
0W
0X
0Y
0Z
0[
0`
0_
0^
0]
0\
$end
#9375
1!
1J
18
00
1Y
1W
1[
1/
#10000
1#
17
10
0D
#12500
0!
0J
08
00
0Y
0W
0[
0/
1`
19
0B
1:
#21875
1!
1J
18
10
1Y
1K
1Z
1.
#25000
0!
0J
08
00
0Y
0K
0Z
0.
0`
1_
09
1B
0E
0:
1E
1:
1F
0F
#34375
1!
1J
18
10
1W
1X
1-
#37500
0!
0J
08
00
0W
0X
0-
1`
19
0B
0E
0:
1F
#46875
1!
1J
18
10
1O
1K
1V
1,
#50000
0!
0J
08
00
0O
0K
0V
0,
0`
0_
1^
09
1B
1E
1:
1G
1>
0F
0:
0>
1F
1I
0I
#59375
1!
1J
18
10
1Y
1W
1Q
1T
1+
#62500
0!
0J
08
00
0Y
0W
0Q
0T
0+
1`
19
0B
1:
#71875
1!
1J
18
10
1Y
1K
1S
1*
#75000
0!
0J
08
00
0Y
0K
0S
0*
0`
1_
09
1B
0E
0:
1E
1:
1>
0F
0>
1F
1I
0I
#84375
1!
1J
18
10
1W
1Q
1R
1)
#87500
0!
0J
08
00
0W
0Q
0R
0)
1`
19
0B
0E
0:
1>
0F
1I
#96875
1!
1J
18
10
1O
1K
1P
1(
#100000
0!
0J
08
00
0O
0K
0P
0(
0`
0_
0^
1]
09
1B
1E
1:
1M
0G
0>
1F
0?
0I
0:
0F
1?
1I
1@
0@
#109375
1!
1J
18
10
1N
1'
#112500
0!
0J
08
00
0N
0'
1`
19
0B
1:
#121875
1!
1J
18
10
1K
1L
1&
#125000
0!
0J
08
00
0K
0L
0&
0`
1_
09
1B
0E
0:
1E
1:
1F
0F
#134375
1!
1J
18
10
1N
1'
#137500
0!
0J
08
00
0N
0'
1`
19
0B
0E
0:
1F
#146875
1!
1J
18
10
1O
1K
1P
1(
#150000
0!
0J
08
00
0O
0K
0P
0(
0`
0_
1^
09
1B
1E
1:
0M
1>
0F
0:
0>
1F
0?
0I
1?
1I
1@
0@
#159375
1!
1J
18
10
1Q
1R
1)
#162500
0!
0J
08
00
0Q
0R
0)
1`
19
0B
1:
#171875
1!
1J
18
10
1K
1S
1*
#175000
0!
0J
08
00
0K
0S
0*
0`
1_
09
1B
0E
0:
1E
1:
1>
0F
0>
1F
0?
0I
1?
1I
1@
0@
#184375
1!
1J
18
10
1Q
1T
1+
#187500
0!
0J
08
00
0Q
0T
0+
1`
19
0B
0E
0:
1>
0F
0?
0I
1@
#196875
1!
1J
18
10
1O
1K
1V
1,
#200000
0!
0J
08
00
0O
0K
0V
0,
1\
0`
0_
0^
0]
0@
09
1B
1E
1:
0>
1F
1?
1I
0:
0F
0I
1@
#209375
1!
1J
18
10
1Y
1W
1X
1-
#212500
0!
0J
08
00
0Y
0W
0X
0-
1`
1C
19
0B
1:
#221875
1!
1J
18
10
1Y
1U
1Z
1.
#225000
0!
0J
08
00
0Y
0U
0Z
0.
0`
1_
0C
09
1B
0E
0:
1E
1:
1F
0F
#234375
1!
1J
18
10
1Y
1W
1[
1/
#237500
0!
0J
08
00
0Y
0W
0[
0/
1`
1C
19
0B
0E
0:
1F
#246875
1!
1J
18
10
1Y
1Z
1.
#250000
0!
0J
08
00
0Y
0Z
0.
0`
0_
1^
0C
09
1B
1E
1:
1G
1>
0F
0:
0>
1F
1I
0I
#259375
1!
1J
18
10
1Y
1W
1X
1-
#262500
0!
0J
08
00
0Y
0W
0X
0-
1`
1C
19
0B
1:
#271875
1!
1J
18
10
1Y
1U
1V
1,
#275000
0!
0J
08
00
0Y
0U
0V
0,
0`
1_
0C
09
1B
1D
0E
0:
0D
1E
1:
1>
0F
0>
1F
1I
0I
#284375
1!
1J
18
10
1Y
1W
1X
1-
#287500
0!
0J
08
00
0Y
0W
0X
0-
1`
1H
1C
19
0B
1D
0E
0:
1%
1>
0F
1I
#296875
1!
1J
18
10
1Y
1Z
1.
#300000
0!
0J
08
00
0Y
0Z
0.
0\
0`
0_
0^
0H
0C
0@
09
1B
0D
1E
1:
0G
0>
1F
0:
0F
0I
0%
#309375
1!
1J
18
10
1Y
1W
1[
1/
#312500
0!
0J
08
00
0Y
0W
0[
0/
1`
19
0B
1:
#321875
1!
1J
18
10
1Y
1K
1Z
1.
#325000
0!
0J
08
00
0Y
0K
0Z
0.
0`
1_
09
1B
0E
0:
1E
1:
1F
0F
#334375
1!
1J
18
10
1W
1X
1-
#337500
0!
0J
08
00
0W
0X
0-
1`
19
0B
0E
0:
1F
#346875
1!
1J
18
10
1O
1K
1V
1,
#350000
0!
0J
08
00
0O
0K
0V
0,
0`
0_
1^
09
1B
1E
1:
1G
1>
0F
0:
0>
1F
1I
0I
#359375
1!
1J
18
10
1Y
1W
1Q
1T
1+
#362500
0!
0J
08
00
0Y
0W
0Q
0T
0+
1`
19
0B
1:
#371875
1!
1J
18
10
1Y
1K
1S
1*
#375000
0!
0J
08
00
0Y
0K
0S
0*
0`
1_
09
1B
0E
0:
1E
1:
1>
0F
0>
1F
1I
0I
#384375
1!
1J
18
10
1W
1Q
1R
1)
#387500
0!
0J
08
00
0W
0Q
0R
0)
1`
19
0B
0E
0:
1>
0F
1I
#396875
1!
1J
18
10
1O
1K
1P
1(
#400000
0!
0J
08
00
0O
0K
0P
0(
0`
0_
0^
1]
09
1B
1E
1:
1M
0G
0>
1F
0?
0I
0:
0F
1?
1I
1@
0@
#409375
1!
1J
18
10
1N
1'
#412500
0!
0J
08
00
0N
0'
1`
19
0B
1:
#421875
1!
1J
18
10
1K
1L
1&
#425000
0!
0J
08
00
0K
0L
0&
0`
1_
09
1B
0E
0:
1E
1:
1F
0F
#434375
1!
1J
18
10
1N
1'
#437500
0!
0J
08
00
0N
0'
1`
19
0B
0E
0:
1F
#446875
1!
1J
18
10
1O
1K
1P
1(
#450000
0!
0J
08
00
0O
0K
0P
0(
0`
0_
1^
09
1B
1E
1:
0M
1>
0F
0:
0>
1F
0?
0I
1?
1I
1@
0@
#459375
1!
1J
18
10
1Q
1R
1)
#462500
0!
0J
08
00
0Q
0R
0)
1`
19
0B
1:
#471875
1!
1J
18
10
1K
1S
1*
#475000
0!
0J
08
00
0K
0S
0*
0`
1_
09
1B
0E
0:
1E
1:
1>
0F
0>
1F
0?
0I
1?
1I
1@
0@
#484375
1!
1J
18
10
1Q
1T
1+
#487500
0!
0J
08
00
0Q
0T
0+
1`
19
0B
0E
0:
1>
0F
0?
0I
1@
#496875
1!
1J
18
10
1O
1K
1V
1,
#500000
0!
0J
08
00
0O
0K
0V
0,
1\
0`
0_
0^
0]
0@
09
1B
1E
1:
0>
1F
1?
1I
0:
0F
0I
1@
#509375
1!
1J
18
10
1Y
1W
1X
1-
#512500
0!
0J
08
00
0Y
0W
0X
0-
1`
1C
19
0B
1:
#521875
1!
1J
18
10
1Y
1U
1Z
1.
#525000
0!
0J
08
00
0Y
0U
0Z
0.
0`
1_
0C
09
1B
0E
0:
1E
1:
1F
0F
#534375
1!
1J
18
10
1Y
1W
1[
1/
#537500
0!
0J
08
00
0Y
0W
0[
0/
1`
1C
19
0B
0E
0:
1F
#546875
1!
1J
18
10
1Y
1Z
1.
#550000
0!
0J
08
00
0Y
0Z
0.
0`
0_
1^
0C
09
1B
1E
1:
1G
1>
0F
0:
0>
1F
1I
0I
#559375
1!
1J
18
10
1Y
1W
1X
1-
#562500
0!
0J
08
00
0Y
0W
0X
0-
1`
1C
19
0B
1:
#571875
1!
1J
18
10
1Y
1U
1V
1,
#575000
0!
0J
08
00
0Y
0U
0V
0,
0`
1_
0C
09
1B
1D
0E
0:
0D
1E
1:
1>
0F
0>
1F
1I
0I
#584375
1!
1J
18
10
1Y
1W
1X
1-
#587500
0!
0J
08
00
0Y
0W
0X
0-
1`
1H
1C
19
0B
1D
0E
0:
1%
1>
0F
1I
#596875
1!
1J
18
10
1Y
1Z
1.
#600000
0!
0J
08
00
0Y
0Z
0.
0\
0`
0_
0^
0H
0C
0@
09
1B
0D
1E
1:
0G
0>
1F
0:
0F
0I
0%
#609375
1!
1J
18
10
1Y
1W
1[
1/
#610000
0$
0A
00
#612500
0!
0J
08
10
0Y
0W
0[
0/
#621875
1!
1J
18
00
1Y
1W
1[
1/
#625000
0!
0J
08
10
0Y
0W
0[
0/
#634375
1!
1J
18
00
1Y
1W
1[
1/
#637500
0!
0J
08
10
0Y
0W
0[
0/
#646875
1!
1J
18
00
1Y
1W
1[
1/
#650000
0!
0J
08
10
0Y
0W
0[
0/
#659375
1!
1J
18
00
1Y
1W
1[
1/
#662500
0!
0J
08
10
0Y
0W
0[
0/
#671875
1!
1J
18
00
1Y
1W
1[
1/
#675000
0!
0J
08
10
0Y
0W
0[
0/
#684375
1!
1J
18
00
1Y
1W
1[
1/
#687500
0!
0J
08
10
0Y
0W
0[
0/
#696875
1!
1J
18
00
1Y
1W
1[
1/
#700000
0!
0J
08
10
0Y
0W
0[
0/
#709375
1!
1J
18
00
1Y
1W
1[
1/
#712500
0!
0J
08
10
0Y
0W
0[
0/
#721875
1!
1J
18
00
1Y
1W
1[
1/
#725000
0!
0J
08
10
0Y
0W
0[
0/
#734375
1!
1J
18
00
1Y
1W
1[
1/
#737500
0!
0J
08
10
0Y
0W
0[
0/
#746875
1!
1J
18
00
1Y
1W
1[
1/
#750000
0!
0J
08
10
0Y
0W
0[
0/
#759375
1!
1J
18
00
1Y
1W
1[
1/
#762500
0!
0J
08
10
0Y
0W
0[
0/
#771875
1!
1J
18
00
1Y
1W
1[
1/
#775000
0!
0J
08
10
0Y
0W
0[
0/
#784375
1!
1J
18
00
1Y
1W
1[
1/
#787500
0!
0J
08
10
0Y
0W
0[
0/
#796875
1!
1J
18
00
1Y
1W
1[
1/
#800000
0!
0J
08
10
0Y
0W
0[
0/
#809375
1!
1J
18
00
1Y
1W
1[
1/
#812500
0!
0J
08
10
0Y
0W
0[
0/
#821875
1!
1J
18
00
1Y
1W
1[
1/
#825000
0!
0J
08
10
0Y
0W
0[
0/
#834375
1!
1J
18
00
1Y
1W
1[
1/
#837500
0!
0J
08
10
0Y
0W
0[
0/
#846875
1!
1J
18
00
1Y
1W
1[
1/
#850000
0!
0J
08
10
0Y
0W
0[
0/
#859375
1!
1J
18
00
1Y
1W
1[
1/
#862500
0!
0J
08
10
0Y
0W
0[
0/
#871875
1!
1J
18
00
1Y
1W
1[
1/
#875000
0!
0J
08
10
0Y
0W
0[
0/
#884375
1!
1J
18
00
1Y
1W
1[
1/
#887500
0!
0J
08
10
0Y
0W
0[
0/
#896875
1!
1J
18
00
1Y
1W
1[
1/
#900000
0!
0J
08
10
0Y
0W
0[
0/
#909375
1!
1J
18
00
1Y
1W
1[
1/
#912500
0!
0J
08
10
0Y
0W
0[
0/
#921875
1!
1J
18
00
1Y
1W
1[
1/
#925000
0!
0J
08
10
0Y
0W
0[
0/
#934375
1!
1J
18
00
1Y
1W
1[
1/
#937500
0!
0J
08
10
0Y
0W
0[
0/
#946875
1!
1J
18
00
1Y
1W
1[
1/
#950000
0!
0J
08
10
0Y
0W
0[
0/
#959375
1!
1J
18
00
1Y
1W
1[
1/
#962500
0!
0J
08
10
0Y
0W
0[
0/
#971875
1!
1J
18
00
1Y
1W
1[
1/
#975000
0!
0J
08
10
0Y
0W
0[
0/
#984375
1!
1J
18
00
1Y
1W
1[
1/
#987500
0!
0J
08
10
0Y
0W
0[
0/
#996875
1!
1J
18
00
1Y
1W
1[
1/
