course_var1.2/count_cycle/simulation/qsim/count_cycle.msim.vcd
$comment
	File created using the following command:
		vcd file count_cycle.msim.vcd -direction
$end
$date
	Mon May 12 20:28:46 2025
$end
$version
	ModelSim Version 10.1d
$end
$timescale
	1ps
$end
$scope module count_cycle_vlg_vec_tst $end
$var reg 1 ! C $end
$var reg 1 " R $end
$var reg 1 # Start $end
$var wire 1 $ q [4] $end
$var wire 1 % q [3] $end
$var wire 1 & q [2] $end
$var wire 1 ' q [1] $end
$var wire 1 ( q [0] $end
$var wire 1 ) Ready $end
$var wire 1 * sampler $end
$scope module i1 $end
$var wire 1 + gnd $end
$var wire 1 , vcc $end
$var wire 1 - unknown $end
$var tri1 1 . devclrn $end
$var tri1 1 / devpor $end
$var tri1 1 0 devoe $end
$var wire 1 1 inst3|LPM_COUNTER_component|auto_generated|counter_comb_bita0~combout $end
$var wire 1 2 ~GND~combout $end
$var wire 1 3 R~combout $end
$var wire 1 4 R~clkctrl_outclk $end
$var wire 1 5 Start~combout $end
$var wire 1 6 inst4~combout $end
$var wire 1 7 inst3|LPM_COUNTER_component|auto_generated|counter_comb_bita0~COUT $end
$var wire 1 8 inst3|LPM_COUNTER_component|auto_generated|counter_comb_bita1~combout $end
$var wire 1 9 inst3|LPM_COUNTER_component|auto_generated|counter_comb_bita1~COUT $end
$var wire 1 : inst3|LPM_COUNTER_component|auto_generated|counter_comb_bita2~COUT $end
$var wire 1 ; inst3|LPM_COUNTER_component|auto_generated|counter_comb_bita3~combout $end
$var wire 1 < inst3|LPM_COUNTER_component|auto_generated|counter_comb_bita2~combout $end
$var wire 1 = inst~0_combout $end
$var wire 1 > inst~combout $end
$var wire 1 ? C~combout $end
$var wire 1 @ C~clkctrl_outclk $end
$var wire 1 A inst3|LPM_COUNTER_component|auto_generated|counter_comb_bita3~COUT $end
$var wire 1 B inst3|LPM_COUNTER_component|auto_generated|counter_comb_bita4~combout $end
$var wire 1 C inst3|LPM_COUNTER_component|auto_generated|safe_q [4] $end
$var wire 1 D inst3|LPM_COUNTER_component|auto_generated|safe_q [3] $end
$var wire 1 E inst3|LPM_COUNTER_component|auto_generated|safe_q [2] $end
$var wire 1 F inst3|LPM_COUNTER_component|auto_generated|safe_q [1] $end
$var wire 1 G inst3|LPM_COUNTER_component|auto_generated|safe_q [0] $end
$upscope $end
$upscope $end
$enddefinitions $end
#0
$dumpvars
0!
0"
1#
0(
0'
0&
0%
0$
0)
x*
0+
1,
x-
1.
1/
10
11
02
03
04
15
16
07
08
19
0:
0;
0<
1=
1>
0?
0@
1A
0B
0G
0F
0E
0D
0C
$end
#5000
1!
1?
1@
0*
#10000
0#
0!
05
0?
0@
1*
06
#15000
1!
1?
1@
0*
1G
17
01
1(
18
#20000
0!
0?
0@
1*
#25000
1!
1?
1@
0*
1F
0G
09
08
07
11
1'
0(
1<
19
18
0<
#30000
0!
0?
0@
1*
#35000
1!
1?
1@
0*
1G
17
01
1(
09
08
1<
#40000
0!
0?
0@
1*
#45000
1!
1?
1@
0*
1E
0F
0G
1:
0<
19
18
07
11
1&
0'
0(
1;
0:
1<
08
0;
#50000
0!
0?
0@
1*
#55000
1!
1?
1@
0*
1G
17
01
1(
18
#60000
0!
0?
0@
1*
#65000
1!
1?
1@
0*
1F
0G
09
08
07
11
1'
0(
1:
0<
19
18
1;
0:
1<
0;
#70000
0!
0?
0@
1*
#75000
1!
1?
1@
0*
1G
17
01
1(
09
08
1:
0<
1;
#80000
0!
0?
0@
1*
#85000
1!
1?
1@
0*
0E
1D
0F
0G
0:
1<
0A
0;
19
18
07
11
0&
1%
0'
0(
1A
1;
1B
0<
08
0B
#90000
0!
0?
0@
1*
#95000
1!
1?
1@
0*
1G
17
01
1(
18
#100000
0!
0?
0@
1*
#105000
1!
1?
1@
0*
1F
0G
09
08
07
11
1'
0(
1<
19
18
0<
#110000
0!
0?
0@
1*
#115000
1!
1?
1@
0*
1G
17
01
1(
09
08
1<
#120000
0!
0?
0@
1*
#125000
1!
1?
1@
0*
1E
0F
0G
1:
0<
19
18
07
11
1&
0'
0(
0A
0;
0:
1<
08
1B
1A
1;
0B
#130000
0!
0?
0@
1*
#135000
1!
1?
1@
0*
1G
17
01
1(
18
#140000
0!
0?
0@
1*
#145000
1!
1?
1@
0*
1F
0G
09
08
07
11
1'
0(
1:
0<
19
18
0A
0;
0:
1<
1B
1A
1;
0B
#150000
0!
0?
0@
1*
#155000
1!
1?
1@
0*
1G
17
01
1(
09
08
1:
0<
0A
0;
1B
#160000
0!
0?
0@
1*
#165000
1!
1?
1@
0*
1C
0E
0D
0F
0G
0B
0:
1<
1A
1;
19
18
07
11
1$
0&
0%
0'
0(
0;
1B
0<
08
#170000
0!
0?
0@
1*
#175000
1!
1?
1@
0*
1G
17
01
1(
18
#180000
0!
0?
0@
1*
#185000
1!
1?
1@
0*
1F
0G
09
08
07
11
1'
0(
1<
19
18
0<
#190000
0!
0?
0@
1*
#195000
1!
1?
1@
0*
1G
17
01
1(
09
08
1<
#200000
0!
0?
0@
1*
#205000
1!
1?
1@
0*
1E
0F
0G
0=
1:
0<
19
18
07
11
1&
0'
0(
0>
16
1;
0:
1<
08
0;
1)
#210000
0!
0?
0@
1*
#215000
1!
1?
1@
0*
0C
0E
0B
1=
0<
0$
0&
1>
06
0)
#220000
0!
0?
0@
1*
#225000
1!
1?
1@
0*
1G
17
01
1(
18
#230000
0!
0?
0@
1*
#235000
1!
1?
1@
0*
1F
0G
09
08
07
11
1'
0(
1<
19
18
0<
#240000
0!
0?
0@
1*
#245000
1!
1?
1@
0*
1G
17
01
1(
09
08
1<
#250000
0!
0?
0@
1*
#255000
1!
1?
1@
0*
1E
0F
0G
1:
0<
19
18
07
11
1&
0'
0(
1;
0:
1<
08
0;
#260000
0!
0?
0@
1*
#265000
1!
1?
1@
0*
1G
17
01
1(
18
#270000
0!
0?
0@
1*
#275000
1!
1?
1@
0*
1F
0G
09
08
07
11
1'
0(
1:
0<
19
18
1;
0:
1<
0;
#280000
0!
0?
0@
1*
#285000
1!
1?
1@
0*
1G
17
01
1(
09
08
1:
0<
1;
#290000
0!
0?
0@
1*
#295000
1!
1?
1@
0*
0E
1D
0F
0G
0:
1<
0A
0;
19
18
07
11
0&
1%
0'
0(
1A
1;
1B
0<
08
0B
#300000
0!
0?
0@
1*
#305000
1!
1?
1@
0*
1G
17
01
1(
18
#310000
0!
0?
0@
1*
#315000
1!
1?
1@
0*
1F
0G
09
08
07
11
1'
0(
1<
19
18
0<
#320000
0!
0?
0@
1*
#325000
1!
1?
1@
0*
1G
17
01
1(
09
08
1<
#330000
0!
0?
0@
1*
#335000
1!
1?
1@
0*
1E
0F
0G
1:
0<
19
18
07
11
1&
0'
0(
0A
0;
0:
1<
08
1B
1A
1;
0B
#340000
0!
0?
0@
1*
#345000
1!
1?
1@
0*
1G
17
01
1(
18
#350000
0!
0?
0@
1*
#355000
1!
1?
1@
0*
1F
0G
09
08
07
11
1'
0(
1:
0<
19
18
0A
0;
0:
1<
1B
1A
1;
0B
#360000
0!
0?
0@
1*
#365000
1!
1?
1@
0*
1G
17
01
1(
09
08
1:
0<
0A
0;
1B
#370000
0!
0?
0@
1*
#375000
1!
1?
1@
0*
1C
0E
0D
0F
0G
0B
0:
1<
1A
1;
19
18
07
11
1$
0&
0%
0'
0(
0;
1B
0<
08
#380000
0!
0?
0@
1*
#385000
1!
1?
1@
0*
1G
17
01
1(
18
#390000
0!
0?
0@
1*
#395000
1!
1?
1@
0*
1F
0G
09
08
07
11
1'
0(
1<
19
18
0<
#400000
0!
0?
0@
1*
#405000
1!
1?
1@
0*
1G
17
01
1(
09
08
1<
#410000
0!
0?
0@
1*
#415000
1!
1?
1@
0*
1E
0F
0G
0=
1:
0<
19
18
07
11
1&
0'
0(
0>
16
1;
0:
1<
08
0;
1)
#420000
0!
0?
0@
1*
#425000
1!
1?
1@
0*
0C
0E
0B
1=
0<
0$
0&
1>
06
0)
#430000
0!
0?
0@
1*
#435000
1!
1?
1@
0*
1G
17
01
1(
18
#440000
0!
0?
0@
1*
#445000
1!
1?
1@
0*
1F
0G
09
08
07
11
1'
0(
1<
19
18
0<
#450000
0!
0?
0@
1*
#455000
1!
1?
1@
0*
1G
17
01
1(
09
08
1<
#460000
0!
0?
0@
1*
#465000
1!
1?
1@
0*
1E
0F
0G
1:
0<
19
18
07
11
1&
0'
0(
1;
0:
1<
08
0;
#470000
0!
0?
0@
1*
#475000
1!
1?
1@
0*
1G
17
01
1(
18
#480000
0!
0?
0@
1*
#485000
1!
1?
1@
0*
1F
0G
09
08
07
11
1'
0(
1:
0<
19
18
1;
0:
1<
0;
#490000
0!
0?
0@
1*
#495000
1!
1?
1@
0*
1G
17
01
1(
09
08
1:
0<
1;
#500000
0!
0?
0@
1*
#505000
1!
1?
1@
0*
0E
1D
0F
0G
0:
1<
0A
0;
19
18
07
11
0&
1%
0'
0(
1A
1;
1B
0<
08
0B
#510000
0!
0?
0@
1*
#515000
1!
1?
1@
0*
1G
17
01
1(
18
#520000
0!
0?
0@
1*
#525000
1!
1?
1@
0*
1F
0G
09
08
07
11
1'
0(
1<
19
18
0<
#530000
0!
0?
0@
1*
#535000
1!
1?
1@
0*
1G
17
01
1(
09
08
1<
#540000
0!
0?
0@
1*
#545000
1!
1?
1@
0*
1E
0F
0G
1:
0<
19
18
07
11
1&
0'
0(
0A
0;
0:
1<
08
1B
1A
1;
0B
#550000
0!
0?
0@
1*
#555000
1!
1?
1@
0*
1G
17
01
1(
18
#560000
0!
0?
0@
1*
#565000
1!
1?
1@
0*
1F
0G
09
08
07
11
1'
0(
1:
0<
19
18
0A
0;
0:
1<
1B
1A
1;
0B
#570000
0!
0?
0@
1*
#575000
1!
1?
1@
0*
1G
17
01
1(
09
08
1:
0<
0A
0;
1B
#580000
0!
0?
0@
1*
#585000
1!
1?
1@
0*
1C
0E
0D
0F
0G
0B
0:
1<
1A
1;
19
18
07
11
1$
0&
0%
0'
0(
0;
1B
0<
08
#590000
0!
0?
0@
1*
#595000
1!
1?
1@
0*
1G
17
01
1(
18
#600000
0!
0?
0@
1*
#605000
1!
1?
1@
0*
1F
0G
09
08
07
11
1'
0(
1<
19
18
0<
#610000
0!
0?
0@
1*
#615000
1!
1?
1@
0*
1G
17
01
1(
09
08
1<
#620000
0!
0?
0@
1*
#625000
1!
1?
1@
0*
1E
0F
0G
0=
1:
0<
19
18
07
11
1&
0'
0(
0>
16
1;
0:
1<
08
0;
1)
#630000
0!
0?
0@
1*
#635000
1!
1?
1@
0*
0C
0E
0B
1=
0<
0$
0&
1>
06
0)
#640000
0!
0?
0@
1*
#645000
1!
1?
1@
0*
1G
17
01
1(
18
#650000
0!
0?
0@
1*
#655000
1!
1?
1@
0*
1F
0G
09
08
07
11
1'
0(
1<
19
18
0<
#660000
0!
0?
0@
1*
#665000
1!
1?
1@
0*
1G
17
01
1(
09
08
1<
#670000
0!
0?
0@
1*
#675000
1!
1?
1@
0*
1E
0F
0G
1:
0<
19
18
07
11
1&
0'
0(
1;
0:
1<
08
0;
#680000
0!
0?
0@
1*
#685000
1!
1?
1@
0*
1G
17
01
1(
18
#690000
0!
0?
0@
1*
#695000
1!
1?
1@
0*
1F
0G
09
08
07
11
1'
0(
1:
0<
19
18
1;
0:
1<
0;
#700000
0!
0?
0@
1*
#705000
1!
1?
1@
0*
1G
17
01
1(
09
08
1:
0<
1;
#710000
0!
0?
0@
1*
#715000
1!
1?
1@
0*
0E
1D
0F
0G
0:
1<
0A
0;
19
18
07
11
0&
1%
0'
0(
1A
1;
1B
0<
08
0B
#720000
0!
0?
0@
1*
#725000
1!
1?
1@
0*
1G
17
01
1(
18
#730000
0!
0?
0@
1*
#735000
1!
1?
1@
0*
1F
0G
09
08
07
11
1'
0(
1<
19
18
0<
#740000
0!
0?
0@
1*
#745000
1!
1?
1@
0*
1G
17
01
1(
09
08
1<
#750000
0!
0?
0@
1*
#755000
1!
1?
1@
0*
1E
0F
0G
1:
0<
19
18
07
11
1&
0'
0(
0A
0;
0:
1<
08
1B
1A
1;
0B
#760000
0!
0?
0@
1*
#765000
1!
1?
1@
0*
1G
17
01
1(
18
#770000
0!
0?
0@
1*
#775000
1!
1?
1@
0*
1F
0G
09
08
07
11
1'
0(
1:
0<
19
18
0A
0;
0:
1<
1B
1A
1;
0B
#780000
0!
0?
0@
1*
#785000
1!
1?
1@
0*
1G
17
01
1(
09
08
1:
0<
0A
0;
1B
#790000
0!
0?
0@
1*
#795000
1!
1?
1@
0*
1C
0E
0D
0F
0G
0B
0:
1<
1A
1;
19
18
07
11
1$
0&
0%
0'
0(
0;
1B
0<
08
#800000
0!
0?
0@
1*
#805000
1!
1?
1@
0*
1G
17
01
1(
18
#810000
0!
0?
0@
1*
#815000
1!
1?
1@
0*
1F
0G
09
08
07
11
1'
0(
1<
19
18
0<
#820000
0!
0?
0@
1*
#825000
1!
1?
1@
0*
1G
17
01
1(
09
08
1<
#830000
0!
0?
0@
1*
#835000
1!
1?
1@
0*
1E
0F
0G
0=
1:
0<
19
18
07
11
1&
0'
0(
0>
16
1;
0:
1<
08
0;
1)
#840000
0!
0?
0@
1*
#845000
1!
1?
1@
0*
0C
0E
0B
1=
0<
0$
0&
1>
06
0)
#850000
0!
0?
0@
1*
#855000
1!
1?
1@
0*
1G
17
01
1(
18
#860000
0!
0?
0@
1*
#865000
1!
1?
1@
0*
1F
0G
09
08
07
11
1'
0(
1<
19
18
0<
#870000
0!
0?
0@
1*
#875000
1!
1?
1@
0*
1G
17
01
1(
09
08
1<
#880000
0!
0?
0@
1*
#885000
1!
1?
1@
0*
1E
0F
0G
1:
0<
19
18
07
11
1&
0'
0(
1;
0:
1<
08
0;
#890000
0!
0?
0@
1*
#895000
1!
1?
1@
0*
1G
17
01
1(
18
#900000
0!
0?
0@
1*
#905000
1!
1?
1@
0*
1F
0G
09
08
07
11
1'
0(
1:
0<
19
18
1;
0:
1<
0;
#910000
0!
0?
0@
1*
#915000
1!
1?
1@
0*
1G
17
01
1(
09
08
1:
0<
1;
#920000
0!
0?
0@
1*
#925000
1!
1?
1@
0*
0E
1D
0F
0G
0:
1<
0A
0;
19
18
07
11
0&
1%
0'
0(
1A
1;
1B
0<
08
0B
#930000
0!
0?
0@
1*
#935000
1!
1?
1@
0*
1G
17
01
1(
18
#940000
0!
0?
0@
1*
#945000
1!
1?
1@
0*
1F
0G
09
08
07
11
1'
0(
1<
19
18
0<
#950000
0!
0?
0@
1*
#955000
1!
1?
1@
0*
1G
17
01
1(
09
08
1<
#960000
0!
0?
0@
1*
#965000
1!
1?
1@
0*
1E
0F
0G
1:
0<
19
18
07
11
1&
0'
0(
0A
0;
0:
1<
08
1B
1A
1;
0B
#970000
0!
0?
0@
1*
#975000
1!
1?
1@
0*
1G
17
01
1(
18
#980000
0!
0?
0@
1*
#985000
1!
1?
1@
0*
1F
0G
09
08
07
11
1'
0(
1:
0<
19
18
0A
0;
0:
1<
1B
1A
1;
0B
#990000
0!
0?
0@
1*
#995000
1!
1?
1@
0*
1G
17
01
1(
09
08
1:
0<
0A
0;
1B
