course_var3.4/shift_rg/simulation/qsim/shift_rg.msim.vcd
$comment
	File created using the following command:
		vcd file shift_rg.msim.vcd -direction
$end
$date
	Fri Apr 18 15:33:41 2025
$end
$version
	ModelSim Version 10.1d
$end
$timescale
	1ps
$end
$scope module shift_rg_vlg_vec_tst $end
$var reg 1 ! C $end
$var reg 1 " ENA $end
$var reg 1 # RESET $end
$var wire 1 $ q [19] $end
$var wire 1 % q [18] $end
$var wire 1 & q [17] $end
$var wire 1 ' q [16] $end
$var wire 1 ( q [15] $end
$var wire 1 ) q [14] $end
$var wire 1 * q [13] $end
$var wire 1 + q [12] $end
$var wire 1 , q [11] $end
$var wire 1 - q [10] $end
$var wire 1 . q [9] $end
$var wire 1 / q [8] $end
$var wire 1 0 q [7] $end
$var wire 1 1 q [6] $end
$var wire 1 2 q [5] $end
$var wire 1 3 q [4] $end
$var wire 1 4 q [3] $end
$var wire 1 5 q [2] $end
$var wire 1 6 q [1] $end
$var wire 1 7 q [0] $end
$var wire 1 8 sampler $end
$scope module i1 $end
$var wire 1 9 gnd $end
$var wire 1 : vcc $end
$var wire 1 ; unknown $end
$var tri1 1 < devclrn $end
$var tri1 1 = devpor $end
$var tri1 1 > devoe $end
$var wire 1 ? inst1~2_combout $end
$var wire 1 @ C~combout $end
$var wire 1 A C~clkctrl_outclk $end
$var wire 1 B inst1~0_combout $end
$var wire 1 C inst1~4_combout $end
$var wire 1 D inst1~1_combout $end
$var wire 1 E inst1~3_combout $end
$var wire 1 F inst1~5_combout $end
$var wire 1 G inst1~6_combout $end
$var wire 1 H RESET~combout $end
$var wire 1 I RESET~clkctrl_outclk $end
$var wire 1 J ENA~combout $end
$var wire 1 K inst~regout $end
$var wire 1 L inst3~feeder_combout $end
$var wire 1 M inst3~regout $end
$var wire 1 N inst4~regout $end
$var wire 1 O inst5~feeder_combout $end
$var wire 1 P inst5~regout $end
$var wire 1 Q inst6~regout $end
$var wire 1 R inst7~feeder_combout $end
$var wire 1 S inst7~regout $end
$var wire 1 T inst8~regout $end
$var wire 1 U inst9~regout $end
$var wire 1 V inst10~regout $end
$var wire 1 W inst11~regout $end
$var wire 1 X inst12~feeder_combout $end
$var wire 1 Y inst12~regout $end
$var wire 1 Z inst13~regout $end
$var wire 1 [ inst14~regout $end
$var wire 1 \ inst15~regout $end
$var wire 1 ] inst16~regout $end
$var wire 1 ^ inst17~regout $end
$var wire 1 _ inst18~feeder_combout $end
$var wire 1 ` inst18~regout $end
$var wire 1 a inst19~feeder_combout $end
$var wire 1 b inst19~regout $end
$var wire 1 c inst20~feeder_combout $end
$var wire 1 d inst20~regout $end
$var wire 1 e inst21~regout $end
$upscope $end
$upscope $end
$enddefinitions $end
#0
$dumpvars
0!
1"
0#
0.
0-
0,
0+
0*
0)
0(
0'
0&
0%
0$
x8
09
1:
x;
1<
1=
1>
1?
0@
0A
1B
1C
1D
1E
1F
1G
0H
0I
1J
0K
0L
0M
0N
0O
0P
0Q
0R
0S
0T
0U
0V
0W
0X
0Y
0Z
0[
0\
0]
0^
0_
0`
0a
0b
0c
0d
0e
07
06
05
04
03
02
01
00
0/
$end
#10000
1!
1@
1A
08
1K
1L
0D
17
0F
0G
#20000
0!
0@
0A
18
#30000
1!
1@
1A
08
1M
0K
0?
0L
1D
16
07
#40000
0!
0@
0A
18
#50000
1!
1@
1A
08
1N
0M
1O
15
06
#60000
0!
0@
0A
18
#70000
1!
1@
1A
08
1P
0N
0O
14
05
#80000
0!
0@
0A
18
#90000
1!
1@
1A
08
1Q
0P
1R
0D
1?
13
04
#100000
0!
0@
0A
18
#110000
1!
1@
1A
08
1S
0Q
0E
0R
1D
12
03
#120000
0!
0@
0A
18
#130000
1!
1@
1A
08
1T
0S
11
02
#140000
0!
0@
0A
18
#150000
1!
1@
1A
08
1U
0T
10
01
#160000
0!
0@
0A
18
#170000
1!
1@
1A
08
1V
0U
0?
1E
1/
00
#180000
0!
0@
0A
18
#190000
1!
1@
1A
08
1W
0V
1X
0D
1?
1.
0/
#200000
0!
0@
0A
18
#210000
1!
1@
1A
08
1Y
0W
0E
0X
1D
1-
0.
#220000
0!
0@
0A
18
#230000
1!
1@
1A
08
1Z
0Y
0C
1E
1,
0-
#240000
0!
0@
0A
18
#250000
1!
1@
1A
08
1[
0Z
1+
0,
#260000
0!
0@
0A
18
#270000
1!
1@
1A
08
1\
0[
1*
0+
#280000
0!
0@
0A
18
#290000
1!
1@
1A
08
1]
0\
0D
1C
1)
0*
#300000
0!
0@
0A
18
#310000
1!
1@
1A
08
1^
0]
1_
0B
1D
1(
0)
1F
#320000
0!
0@
0A
18
#330000
1!
1@
1A
08
1`
0^
1a
0_
1'
0(
#340000
0!
0@
0A
18
#350000
1!
1@
1A
08
1b
0`
1c
0a
1&
0'
#360000
0!
0@
0A
18
#370000
1!
1@
1A
08
1d
0b
0C
0c
1B
1%
0&
0F
1G
0G
#380000
0!
0@
0A
18
#390000
1!
1@
1A
08
1e
0d
1G
1C
1$
0%
1F
#400000
0!
0@
0A
18
#410000
1!
1@
1A
08
0e
1K
1L
0D
0$
17
0F
0G
#420000
0!
0@
0A
18
#430000
1!
1@
1A
08
1M
0K
0?
0L
1D
16
07
#440000
0!
0@
0A
18
#450000
1!
1@
1A
08
1N
0M
1O
15
06
#460000
0!
0@
0A
18
#470000
1!
1@
1A
08
1P
0N
0O
14
05
#480000
0!
0@
0A
18
#490000
1!
1@
1A
08
1Q
0P
1R
0D
1?
13
04
#500000
0!
0@
0A
18
#510000
1!
1@
1A
08
1S
0Q
0E
0R
1D
12
03
#520000
0!
0@
0A
18
#530000
1!
1@
1A
08
1T
0S
11
02
#540000
0!
0@
0A
18
#550000
1!
1@
1A
08
1U
0T
10
01
#560000
0!
0@
0A
18
#570000
1!
1@
1A
08
1V
0U
0?
1E
1/
00
#580000
0!
0@
0A
18
#590000
1!
1@
1A
08
1W
0V
1X
0D
1?
1.
0/
#600000
0!
0@
0A
18
#610000
1!
1@
1A
08
1Y
0W
0E
0X
1D
1-
0.
#620000
0!
0@
0A
18
#630000
1!
1@
1A
08
1Z
0Y
0C
1E
1,
0-
#640000
0!
0@
0A
18
#650000
1!
1@
1A
08
1[
0Z
1+
0,
#660000
0!
0@
0A
18
#670000
1!
1@
1A
08
1\
0[
1*
0+
#680000
0!
0@
0A
18
#690000
1!
1@
1A
08
1]
0\
0D
1C
1)
0*
#700000
0!
0@
0A
18
#710000
1!
1@
1A
08
1^
0]
1_
0B
1D
1(
0)
1F
#720000
0!
0@
0A
18
#730000
1!
1@
1A
08
1`
0^
1a
0_
1'
0(
#740000
0!
0@
0A
18
#750000
1!
1@
1A
08
1b
0`
1c
0a
1&
0'
#760000
0!
0@
0A
18
#770000
1!
1@
1A
08
1d
0b
0C
0c
1B
1%
0&
0F
1G
0G
#780000
0!
0@
0A
18
#790000
1!
1@
1A
08
1e
0d
1G
1C
1$
0%
1F
#800000
0!
0@
0A
18
#810000
1!
1@
1A
08
0e
1K
1L
0D
0$
17
0F
0G
#820000
0!
0@
0A
18
#830000
1!
1@
1A
08
1M
0K
0?
0L
1D
16
07
#840000
0!
0@
0A
18
#850000
1!
1@
1A
08
1N
0M
1O
15
06
#860000
0!
0@
0A
18
#870000
1!
1@
1A
08
1P
0N
0O
14
05
#880000
0!
0@
0A
18
#890000
1!
1@
1A
08
1Q
0P
1R
0D
1?
13
04
#900000
0!
0@
0A
18
#910000
1!
1@
1A
08
1S
0Q
0E
0R
1D
12
03
#920000
0!
0@
0A
18
#930000
1!
1@
1A
08
1T
0S
11
02
#940000
0!
0@
0A
18
#950000
1!
1@
1A
08
1U
0T
10
01
#960000
0!
0@
0A
18
#970000
1!
1@
1A
08
1V
0U
0?
1E
1/
00
#980000
0!
0@
0A
18
#990000
1!
1@
1A
08
1W
0V
1X
0D
1?
1.
0/
