course_var3.4/2var/scheme/simulation/qsim/scheme2.msim.vcd
$comment
	File created using the following command:
		vcd file scheme2.msim.vcd -direction
$end
$date
	Fri Jun 06 00:13:55 2025
$end
$version
	ModelSim Version 10.1d
$end
$timescale
	1ps
$end
$scope module scheme2_vlg_vec_tst $end
$var reg 1 ! Clock $end
$var reg 1 " Reset $end
$var reg 1 # Start $end
$var reg 1 $ Stop $end
$var wire 1 % z [2] $end
$var wire 1 & z [1] $end
$var wire 1 ' z [0] $end
$var wire 1 ( sampler $end
$scope module i1 $end
$var wire 1 ) gnd $end
$var wire 1 * vcc $end
$var wire 1 + unknown $end
$var tri1 1 , devclrn $end
$var tri1 1 - devpor $end
$var tri1 1 . devoe $end
$var wire 1 / Clock~combout $end
$var wire 1 0 Clock~clkctrl_outclk $end
$var wire 1 1 inst3|inst1|dffs[4]~feeder_combout $end
$var wire 1 2 Reset~combout $end
$var wire 1 3 Reset~clkctrl_outclk $end
$var wire 1 4 Start~combout $end
$var wire 1 5 Stop~combout $end
$var wire 1 6 inst11~0_combout $end
$var wire 1 7 inst11~regout $end
$var wire 1 8 inst3|inst1|dffs[0]~0_combout $end
$var wire 1 9 inst3|inst1|dffs[1]~feeder_combout $end
$var wire 1 : inst3|inst1|dffs[2]~feeder_combout $end
$var wire 1 ; inst3|inst1|dffs[3]~feeder_combout $end
$var wire 1 < inst2|inst2~combout $end
$var wire 1 = inst2|inst1~combout $end
$var wire 1 > inst2|inst4~combout $end
$var wire 1 ? inst3|inst1|dffs [4] $end
$var wire 1 @ inst3|inst1|dffs [3] $end
$var wire 1 A inst3|inst1|dffs [2] $end
$var wire 1 B inst3|inst1|dffs [1] $end
$var wire 1 C inst3|inst1|dffs [0] $end
$upscope $end
$upscope $end
$enddefinitions $end
#0
$dumpvars
0!
x"
1#
0$
x'
x&
x%
x(
0)
1*
x+
1,
1-
1.
0/
x0
x1
x2
x3
14
05
x6
07
x8
x9
x:
x;
x<
x=
x>
xC
xB
xA
x@
x?
$end
#143
00
#267
0?
0C
0B
0A
0@
#896
0:
#907
09
#936
01
#939
18
#940
0;
#941
0>
#942
0=
#1364
0<
#4714
0'
#4717
0&
#5395
0%
#5877
16
#15000
1!
0(
#16140
1/
#16283
10
#18098
17
#20000
0#
1(
#21015
04
#30000
0!
0(
#31140
0/
#31283
00
#45000
1!
1(
#46140
1/
#46283
10
#48098
1C
#48738
19
#49163
1=
#52938
1&
#60000
0!
0(
#61140
0/
#61283
00
#75000
1!
1(
#76140
1/
#76283
10
#78098
1B
#78727
1:
#90000
0!
0(
#91140
0/
#91283
00
#105000
1!
1(
#106140
1/
#106283
10
#108098
1A
#108771
1;
#120000
0!
0(
#121140
0/
#121283
00
#135000
1!
1(
#136140
1/
#136283
10
#138098
1@
#138767
11
#139195
1<
#143226
1%
#150000
0!
0(
#151140
0/
#151283
00
#165000
1!
1(
#166140
1/
#166283
10
#168098
1?
#168770
08
#180000
0!
0(
#181140
0/
#181283
00
#195000
1!
1(
#196140
1/
#196283
10
#198098
0C
#198738
09
#210000
0!
0(
#211140
0/
#211283
00
#225000
1!
1(
#226140
1/
#226283
10
#228098
0B
#228727
0:
#240000
0!
0(
#241140
0/
#241283
00
#255000
1!
1(
#256140
1/
#256283
10
#258098
0A
#258771
0;
#258773
0=
#259078
1>
#262548
0&
#262851
1'
#270000
0!
0(
#271140
0/
#271283
00
#285000
1!
1(
#286140
1/
#286283
10
#288098
0@
#288767
01
#300000
0!
0(
#301140
0/
#301283
00
#315000
1!
1(
#316140
1/
#316283
10
#318098
0?
#318770
18
#318772
0>
#318773
0<
#322545
0'
#322804
0%
#330000
0!
0(
#331140
0/
#331283
00
#345000
1!
1(
#346140
1/
#346283
10
#348098
1C
#348738
19
#349163
1=
#352938
1&
#360000
0!
0(
#361140
0/
#361283
00
#375000
1!
1(
#376140
1/
#376283
10
#378098
1B
#378727
1:
#390000
0!
0(
#391140
0/
#391283
00
#405000
1!
1(
#406140
1/
#406283
10
#408098
1A
#408771
1;
#420000
0!
0(
#421140
0/
#421283
00
#435000
1!
1(
#436140
1/
#436283
10
#438098
1@
#438767
11
#439195
1<
#443226
1%
#450000
0!
0(
#451140
0/
#451283
00
#465000
1!
1(
#466140
1/
#466283
10
#468098
1?
#468770
08
#480000
0!
0(
#481140
0/
#481283
00
#495000
1!
1(
#496140
1/
#496283
10
#498098
0C
#498738
09
#510000
0!
0(
#511140
0/
#511283
00
#525000
1!
1(
#526140
1/
#526283
10
#528098
0B
#528727
0:
#540000
0!
0(
#541140
0/
#541283
00
#555000
1!
1(
#556140
1/
#556283
10
#558098
0A
#558771
0;
#558773
0=
#559078
1>
#562548
0&
#562851
1'
#570000
0!
0(
#571140
0/
#571283
00
#585000
1!
1(
#586140
1/
#586283
10
#588098
0@
#588767
01
#600000
0!
0(
#601140
0/
#601283
00
#615000
1!
1(
#616140
1/
#616283
10
#618098
0?
#618770
18
#618772
0>
#618773
0<
#622545
0'
#622804
0%
#630000
0!
0(
#631140
0/
#631283
00
#645000
1!
1(
#646140
1/
#646283
10
#648098
1C
#648738
19
#649163
1=
#652938
1&
#660000
0!
0(
#661140
0/
#661283
00
#675000
1!
1(
#676140
1/
#676283
10
#678098
1B
#678727
1:
#690000
0!
0(
#691140
0/
#691283
00
#705000
1!
1(
#706140
1/
#706283
10
#708098
1A
#708771
1;
#720000
0!
0(
#721140
0/
#721283
00
#735000
1!
1(
#736140
1/
#736283
10
#738098
1@
#738767
11
#739195
1<
#743226
1%
#750000
0!
0(
#751140
0/
#751283
00
#765000
1!
1(
#766140
1/
#766283
10
#768098
1?
#768770
08
#780000
0!
0(
#781140
0/
#781283
00
#795000
1!
1(
#796140
1/
#796283
10
#798098
0C
#798738
09
#810000
0!
0(
#811140
0/
#811283
00
#825000
1!
1(
#826140
1/
#826283
10
#828098
0B
#828727
0:
#840000
0!
0(
#841140
0/
#841283
00
#855000
1!
1(
#856140
1/
#856283
10
#858098
0A
#858771
0;
#858773
0=
#859078
1>
#862548
0&
#862851
1'
#870000
0!
0(
#871140
0/
#871283
00
#885000
1!
1(
#886140
1/
#886283
10
#888098
0@
#888767
01
#900000
0!
0(
#901140
0/
#901283
00
#915000
1!
1(
#916140
1/
#916283
10
#918098
0?
#918770
18
#918772
0>
#918773
0<
#920000
1$
0(
#921004
15
#922545
0'
#922804
0%
#926912
06
#930000
0!
1(
#931140
0/
#931283
00
#945000
1!
0(
#946140
1/
#946283
10
#948098
07
1C
#948738
19
#949163
1=
#952938
1&
#960000
0$
0!
1(
#961004
05
#961140
0/
#961283
00
#975000
1!
0(
#976140
1/
#976283
10
#990000
0!
1(
#991140
0/
#991283
00
#1005000
1!
0(
#1006140
1/
#1006283
10
#1020000
0!
1(
#1021140
0/
#1021283
00
#1035000
1!
0(
#1036140
1/
#1036283
10
#1050000
0!
1(
#1051140
0/
#1051283
00
#1065000
1!
0(
#1066140
1/
#1066283
10
#1080000
1#
0!
1(
#1081015
14
#1081140
0/
#1081283
00
#1086892
16
#1095000
1!
0(
#1096140
1/
#1096283
10
#1098098
17
#1110000
0!
1(
#1111140
0/
#1111283
00
#1120000
0#
0(
#1121015
04
#1125000
1!
1(
#1126140
1/
#1126283
10
#1128098
1B
#1128727
1:
#1140000
0!
0(
#1141140
0/
#1141283
00
#1155000
1!
1(
#1156140
1/
#1156283
10
#1158098
1A
#1158771
1;
#1170000
0!
0(
#1171140
0/
#1171283
00
#1185000
1!
1(
#1186140
1/
#1186283
10
#1188098
1@
#1188767
11
#1189195
1<
#1193226
1%
#1200000
0!
0(
#1201140
0/
#1201283
00
#1215000
1!
1(
#1216140
1/
#1216283
10
#1218098
1?
#1218770
08
#1230000
0!
0(
#1231140
0/
#1231283
00
#1245000
1!
1(
#1246140
1/
#1246283
10
#1248098
0C
#1248738
09
#1260000
0!
0(
#1261140
0/
#1261283
00
#1275000
1!
1(
#1276140
1/
#1276283
10
#1278098
0B
#1278727
0:
#1290000
0!
0(
#1291140
0/
#1291283
00
#1305000
1!
1(
#1306140
1/
#1306283
10
#1308098
0A
#1308771
0;
#1308773
0=
#1309078
1>
#1312548
0&
#1312851
1'
#1320000
0!
0(
#1321140
0/
#1321283
00
#1335000
1!
1(
#1336140
1/
#1336283
10
#1338098
0@
#1338767
01
#1350000
0!
0(
#1351140
0/
#1351283
00
#1365000
1!
1(
#1366140
1/
#1366283
10
#1368098
0?
#1368770
18
#1368772
0>
#1368773
0<
#1372545
0'
#1372804
0%
#1380000
0!
0(
#1381140
0/
#1381283
00
#1395000
1!
1(
#1396140
1/
#1396283
10
#1398098
1C
#1398738
19
#1399163
1=
#1402938
1&
#1410000
0!
0(
#1411140
0/
#1411283
00
#1425000
1!
1(
#1426140
1/
#1426283
10
#1428098
1B
#1428727
1:
#1440000
0!
0(
#1441140
0/
#1441283
00
#1455000
1!
1(
#1456140
1/
#1456283
10
#1458098
1A
#1458771
1;
#1470000
0!
0(
#1471140
0/
#1471283
00
#1485000
1!
1(
#1486140
1/
#1486283
10
#1488098
1@
#1488767
11
#1489195
1<
#1493226
1%
#1500000
0!
0(
#1501140
0/
#1501283
00
#1515000
1!
1(
#1516140
1/
#1516283
10
#1518098
1?
#1518770
08
#1530000
0!
0(
#1531140
0/
#1531283
00
#1545000
1!
1(
#1546140
1/
#1546283
10
#1548098
0C
#1548738
09
#1560000
0!
0(
#1561140
0/
#1561283
00
#1575000
1!
1(
#1576140
1/
#1576283
10
#1578098
0B
#1578727
0:
#1590000
0!
0(
#1591140
0/
#1591283
00
#1605000
1!
1(
#1606140
1/
#1606283
10
#1608098
0A
#1608771
0;
#1608773
0=
#1609078
1>
#1612548
0&
#1612851
1'
#1620000
0!
0(
#1621140
0/
#1621283
00
#1635000
1!
1(
#1636140
1/
#1636283
10
#1638098
0@
#1638767
01
#1650000
0!
0(
#1651140
0/
#1651283
00
#1665000
1!
1(
#1666140
1/
#1666283
10
#1668098
0?
#1668770
18
#1668772
0>
#1668773
0<
#1672545
0'
#1672804
0%
#1680000
0!
0(
#1681140
0/
#1681283
00
#1695000
1!
1(
#1696140
1/
#1696283
10
#1698098
1C
#1698738
19
#1699163
1=
#1702938
1&
#1710000
0!
0(
#1711140
0/
#1711283
00
#1725000
1!
1(
#1726140
1/
#1726283
10
#1728098
1B
#1728727
1:
#1740000
0!
0(
#1741140
0/
#1741283
00
#1755000
1!
1(
#1756140
1/
#1756283
10
#1758098
1A
#1758771
1;
#1770000
0!
0(
#1771140
0/
#1771283
00
#1785000
1!
1(
#1786140
1/
#1786283
10
#1788098
1@
#1788767
11
#1789195
1<
#1793226
1%
#1800000
0!
0(
#1801140
0/
#1801283
00
#1815000
1!
1(
#1816140
1/
#1816283
10
#1818098
1?
#1818770
08
#1830000
0!
0(
#1831140
0/
#1831283
00
#1845000
1!
1(
#1846140
1/
#1846283
10
#1848098
0C
#1848738
09
#1860000
0!
0(
#1861140
0/
#1861283
00
#1875000
1!
1(
#1876140
1/
#1876283
10
#1878098
0B
#1878727
0:
#1890000
0!
0(
#1891140
0/
#1891283
00
#1905000
1!
1(
#1906140
1/
#1906283
10
#1908098
0A
#1908771
0;
#1908773
0=
#1909078
1>
#1912548
0&
#1912851
1'
#1920000
0!
0(
#1921140
0/
#1921283
00
#1935000
1!
1(
#1936140
1/
#1936283
10
#1938098
0@
#1938767
01
#1950000
0!
0(
#1951140
0/
#1951283
00
#1965000
1!
1(
#1966140
1/
#1966283
10
#1968098
0?
#1968770
18
#1968772
0>
#1968773
0<
#1972545
0'
#1972804
0%
#1980000
0!
0(
#1981140
0/
#1981283
00
#1995000
1!
1(
#1996140
1/
#1996283
10
#1998098
1C
#1998738
19
#1999163
1=
