course_var2.1/counter_decoder/simulation/qsim/counter_decoder.msim.vcd
$comment
	File created using the following command:
		vcd file counter_decoder.msim.vcd -direction
$end
$date
	Sun Jun 01 21:13:10 2025
$end
$version
	ModelSim Version 10.1d
$end
$timescale
	1ps
$end
$scope module counter_decoder_vlg_vec_tst $end
$var reg 1 ! Clock $end
$var reg 1 " Enable $end
$var wire 1 # Period $end
$var wire 1 $ q [4] $end
$var wire 1 % q [3] $end
$var wire 1 & q [2] $end
$var wire 1 ' q [1] $end
$var wire 1 ( q [0] $end
$var wire 1 ) Result $end
$var wire 1 * sampler $end
$scope module i1 $end
$var wire 1 + gnd $end
$var wire 1 , vcc $end
$var wire 1 - unknown $end
$var tri1 1 . devclrn $end
$var tri1 1 / devpor $end
$var tri1 1 0 devoe $end
$var wire 1 1 Clock~clkctrl_outclk $end
$var wire 1 2 inst1|LPM_COUNTER_component|auto_generated|counter_comb_bita0~combout $end
$var wire 1 3 ~GND~combout $end
$var wire 1 4 Enable~combout $end
$var wire 1 5 inst1|LPM_COUNTER_component|auto_generated|counter_comb_bita0~COUT $end
$var wire 1 6 inst1|LPM_COUNTER_component|auto_generated|counter_comb_bita1~combout $end
$var wire 1 7 inst1|LPM_COUNTER_component|auto_generated|counter_comb_bita1~COUT $end
$var wire 1 8 inst1|LPM_COUNTER_component|auto_generated|counter_comb_bita2~combout $end
$var wire 1 9 inst1|LPM_COUNTER_component|auto_generated|counter_comb_bita2~COUT $end
$var wire 1 : inst1|LPM_COUNTER_component|auto_generated|counter_comb_bita3~combout $end
$var wire 1 ; inst1|LPM_COUNTER_component|auto_generated|counter_comb_bita3~COUT $end
$var wire 1 < inst1|LPM_COUNTER_component|auto_generated|counter_comb_bita4~combout $end
$var wire 1 = inst|LPM_DECODE_component|auto_generated|w_anode361w[3]~0_combout $end
$var wire 1 > inst|LPM_DECODE_component|auto_generated|w_anode361w[3]~1_combout $end
$var wire 1 ? Clock~combout $end
$var wire 1 @ inst3~8_combout $end
$var wire 1 A inst3~9_combout $end
$var wire 1 B inst3~combout $end
$var wire 1 C inst1|LPM_COUNTER_component|auto_generated|safe_q [4] $end
$var wire 1 D inst1|LPM_COUNTER_component|auto_generated|safe_q [3] $end
$var wire 1 E inst1|LPM_COUNTER_component|auto_generated|safe_q [2] $end
$var wire 1 F inst1|LPM_COUNTER_component|auto_generated|safe_q [1] $end
$var wire 1 G inst1|LPM_COUNTER_component|auto_generated|safe_q [0] $end
$upscope $end
$upscope $end
$enddefinitions $end
#0
$dumpvars
0!
1"
x#
x(
x'
x&
x%
x$
x)
x*
0+
1,
x-
1.
1/
10
x1
x2
03
14
x5
x6
x7
x8
x9
x:
x;
x<
x=
x>
0?
x@
xA
xB
0G
0F
0E
0D
0C
$end
#143
01
#653
0=
#1046
0>
#1048
1;
#1100
05
#1113
09
#1130
12
#1169
17
#1383
1@
#1554
0<
#1606
06
#1619
0:
#1636
0B
#1675
08
#1950
1A
#3817
0$
#3841
0%
#4200
0(
#4225
0&
0'
#5087
0#
#5944
0)
#15000
1!
0*
#16140
1?
#16283
11
#17776
1B
#20000
0!
1*
#21140
0?
#21283
01
#22084
1)
#22776
0B
#23083
1G
#24183
15
#24213
02
#24689
16
#27084
0)
#27283
1(
#35000
1!
0*
#36140
1?
#36283
11
#37776
1B
#40000
0!
1*
#41140
0?
#41283
01
#42084
1)
#42776
0B
#43083
1F
0G
#44169
06
#44183
05
#44213
12
0A
#44689
16
#47084
0)
#47283
0(
#47308
1'
#55000
1!
0*
#56140
1?
#56283
11
#60000
0!
1*
#61140
0?
#61283
01
#63083
1G
#64183
15
#64213
02
1A
#64373
07
#64689
06
#64879
18
#67283
1(
#75000
1!
0*
#76140
1?
#76283
11
#77776
1B
#80000
0!
1*
#81140
0?
#81283
01
#82084
1)
#82776
0B
#83083
1E
0F
0G
#83928
0@
#84169
16
#84183
05
#84196
19
#84213
12
0A
#84222
08
#84252
17
#84338
09
#84689
06
#84758
18
#87084
0)
#87283
0(
#87308
1&
0'
#95000
1!
0*
#96140
1?
#96283
11
#100000
0!
1*
#101140
0?
#101283
01
#103083
1G
#104183
15
#104213
02
#104689
16
#107283
1(
#115000
1!
0*
#116140
1?
#116283
11
#120000
0!
1*
#121140
0?
#121283
01
#123083
1F
0G
#124169
06
#124183
05
#124213
12
#124689
16
#127283
0(
#127308
1'
#135000
1!
0*
#136140
1?
#136283
11
#140000
0!
1*
#141140
0?
#141283
01
#143083
1G
#144183
15
#144213
02
1A
#144373
07
#144459
19
#144689
06
#144879
08
#144965
1:
#147283
1(
#155000
1!
0*
#156140
1?
#156283
11
#157776
1B
#160000
0!
1*
#161140
0?
#161283
01
#162084
1)
#162776
0B
#163083
1D
0E
0F
0G
#164131
0;
#164158
0:
#164169
16
#164171
0A
#164183
05
#164196
09
#164213
12
#164222
18
#164252
17
#164282
1;
#164689
06
#164702
1:
#164758
08
#166924
1%
#167084
0)
#167283
0(
#167308
0&
0'
#175000
1!
0*
#176140
1?
#176283
11
#180000
0!
1*
#181140
0?
#181283
01
#183083
1G
#184183
15
#184213
02
#184689
16
#187283
1(
#195000
1!
0*
#196140
1?
#196283
11
#200000
0!
1*
#201140
0?
#201283
01
#203083
1F
0G
#204169
06
#204183
05
#204213
12
#204689
16
#207283
0(
#207308
1'
#215000
1!
0*
#216140
1?
#216283
11
#220000
0!
1*
#221140
0?
#221283
01
#223083
1G
#224183
15
#224213
02
#224373
07
#224689
06
#224879
18
#227283
1(
#235000
1!
0*
#236140
1?
#236283
11
#240000
0!
1*
#241140
0?
#241283
01
#243083
1E
0F
0G
#244169
16
#244183
05
#244196
19
#244213
12
#244222
08
#244252
17
#244282
0;
#244338
09
#244424
1;
#244689
06
#244758
18
#247283
0(
#247308
1&
0'
#255000
1!
0*
#256140
1?
#256283
11
#260000
0!
1*
#261140
0?
#261283
01
#263083
1G
#264183
15
#264213
02
#264689
16
#267283
1(
#275000
1!
0*
#276140
1?
#276283
11
#280000
0!
1*
#281140
0?
#281283
01
#283083
1F
0G
#284169
06
#284183
05
#284213
12
#284689
16
#287283
0(
#287308
1'
#295000
1!
0*
#296140
1?
#296283
11
#300000
0!
1*
#301140
0?
#301283
01
#303083
1G
#304183
15
#304213
02
1A
#304373
07
#304459
19
#304545
0;
#304689
06
#304879
08
#304965
0:
#305051
1<
#307283
1(
#315000
1!
0*
#316140
1?
#316283
11
#317776
1B
#320000
0!
1*
#321140
0?
#321283
01
#322084
1)
#322776
0B
#323083
1C
0D
0E
0F
0G
#324044
0<
#324131
1;
#324158
1:
#324169
16
#324171
0A
#324183
05
#324196
09
#324213
12
#324222
18
#324252
17
#324637
1<
#324689
06
#324702
0:
#324758
08
#326900
1$
#326924
0%
#327084
0)
#327283
0(
#327308
0&
0'
#335000
1!
0*
#336140
1?
#336283
11
#340000
0!
1*
#341140
0?
#341283
01
#343083
1G
#344183
15
#344213
02
#344689
16
#347283
1(
#355000
1!
0*
#356140
1?
#356283
11
#360000
0!
1*
#361140
0?
#361283
01
#363083
1F
0G
#364169
06
#364183
05
#364213
12
#364689
16
#367283
0(
#367308
1'
#375000
1!
0*
#376140
1?
#376283
11
#380000
0!
1*
#381140
0?
#381283
01
#383083
1G
#384183
15
#384213
02
#384373
07
#384689
06
#384879
18
#387283
1(
#395000
1!
0*
#396140
1?
#396283
11
#400000
0!
1*
#401140
0?
#401283
01
#403083
1E
0F
0G
#404169
16
#404183
05
#404196
19
#404213
12
#404222
08
#404252
17
#404338
09
#404689
06
#404758
18
#407283
0(
#407308
1&
0'
#415000
1!
0*
#416140
1?
#416283
11
#420000
0!
1*
#421140
0?
#421283
01
#423083
1G
#424183
15
#424213
02
#424689
16
#427283
1(
#435000
1!
0*
#436140
1?
#436283
11
#440000
0!
1*
#441140
0?
#441283
01
#443083
1F
0G
#444169
06
#444183
05
#444213
12
#444689
16
#447283
0(
#447308
1'
#455000
1!
0*
#456140
1?
#456283
11
#460000
0!
1*
#461140
0?
#461283
01
#463083
1G
#464183
15
#464213
02
1A
#464373
07
#464459
19
#464689
06
#464879
08
#464965
1:
#467283
1(
#475000
1!
0*
#476140
1?
#476283
11
#477776
1B
#480000
0!
1*
#481140
0?
#481283
01
#482084
1)
#482776
0B
#483083
1D
0E
0F
0G
#483736
1=
#484131
0;
#484158
0:
#484169
16
#484171
0A
#484183
05
#484196
09
#484213
12
#484222
18
#484252
17
#484282
1;
#484689
06
#484702
1:
#484758
08
#486924
1%
#487084
0)
#487283
0(
#487308
0&
0'
#495000
1!
0*
#496140
1?
#496283
11
#500000
0!
1*
#501140
0?
#501283
01
#503083
1G
#504183
15
#504213
02
#504689
16
#507283
1(
#515000
1!
0*
#516140
1?
#516283
11
#520000
0!
1*
#521140
0?
#521283
01
#523083
1F
0G
#524163
1@
#524169
06
#524183
05
#524213
12
#524689
16
#527283
0(
#527308
1'
#535000
1!
0*
#536140
1?
#536283
11
#540000
0!
1*
#541140
0?
#541283
01
#543083
1G
#544183
15
#544213
02
1A
#544373
07
#544689
06
#544879
18
#547283
1(
#555000
1!
0*
#556140
1?
#556283
11
#557776
1B
#560000
0!
1*
#561140
0?
#561283
01
#562084
1)
#562776
0B
#563083
1E
0F
0G
#564169
16
#564183
05
#564196
19
#564213
12
0A
#564222
08
#564252
17
#564282
0;
#564338
09
#564424
1;
#564689
06
#564758
18
#567084
0)
#567283
0(
#567308
1&
0'
#575000
1!
0*
#576140
1?
#576283
11
#580000
0!
1*
#581140
0?
#581283
01
#583083
1G
#584183
15
#584213
02
1A
#584689
16
#587283
1(
#595000
1!
0*
#596140
1?
#596283
11
#597776
1B
#600000
0!
1*
#601140
0?
#601283
01
#602084
1)
#602776
0B
#603083
1F
0G
#604063
1>
#604169
06
#604183
05
#604213
12
#604689
16
#607084
0)
#607283
0(
#607308
1'
#608104
1#
#615000
1!
0*
#616140
1?
#616283
11
#617776
1B
#620000
0!
1*
#621140
0?
#621283
01
#622084
1)
#622776
0B
#623083
0C
0D
0E
0F
#623736
0=
#624044
0<
#624129
0>
#624158
0:
#624169
06
#624222
08
#626900
0$
#626924
0%
#627084
0)
#627308
0&
0'
#628170
0#
#635000
1!
0*
#636140
1?
#636283
11
#637776
1B
#640000
0!
1*
#641140
0?
#641283
01
#642084
1)
#642776
0B
#643083
1G
#644183
15
#644213
02
#644689
16
#647084
0)
#647283
1(
#655000
1!
0*
#656140
1?
#656283
11
#657776
1B
#660000
0!
1*
#661140
0?
#661283
01
#662084
1)
#662776
0B
#663083
1F
0G
#664169
06
#664183
05
#664213
12
0A
#664689
16
#667084
0)
#667283
0(
#667308
1'
#675000
1!
0*
#676140
1?
#676283
11
#680000
0!
1*
#681140
0?
#681283
01
#683083
1G
#684183
15
#684213
02
1A
#684373
07
#684689
06
#684879
18
#687283
1(
#695000
1!
0*
#696140
1?
#696283
11
#697776
1B
#700000
0!
1*
#701140
0?
#701283
01
#702084
1)
#702776
0B
#703083
1E
0F
0G
#703928
0@
#704169
16
#704183
05
#704196
19
#704213
12
0A
#704222
08
#704252
17
#704338
09
#704689
06
#704758
18
#707084
0)
#707283
0(
#707308
1&
0'
#715000
1!
0*
#716140
1?
#716283
11
#720000
0!
1*
#721140
0?
#721283
01
#723083
1G
#724183
15
#724213
02
#724689
16
#727283
1(
#735000
1!
0*
#736140
1?
#736283
11
#740000
0!
1*
#741140
0?
#741283
01
#743083
1F
0G
#744169
06
#744183
05
#744213
12
#744689
16
#747283
0(
#747308
1'
#755000
1!
0*
#756140
1?
#756283
11
#760000
0!
1*
#761140
0?
#761283
01
#763083
1G
#764183
15
#764213
02
1A
#764373
07
#764459
19
#764689
06
#764879
08
#764965
1:
#767283
1(
#775000
1!
0*
#776140
1?
#776283
11
#777776
1B
#780000
0!
1*
#781140
0?
#781283
01
#782084
1)
#782776
0B
#783083
1D
0E
0F
0G
#784131
0;
#784158
0:
#784169
16
#784171
0A
#784183
05
#784196
09
#784213
12
#784222
18
#784252
17
#784282
1;
#784689
06
#784702
1:
#784758
08
#786924
1%
#787084
0)
#787283
0(
#787308
0&
0'
#795000
1!
0*
#796140
1?
#796283
11
#800000
0!
1*
#801140
0?
#801283
01
#803083
1G
#804183
15
#804213
02
#804689
16
#807283
1(
#815000
1!
0*
#816140
1?
#816283
11
#820000
0!
1*
#821140
0?
#821283
01
#823083
1F
0G
#824169
06
#824183
05
#824213
12
#824689
16
#827283
0(
#827308
1'
#835000
1!
0*
#836140
1?
#836283
11
#840000
0!
1*
#841140
0?
#841283
01
#843083
1G
#844183
15
#844213
02
#844373
07
#844689
06
#844879
18
#847283
1(
#855000
1!
0*
#856140
1?
#856283
11
#860000
0!
1*
#861140
0?
#861283
01
#863083
1E
0F
0G
#864169
16
#864183
05
#864196
19
#864213
12
#864222
08
#864252
17
#864282
0;
#864338
09
#864424
1;
#864689
06
#864758
18
#867283
0(
#867308
1&
0'
#875000
1!
0*
#876140
1?
#876283
11
#880000
0!
1*
#881140
0?
#881283
01
#883083
1G
#884183
15
#884213
02
#884689
16
#887283
1(
#895000
1!
0*
#896140
1?
#896283
11
#900000
0!
1*
#901140
0?
#901283
01
#903083
1F
0G
#904169
06
#904183
05
#904213
12
#904689
16
#907283
0(
#907308
1'
#915000
1!
0*
#916140
1?
#916283
11
#920000
0!
1*
#921140
0?
#921283
01
#923083
1G
#924183
15
#924213
02
1A
#924373
07
#924459
19
#924545
0;
#924689
06
#924879
08
#924965
0:
#925051
1<
#927283
1(
#935000
1!
0*
#936140
1?
#936283
11
#937776
1B
#940000
0"
0!
1*
#940975
04
#941140
0?
#941283
01
#942084
1)
#942776
0B
#943083
1C
0D
0E
0F
0G
#944044
0<
#944131
1;
#944158
1:
#944169
16
#944171
0A
#944183
05
#944196
09
#944213
12
#944222
18
#944252
17
#944637
1<
#944689
06
#944702
0:
#944758
08
#946900
1$
#946924
0%
#947084
0)
#947283
0(
#947308
0&
0'
#955000
1!
0*
#956140
1?
#956283
11
#960000
0!
1*
#961140
0?
#961283
01
#975000
1!
0*
#976140
1?
#976283
11
#980000
0!
1*
#981140
0?
#981283
01
#995000
1!
0*
#996140
1?
