course_var2.2/dc_scheme/simulation/qsim/dc_scheme.msim.vcd
$comment
	File created using the following command:
		vcd file dc_scheme.msim.vcd -direction
$end
$date
	Wed May 28 11:33:19 2025
$end
$version
	ModelSim Version 10.1d
$end
$timescale
	1ps
$end
$scope module dc_scheme_vlg_vec_tst $end
$var reg 1 ! Clock $end
$var reg 1 " Enable $end
$var wire 1 # Cnt [4] $end
$var wire 1 $ Cnt [3] $end
$var wire 1 % Cnt [2] $end
$var wire 1 & Cnt [1] $end
$var wire 1 ' Cnt [0] $end
$var wire 1 ( Period $end
$var wire 1 ) Result $end
$var wire 1 * sampler $end
$scope module i1 $end
$var wire 1 + gnd $end
$var wire 1 , vcc $end
$var wire 1 - unknown $end
$var tri1 1 . devclrn $end
$var tri1 1 / devpor $end
$var tri1 1 0 devoe $end
$var wire 1 1 Clock~clkctrl_outclk $end
$var wire 1 2 inst1|LPM_COUNTER_component|auto_generated|counter_comb_bita0~COUT $end
$var wire 1 3 inst1|LPM_COUNTER_component|auto_generated|counter_comb_bita1~combout $end
$var wire 1 4 ~GND~combout $end
$var wire 1 5 Enable~combout $end
$var wire 1 6 inst1|LPM_COUNTER_component|auto_generated|counter_comb_bita1~COUT $end
$var wire 1 7 inst1|LPM_COUNTER_component|auto_generated|counter_comb_bita2~combout $end
$var wire 1 8 inst1|LPM_COUNTER_component|auto_generated|counter_comb_bita2~COUT $end
$var wire 1 9 inst1|LPM_COUNTER_component|auto_generated|counter_comb_bita3~combout $end
$var wire 1 : inst1|LPM_COUNTER_component|auto_generated|counter_comb_bita0~combout $end
$var wire 1 ; inst|LPM_DECODE_component|auto_generated|w_anode361w[3]~0_combout $end
$var wire 1 < inst|LPM_DECODE_component|auto_generated|w_anode361w[3]~1_combout $end
$var wire 1 = inst1|LPM_COUNTER_component|auto_generated|counter_comb_bita3~COUT $end
$var wire 1 > inst1|LPM_COUNTER_component|auto_generated|counter_comb_bita4~combout $end
$var wire 1 ? inst3~1_combout $end
$var wire 1 @ inst3~2_combout $end
$var wire 1 A Clock~combout $end
$var wire 1 B inst3~0_combout $end
$var wire 1 C inst3~3_combout $end
$var wire 1 D inst1|LPM_COUNTER_component|auto_generated|safe_q [4] $end
$var wire 1 E inst1|LPM_COUNTER_component|auto_generated|safe_q [3] $end
$var wire 1 F inst1|LPM_COUNTER_component|auto_generated|safe_q [2] $end
$var wire 1 G inst1|LPM_COUNTER_component|auto_generated|safe_q [1] $end
$var wire 1 H inst1|LPM_COUNTER_component|auto_generated|safe_q [0] $end
$upscope $end
$upscope $end
$enddefinitions $end
#0
$dumpvars
0!
1"
x'
x&
x%
x$
x#
x(
x)
x*
0+
1,
x-
1.
1/
10
x1
x2
x3
04
15
x6
x7
x8
x9
x:
x;
x<
x=
x>
x?
x@
0A
xB
xC
0H
0G
0F
0E
0D
$end
#143
01
#827
0;
#1039
0<
#1042
1=
#1099
02
#1129
1:
#1171
16
#1196
0B
#1367
08
#1397
0@
#1430
0?
#1548
0>
#1605
03
#1677
07
#1761
0C
#1873
09
#3810
0&
#3821
0$
#3838
0'
#4212
0%
#4379
0#
#4792
0(
#5903
0)
#26400
1!
0*
#27540
1A
#27683
11
#28736
1B
#29301
1C
#30000
0!
1*
#31140
0A
#31283
01
#32336
0B
#32901
0C
#33083
1H
#33443
1)
#34182
12
#34212
0:
#34688
13
#36921
1'
#37043
0)
#56400
1!
0*
#57540
1A
#57683
11
#58736
1B
#59301
1C
#60000
0!
1*
#61140
0A
#61283
01
#62336
0B
#62901
0C
#63083
0H
1G
#63443
1)
#63923
1@
#64171
03
#64182
02
#64212
1:
#64688
13
#66893
1&
#66921
0'
#67043
0)
#86400
1!
0*
#87540
1A
#87683
11
#88736
1B
#90000
0!
1*
#91140
0A
#91283
01
#92336
0B
#93083
1H
#94182
12
#94212
0:
#94372
06
#94688
03
#94878
17
#96921
1'
#116400
1!
0*
#117540
1A
#117683
11
#118736
1B
#119301
1C
#120000
0!
1*
#121140
0A
#121283
01
#122336
0B
#122901
0C
#123083
0H
1F
0G
#123443
1)
#123923
0@
#124054
1?
#124171
13
#124182
02
#124212
1:
#124254
16
#124688
03
#126893
0&
#126921
0'
#127043
0)
#127295
1%
#146400
1!
0*
#147540
1A
#147683
11
#148736
1B
#150000
0!
1*
#151140
0A
#151283
01
#152336
0B
#153083
1H
#154182
12
#154212
0:
#154688
13
#156921
1'
#176400
1!
0*
#177540
1A
#177683
11
#178736
1B
#180000
0!
1*
#181140
0A
#181283
01
#182336
0B
#183083
0H
1G
#183923
1@
#184171
03
#184182
02
#184212
1:
#184688
13
#186893
1&
#186921
0'
#206400
1!
0*
#207540
1A
#207683
11
#208736
1B
#209301
1C
#210000
0!
1*
#211140
0A
#211283
01
#212336
0B
#212901
0C
#213083
1H
#213443
1)
#214182
12
#214212
0:
#214372
06
#214458
18
#214688
03
#214878
07
#214964
19
#216921
1'
#217043
0)
#236400
1!
0*
#237540
1A
#237683
11
#238736
1B
#240000
0!
1*
#241140
0A
#241283
01
#242336
0B
#243083
0H
1E
0F
0G
#243923
0@
#244125
0=
#244152
09
#244171
13
#244182
02
#244212
1:
#244254
16
#244450
08
#244536
1=
#244688
03
#244956
19
#246893
0&
#246904
1$
#246921
0'
#247295
0%
#266400
1!
0*
#267540
1A
#267683
11
#268736
1B
#270000
0!
1*
#271140
0A
#271283
01
#272336
0B
#273083
1H
#274182
12
#274212
0:
#274688
13
#276921
1'
#296400
1!
0*
#297540
1A
#297683
11
#298736
1B
#300000
0!
1*
#301140
0A
#301283
01
#302336
0B
#303083
0H
1G
#303923
1@
#304171
03
#304182
02
#304212
1:
#304688
13
#306893
1&
#306921
0'
#326400
1!
0*
#327540
1A
#327683
11
#328736
1B
#329301
1C
#330000
0!
1*
#331140
0A
#331283
01
#332336
0B
#332901
0C
#333083
1H
#333443
1)
#334182
12
#334212
0:
#334372
06
#334688
03
#334878
17
#336921
1'
#337043
0)
#356400
1!
0*
#357540
1A
#357683
11
#358736
1B
#360000
0!
1*
#361140
0A
#361283
01
#362336
0B
#363083
0H
1F
0G
#363923
0@
#364171
13
#364182
02
#364212
1:
#364254
16
#364688
03
#366893
0&
#366921
0'
#367295
1%
#386400
1!
0*
#387540
1A
#387683
11
#388736
1B
#390000
0!
1*
#391140
0A
#391283
01
#392336
0B
#393083
1H
#394182
12
#394212
0:
#394688
13
#396921
1'
#416400
1!
0*
#417540
1A
#417683
11
#418736
1B
#420000
0!
1*
#421140
0A
#421283
01
#422336
0B
#423083
0H
1G
#423922
0?
#423923
1@
#424171
03
#424182
02
#424212
1:
#424688
13
#426893
1&
#426921
0'
#446400
1!
0*
#447540
1A
#447683
11
#448736
1B
#450000
0!
1*
#451140
0A
#451283
01
#452336
0B
#453083
1H
#454182
12
#454212
0:
#454372
06
#454458
18
#454544
0=
#454688
03
#454878
07
#454964
09
#455050
1>
#456921
1'
#476400
1!
0*
#477540
1A
#477683
11
#478736
1B
#479301
1C
#480000
0!
1*
#481140
0A
#481283
01
#482336
0B
#482901
0C
#483083
1D
0H
0E
0F
0G
#483443
1)
#483922
1?
#484056
0>
#484125
1=
#484152
19
#484171
13
#484182
02
#484212
1:
#484254
16
#484450
08
#484512
0@
#484631
1>
#484688
03
#484956
09
#486893
0&
#486904
0$
#486921
0'
#487043
0)
#487295
0%
#487462
1#
#506400
1!
0*
#507540
1A
#507683
11
#508736
1B
#510000
0!
1*
#511140
0A
#511283
01
#512336
0B
#513083
1H
#514182
12
#514212
0:
#514688
13
#516921
1'
#536400
1!
0*
#537540
1A
#537683
11
#538736
1B
#540000
0!
1*
#541140
0A
#541283
01
#542336
0B
#543083
0H
1G
#544171
03
#544182
02
#544212
1:
#544688
13
#546893
1&
#546921
0'
#566400
1!
0*
#567540
1A
#567683
11
#568736
1B
#570000
0!
1*
#571140
0A
#571283
01
#572336
0B
#573083
1H
#574182
12
#574212
0:
#574372
06
#574688
03
#574878
17
#576921
1'
#596400
1!
0*
#597540
1A
#597683
11
#598736
1B
#600000
0!
1*
#601140
0A
#601283
01
#602336
0B
#603083
0H
1F
0G
#603910
1;
#604053
1@
#604171
13
#604182
02
#604212
1:
#604254
16
#604688
03
#606893
0&
#606921
0'
#607295
1%
#626400
1!
0*
#627540
1A
#627683
11
#628736
1B
#629301
1C
#630000
0!
1*
#631140
0A
#631283
01
#632336
0B
#632901
0C
#633083
1H
#633443
1)
#633731
0;
#634182
12
#634212
0:
#634688
13
#636921
1'
#637043
0)
#656400
1!
0*
#657540
1A
#657683
11
#658736
1B
#660000
0!
1*
#661140
0A
#661283
01
#662336
0B
#663083
0H
1G
#663731
1;
#663923
0@
#664171
03
#664182
02
#664212
1:
#664688
13
#666893
1&
#666921
0'
#686400
1!
0*
#687540
1A
#687683
11
#688736
1B
#690000
0!
1*
#691140
0A
#691283
01
#692336
0B
#693083
1H
#693731
0;
#694182
12
#694212
0:
#694372
06
#694458
18
#694688
03
#694878
07
#694964
19
#696921
1'
#716400
1!
0*
#717540
1A
#717683
11
#718736
1B
#720000
0!
1*
#721140
0A
#721283
01
#722336
0B
#723083
0H
1E
0F
0G
#724125
0=
#724152
09
#724171
13
#724182
02
#724212
1:
#724254
16
#724450
08
#724512
1@
#724536
1=
#724688
03
#724956
19
#726893
0&
#726904
1$
#726921
0'
#727295
0%
#746400
1!
0*
#747540
1A
#747683
11
#748736
1B
#749301
1C
#750000
0!
1*
#751140
0A
#751283
01
#752336
0B
#752901
0C
#753083
1H
#753443
1)
#754182
12
#754212
0:
#754688
13
#756921
1'
#757043
0)
#776400
1!
0*
#777540
1A
#777683
11
#778736
1B
#780000
0!
1*
#781140
0A
#781283
01
#782336
0B
#783083
0H
1G
#783922
0?
#784171
03
#784182
02
#784212
1:
#784688
13
#786893
1&
#786921
0'
#806400
1!
0*
#807540
1A
#807683
11
#808736
1B
#810000
0!
1*
#811140
0A
#811283
01
#812336
0B
#813083
1H
#814182
12
#814212
0:
#814372
06
#814688
03
#814878
17
#816921
1'
#836400
1!
0*
#837540
1A
#837683
11
#838736
1B
#839301
1C
#840000
0!
1*
#841140
0A
#841283
01
#842336
0B
#842901
0C
#843083
0H
1F
0G
#843443
1)
#843910
1;
#844171
13
#844182
02
#844212
1:
#844254
16
#844688
03
#846893
0&
#846921
0'
#847043
0)
#847295
1%
#866400
1!
0*
#867540
1A
#867683
11
#868736
1B
#870000
0!
1*
#871140
0A
#871283
01
#872336
0B
#873083
1H
#873731
0;
#874182
12
#874212
0:
#874688
13
#876921
1'
#896400
1!
0*
#897540
1A
#897683
11
#898736
1B
#899301
1C
#900000
0!
1*
#901140
0A
#901283
01
#902336
0B
#902901
0C
#903083
0H
1G
#903443
1)
#903731
1;
#903922
1?
#904171
03
#904182
02
#904212
1:
#904290
1<
#904688
13
#906893
1&
#906921
0'
#907043
0)
#908043
1(
#926400
1!
0*
#927540
1A
#927683
11
#928736
1B
#929301
1C
#930000
0!
1*
#931140
0A
#931283
01
#932336
0B
#932901
0C
#933083
0D
0E
0F
0G
#933443
1)
#933910
0;
#934056
0>
#934122
0<
#934152
09
#934171
03
#934477
07
#934480
0@
#934513
0?
#936893
0&
#936904
0$
#937043
0)
#937295
0%
#937462
0#
#937875
0(
#940000
0"
0*
#941005
05
#956400
1!
1*
#957540
1A
#957683
11
#960000
0!
0*
#961140
0A
#961283
01
#986400
1!
1*
#987540
1A
#987683
11
#990000
0!
0*
#991140
0A
