course_var7.3/interface/simulation/qsim/int_v1.msim.vcd
$comment
	File created using the following command:
		vcd file int_v1.msim.vcd -direction
$end
$date
	Wed May 07 19:15:28 2025
$end
$version
	ModelSim Version 10.1d
$end
$timescale
	1ps
$end
$scope module int_v1_vlg_vec_tst $end
$var reg 8 ! A [7:0] $end
$var reg 1 " C $end
$var reg 8 # DB [7:0] $end
$var reg 1 $ nIOR $end
$var reg 1 % nIOW $end
$var reg 1 & R $end
$var wire 1 ' cs [1] $end
$var wire 1 ( cs [0] $end
$var wire 1 ) Read $end
$var wire 1 * Result [3] $end
$var wire 1 + Result [2] $end
$var wire 1 , Result [1] $end
$var wire 1 - Result [0] $end
$var wire 1 . SEL $end
$var wire 1 / sampler $end
$scope module i1 $end
$var wire 1 0 gnd $end
$var wire 1 1 vcc $end
$var wire 1 2 unknown $end
$var tri1 1 3 devclrn $end
$var tri1 1 4 devpor $end
$var tri1 1 5 devoe $end
$var wire 1 6 C~combout $end
$var wire 1 7 C~clkctrl_outclk $end
$var wire 1 8 inst~1_combout $end
$var wire 1 9 inst~0_combout $end
$var wire 1 : inst~combout $end
$var wire 1 ; nIOR~combout $end
$var wire 1 < inst2~feeder_combout $end
$var wire 1 = nIOW~combout $end
$var wire 1 > inst2~regout $end
$var wire 1 ? inst13~combout $end
$var wire 1 @ inst14~combout $end
$var wire 1 A inst1|inst|inst5~feeder_combout $end
$var wire 1 B R~combout $end
$var wire 1 C R~clkctrl_outclk $end
$var wire 1 D inst1|inst11~0_combout $end
$var wire 1 E inst1|inst11~1_combout $end
$var wire 1 F inst1|inst11~regout $end
$var wire 1 G inst1|inst|inst5~regout $end
$var wire 1 H inst1|inst|inst6~feeder_combout $end
$var wire 1 I inst1|inst|inst6~regout $end
$var wire 1 J inst1|inst|inst7~feeder_combout $end
$var wire 1 K inst1|inst|inst7~regout $end
$var wire 1 L inst1|inst|inst8~feeder_combout $end
$var wire 1 M inst1|inst|inst8~regout $end
$var wire 1 N inst1|inst|inst9~regout $end
$var wire 1 O inst1|inst|inst10~feeder_combout $end
$var wire 1 P inst1|inst|inst10~regout $end
$var wire 1 Q inst1|inst|inst11~feeder_combout $end
$var wire 1 R inst1|inst|inst11~regout $end
$var wire 1 S inst1|inst|inst~0_combout $end
$var wire 1 T inst1|inst|inst~regout $end
$var wire 1 U inst1|inst|inst3~feeder_combout $end
$var wire 1 V inst1|inst|inst3~regout $end
$var wire 1 W inst1|inst|inst4~regout $end
$var wire 1 X inst18~0_combout $end
$var wire 1 Y inst18~1_combout $end
$var wire 1 Z inst19~combout $end
$var wire 1 [ inst16~combout $end
$var wire 1 \ inst17~combout $end
$var wire 1 ] A~combout [7] $end
$var wire 1 ^ A~combout [6] $end
$var wire 1 _ A~combout [5] $end
$var wire 1 ` A~combout [4] $end
$var wire 1 a A~combout [3] $end
$var wire 1 b A~combout [2] $end
$var wire 1 c A~combout [1] $end
$var wire 1 d A~combout [0] $end
$var wire 1 e DB~combout [7] $end
$var wire 1 f DB~combout [6] $end
$var wire 1 g DB~combout [5] $end
$var wire 1 h DB~combout [4] $end
$var wire 1 i DB~combout [3] $end
$var wire 1 j DB~combout [2] $end
$var wire 1 k DB~combout [1] $end
$var wire 1 l DB~combout [0] $end
$upscope $end
$upscope $end
$enddefinitions $end
#0
$dumpvars
b0 !
0"
b0 #
1$
1%
0&
x(
x'
x)
x-
x,
x+
x*
x.
x/
00
11
x2
13
14
15
06
x7
x8
x9
x:
1;
1<
1=
x>
x?
x@
xA
0B
xC
xD
xE
0F
xG
xH
xI
xJ
xK
xL
xM
xN
xO
xP
xQ
xR
xS
xT
xU
xV
xW
xX
xY
xZ
x[
x\
0d
0c
0b
0a
0`
0_
0^
0]
0l
0k
zj
zi
zh
zg
zf
ze
$end
#143
07
0C
#267
0>
0G
0I
0K
0M
0N
0P
0R
0T
0V
0W
#660
0[
#916
1S
#917
0O
#919
0J
#920
0U
0Q
#924
0H
#925
1X
#927
0L
#1081
0Y
#1252
0A
#1268
0Z
#1740
0\
#4694
0)
#5000
1"
0/
#5224
0*
#5265
0,
#5788
0+
#5891
0-
#5906
19
#5933
0@
#6096
0D
#6140
16
#6275
18
#6283
17
#6358
0E
#6752
0?
#7497
1:
#10000
0"
1/
#10464
0(
#11140
06
#11276
0'
#11283
07
#11639
0.
#15000
1"
0/
#16140
16
#16283
17
#20000
0"
1/
#21140
06
#21283
07
#25000
1"
0/
#26140
16
#26283
17
#30000
0"
1/
#31140
06
#31283
07
#35000
1"
0/
#36140
16
#36283
17
#40000
0"
1/
#41140
06
#41283
07
#45000
1"
0/
#46140
16
#46283
17
#50000
0"
1/
#51140
06
#51283
07
#55000
1"
0/
#56140
16
#56283
17
#60000
b10000000 !
b10000001 !
b1 #
0"
1/
#60964
1]
#60974
1d
#60984
1l
#61140
06
#61283
07
#65000
1"
0/
#66140
16
#66283
17
#66870
09
#66917
1@
#67249
08
#68943
0:
#70000
0"
1/
#71140
06
#71283
07
#71448
1(
#73085
1.
#75000
1"
0/
#76140
16
#76283
17
#80000
0"
1/
#81140
06
#81283
07
#85000
1"
0/
#86140
16
#86283
17
#90000
0"
1/
#91140
06
#91283
07
#95000
1"
0/
#96140
16
#96283
17
#100000
0%
0"
1/
#100984
0=
#101140
06
#101283
07
#105000
1"
0/
#106140
16
#106283
17
#107080
1D
#107989
1E
#108111
xF
#110000
1%
0"
1/
#110984
1=
#111140
06
#111283
07
#115000
1"
0/
#116140
16
#116283
17
#117080
0D
#117989
xE
#120000
b1 !
b0 !
b0 #
0"
1/
#120964
0]
#120974
0d
#120984
0l
#121140
06
#121283
07
#125000
1"
0/
#126140
16
#126283
17
#126870
19
#126917
0@
#127249
18
#128461
1:
#130000
0"
1/
#131140
06
#131283
07
#131448
0(
#132603
0.
#135000
1"
0/
#136140
16
#136283
17
#140000
0"
1/
#141140
06
#141283
07
#145000
1"
0/
#146140
16
#146283
17
#150000
0"
1/
#151140
06
#151283
07
#155000
1"
0/
#156140
16
#156283
17
#160000
0"
1/
#161140
06
#161283
07
#165000
1"
0/
#166140
16
#166283
17
#170000
0"
1/
#171140
06
#171283
07
#175000
1"
0/
#176140
16
#176283
17
#180000
0"
1/
#181140
06
#181283
07
#185000
1"
0/
#186140
16
#186283
17
#190000
0"
1/
#191140
06
#191283
07
#195000
1"
0/
#196140
16
#196283
17
#200000
0"
1/
#201140
06
#201283
07
#205000
1"
0/
#206140
16
#206283
17
#210000
0"
1/
#211140
06
#211283
07
#215000
1"
0/
#216140
16
#216283
17
#220000
0"
1/
#221140
06
#221283
07
#225000
1"
0/
#226140
16
#226283
17
#230000
0"
1/
#231140
06
#231283
07
#235000
1"
0/
#236140
16
#236283
17
#240000
0"
1/
#241140
06
#241283
07
#245000
1"
0/
#246140
16
#246283
17
#250000
0"
1/
#251140
06
#251283
07
#255000
1"
0/
#256140
16
#256283
17
#260000
0"
1/
#261140
06
#261283
07
#265000
1"
0/
#266140
16
#266283
17
#270000
0"
1/
#271140
06
#271283
07
#275000
1"
0/
#276140
16
#276283
17
#280000
0"
1/
#281140
06
#281283
07
#285000
1"
0/
#286140
16
#286283
17
#290000
0$
1&
b10000000 !
b10000001 !
0"
1/
#290964
1]
#290974
1d
#290984
0;
#291130
1B
#291140
06
#291273
1C
#291283
07
#293264
1>
#295000
1"
0/
#296140
16
#296283
17
#296870
09
#297249
08
#297691
1)
#298863
1Y
#298943
0:
#299716
1Z
#299717
1\
#300000
1$
0&
0"
1/
#300984
1;
#301130
0B
#301140
06
#301273
0C
#301283
07
#303006
1*
#303085
1.
#303868
1-
#304236
1+
#305000
1"
0/
#306140
16
#306283
17
#310000
0"
1/
#311140
06
#311283
07
#315000
1"
0/
#316140
16
#316283
17
#320000
0"
1/
#321140
06
#321283
07
#325000
1"
0/
#326140
16
#326283
17
#330000
0"
1/
#331140
06
#331283
07
#335000
1"
0/
#336140
16
#336283
17
#340000
0"
1/
#341140
06
#341283
07
#345000
1"
0/
#346140
16
#346283
17
#350000
0"
1/
#351140
06
#351283
07
#355000
1"
0/
#356140
16
#356283
17
#360000
0"
1/
#361140
06
#361283
07
#365000
1"
0/
#366140
16
#366283
17
#370000
0"
1/
#371140
06
#371283
07
#375000
1"
0/
#376140
16
#376283
17
#380000
0"
1/
#381140
06
#381283
07
#385000
1"
0/
#386140
16
#386283
17
#390000
0"
1/
#391140
06
#391283
07
#395000
1"
0/
#396140
16
#396283
17
#400000
0"
1/
#401140
06
#401283
07
#405000
1"
0/
#406140
16
#406283
17
#410000
0"
1/
#411140
06
#411283
07
#415000
1"
0/
#416140
16
#416283
17
#420000
0"
1/
#421140
06
#421283
07
#425000
1"
0/
#426140
16
#426283
17
#430000
0"
1/
#431140
06
#431283
07
#435000
1"
0/
#436140
16
#436283
17
#440000
0"
1/
#441140
06
#441283
07
#445000
1"
0/
#446140
16
#446283
17
#450000
0"
1/
#451140
06
#451283
07
#455000
1"
0/
#456140
16
#456283
17
#460000
0"
1/
#461140
06
#461283
07
#465000
1"
0/
#466140
16
#466283
17
#470000
0"
1/
#471140
06
#471283
07
#475000
1"
0/
#476140
16
#476283
17
#480000
0"
1/
#481140
06
#481283
07
#485000
1"
0/
#486140
16
#486283
17
#490000
0"
1/
#491140
06
#491283
07
#495000
1"
0/
#496140
16
#496283
17
#500000
0"
1/
#501140
06
#501283
07
#505000
1"
0/
#506140
16
#506283
17
#510000
0"
1/
#511140
06
#511283
07
#515000
1"
0/
#516140
16
#516283
17
#520000
0"
1/
#521140
06
#521283
07
#525000
1"
0/
#526140
16
#526283
17
#530000
0"
1/
#531140
06
#531283
07
#535000
1"
0/
#536140
16
#536283
17
#540000
0"
1/
#541140
06
#541283
07
#545000
1"
0/
#546140
16
#546283
17
#550000
0"
1/
#551140
06
#551283
07
#555000
1"
0/
#556140
16
#556283
17
#560000
0"
1/
#561140
06
#561283
07
#565000
1"
0/
#566140
16
#566283
17
#570000
0"
1/
#571140
06
#571283
07
#575000
1"
0/
#576140
16
#576283
17
#580000
0"
1/
#581140
06
#581283
07
#585000
1"
0/
#586140
16
#586283
17
#590000
0"
1/
#591140
06
#591283
07
#595000
1"
0/
#596140
16
#596283
17
#600000
0"
1/
#601140
06
#601283
07
#605000
1"
0/
#606140
16
#606283
17
#610000
b10010001 !
0"
1/
#610984
1`
#611140
06
#611283
07
#615000
1"
0/
#616140
16
#616283
17
#617368
19
#618959
1:
#618962
0Y
#619732
0Z
#619733
0\
#620000
0"
1/
#621140
06
#621283
07
#623101
0.
#623105
0*
#623884
0-
#624252
0+
#625000
1"
0/
#626140
16
#626283
17
#630000
0"
1/
#631140
06
#631283
07
#635000
1"
0/
#636140
16
#636283
17
#640000
0"
1/
#641140
06
#641283
07
#645000
1"
0/
#646140
16
#646283
17
#650000
0"
1/
#651140
06
#651283
07
#655000
1"
0/
#656140
16
#656283
17
#660000
0"
1/
#661140
06
#661283
07
#665000
1"
0/
#666140
16
#666283
17
#670000
b10000001 !
0"
1/
#670984
0`
#671140
06
#671283
07
#675000
1"
0/
#676140
16
#676283
17
#677368
09
#678959
0:
#678962
1Y
#679732
1Z
#679733
1\
#680000
0"
1/
#681140
06
#681283
07
#683101
1.
#683105
1*
#683884
1-
#684252
1+
#685000
1"
0/
#686140
16
#686283
17
#690000
0"
1/
#691140
06
#691283
07
#695000
1"
0/
#696140
16
#696283
17
#700000
0"
1/
#701140
06
#701283
07
#705000
1"
0/
#706140
16
#706283
17
#710000
0"
1/
#711140
06
#711283
07
#715000
1"
0/
#716140
16
#716283
17
#720000
0"
1/
#721140
06
#721283
07
#725000
1"
0/
#726140
16
#726283
17
#730000
b1 !
b0 !
0"
1/
#730964
0]
#730974
0d
#731140
06
#731283
07
#735000
1"
0/
#736140
16
#736283
17
#736870
19
#737249
18
#738461
1:
#738464
0Y
#739234
0Z
#739235
0\
#740000
0"
1/
#741140
06
#741283
07
#742603
0.
#742607
0*
#743386
0-
#743754
0+
#745000
1"
0/
#746140
16
#746283
17
#750000
0"
1/
#751140
06
#751283
07
#755000
1"
0/
#756140
16
#756283
17
#760000
0"
1/
#761140
06
#761283
07
#765000
1"
0/
#766140
16
#766283
17
#770000
0"
1/
#771140
06
#771283
07
#775000
1"
0/
#776140
16
#776283
17
#780000
0"
1/
#781140
06
#781283
07
#785000
1"
0/
#786140
16
#786283
17
#790000
0"
1/
#791140
06
#791283
07
#795000
1"
0/
#796140
16
#796283
17
#800000
0"
1/
#801140
06
#801283
07
#805000
1"
0/
#806140
16
#806283
17
#810000
0"
1/
#811140
06
#811283
07
#815000
1"
0/
#816140
16
#816283
17
#820000
0"
1/
#821140
06
#821283
07
#825000
1"
0/
#826140
16
#826283
17
#830000
0"
1/
#831140
06
#831283
07
#835000
1"
0/
#836140
16
#836283
17
#840000
0"
1/
#841140
06
#841283
07
#845000
1"
0/
#846140
16
#846283
17
#850000
0"
1/
#851140
06
#851283
07
#855000
1"
0/
#856140
16
#856283
17
#860000
0"
1/
#861140
06
#861283
07
#865000
1"
0/
#866140
16
#866283
17
#870000
0"
1/
#871140
06
#871283
07
#875000
1"
0/
#876140
16
#876283
17
#880000
0"
1/
#881140
06
#881283
07
#885000
1"
0/
#886140
16
#886283
17
#890000
0"
1/
#891140
06
#891283
07
#895000
1"
0/
#896140
16
#896283
17
#900000
0"
1/
#901140
06
#901283
07
#905000
1"
0/
#906140
16
#906283
17
#910000
0"
1/
#911140
06
#911283
07
#915000
1"
0/
#916140
16
#916283
17
#920000
0"
1/
#921140
06
#921283
07
#925000
1"
0/
#926140
16
#926283
17
#930000
0"
1/
#931140
06
#931283
07
#935000
1"
0/
#936140
16
#936283
17
#940000
0"
1/
#941140
06
#941283
07
#945000
1"
0/
#946140
16
#946283
17
#950000
0"
1/
#951140
06
#951283
07
#955000
1"
0/
#956140
16
#956283
17
#960000
0"
1/
#961140
06
#961283
07
#965000
1"
0/
#966140
16
#966283
17
#970000
0"
1/
#971140
06
#971283
07
#975000
1"
0/
#976140
16
#976283
17
#980000
0"
1/
#981140
06
#981283
07
#985000
1"
0/
#986140
16
#986283
17
#990000
0"
1/
#991140
06
#991283
07
#995000
1"
0/
#996140
16
