course_var7.3/interface/simulation/qsim/inter.msim.vcd
$comment
	File created using the following command:
		vcd file inter.msim.vcd -direction
$end
$date
	Wed May 07 23:31:48 2025
$end
$version
	ModelSim Version 10.1d
$end
$timescale
	1ps
$end
$scope module inter_vlg_vec_tst $end
$var reg 8 ! A [7:0] $end
$var reg 1 " C $end
$var reg 8 # DB [7:0] $end
$var reg 1 $ nIOR $end
$var reg 1 % nIOW $end
$var reg 1 & R $end
$var reg 1 ' Start $end
$var wire 1 ( Addr [1] $end
$var wire 1 ) Addr [0] $end
$var wire 1 * HBits $end
$var wire 1 + Input [11] $end
$var wire 1 , Input [10] $end
$var wire 1 - Input [9] $end
$var wire 1 . Input [8] $end
$var wire 1 / Input [7] $end
$var wire 1 0 Input [6] $end
$var wire 1 1 Input [5] $end
$var wire 1 2 Input [4] $end
$var wire 1 3 Input [3] $end
$var wire 1 4 Input [2] $end
$var wire 1 5 Input [1] $end
$var wire 1 6 Input [0] $end
$var wire 1 7 LBits $end
$var wire 1 8 Read $end
$var wire 1 9 Ready $end
$var wire 1 : Result $end
$var wire 1 ; SEL $end
$var wire 1 < sampler $end
$scope module i1 $end
$var wire 1 = gnd $end
$var wire 1 > vcc $end
$var wire 1 ? unknown $end
$var tri1 1 @ devclrn $end
$var tri1 1 A devpor $end
$var tri1 1 B devoe $end
$var wire 1 C inst1|inst2|LPM_MUX_component|auto_generated|_~1_combout $end
$var wire 1 D inst1|inst2|LPM_MUX_component|auto_generated|_~2_combout $end
$var wire 1 E inst1|inst2|LPM_MUX_component|auto_generated|_~3_combout $end
$var wire 1 F inst16~1_combout $end
$var wire 1 G inst1|inst2|LPM_MUX_component|auto_generated|_~4_combout $end
$var wire 1 H inst1|inst1|inst3~regout $end
$var wire 1 I inst1|inst1|inst|LPM_MUX_component|auto_generated|_~0_combout $end
$var wire 1 J inst1|inst1|inst5~regout $end
$var wire 1 K inst1|inst1|inst5~0_combout $end
$var wire 1 L inst1|inst1|inst3~0_combout $end
$var wire 1 M inst1|inst|inst34~combout $end
$var wire 1 N inst1|inst|inst40~combout $end
$var wire 1 O inst1|inst1|inst4~combout $end
$var wire 1 P inst1|inst1|inst7~combout $end
$var wire 1 Q C~combout $end
$var wire 1 R inst~1_combout $end
$var wire 1 S inst~0_combout $end
$var wire 1 T inst~combout $end
$var wire 1 U nIOR~combout $end
$var wire 1 V inst2~feeder_combout $end
$var wire 1 W nIOW~combout $end
$var wire 1 X inst2~regout $end
$var wire 1 Y inst8~combout $end
$var wire 1 Z inst4~combout $end
$var wire 1 [ inst1|inst3|LPM_COUNTER_component|auto_generated|counter_comb_bita0~combout $end
$var wire 1 \ R~combout $end
$var wire 1 ] R~clkctrl_outclk $end
$var wire 1 ^ Start~combout $end
$var wire 1 _ inst1|inst5~combout $end
$var wire 1 ` inst1|inst9~combout $end
$var wire 1 a inst1|inst3|LPM_COUNTER_component|auto_generated|counter_comb_bita0~COUT $end
$var wire 1 b inst1|inst3|LPM_COUNTER_component|auto_generated|counter_comb_bita1~combout $end
$var wire 1 c inst1|inst3|LPM_COUNTER_component|auto_generated|counter_comb_bita1~COUT $end
$var wire 1 d inst1|inst3|LPM_COUNTER_component|auto_generated|counter_comb_bita2~combout $end
$var wire 1 e inst1|inst3|LPM_COUNTER_component|auto_generated|counter_comb_bita2~COUT $end
$var wire 1 f inst1|inst3|LPM_COUNTER_component|auto_generated|counter_comb_bita3~combout $end
$var wire 1 g inst15~combout $end
$var wire 1 h inst15~clkctrl_outclk $end
$var wire 1 i inst8~clkctrl_outclk $end
$var wire 1 j inst1|inst|inst~combout $end
$var wire 1 k inst16~0_combout $end
$var wire 1 l inst1|inst|inst32~combout $end
$var wire 1 m inst1|inst|inst36~combout $end
$var wire 1 n inst1|inst|inst24~0_combout $end
$var wire 1 o inst4~clkctrl_outclk $end
$var wire 1 p inst1|inst|inst41~combout $end
$var wire 1 q inst1|inst|inst42~combout $end
$var wire 1 r inst1|inst|inst39~combout $end
$var wire 1 s inst1|inst|inst24~2_combout $end
$var wire 1 t inst1|inst|inst38~combout $end
$var wire 1 u inst1|inst|inst37~combout $end
$var wire 1 v inst1|inst|inst35~combout $end
$var wire 1 w inst1|inst|inst24~1_combout $end
$var wire 1 x inst1|inst2|LPM_MUX_component|auto_generated|_~0_combout $end
$var wire 1 y inst16~4_combout $end
$var wire 1 z inst16~5_combout $end
$var wire 1 { inst1|inst|inst33~combout $end
$var wire 1 | inst1|inst2|LPM_MUX_component|auto_generated|_~5_combout $end
$var wire 1 } inst16~2_combout $end
$var wire 1 ~ inst16~3_combout $end
$var wire 1 !! inst1|inst3|LPM_COUNTER_component|auto_generated|safe_q [3] $end
$var wire 1 "! inst1|inst3|LPM_COUNTER_component|auto_generated|safe_q [2] $end
$var wire 1 #! inst1|inst3|LPM_COUNTER_component|auto_generated|safe_q [1] $end
$var wire 1 $! inst1|inst3|LPM_COUNTER_component|auto_generated|safe_q [0] $end
$var wire 1 %! DB~combout [7] $end
$var wire 1 &! DB~combout [6] $end
$var wire 1 '! DB~combout [5] $end
$var wire 1 (! DB~combout [4] $end
$var wire 1 )! DB~combout [3] $end
$var wire 1 *! DB~combout [2] $end
$var wire 1 +! DB~combout [1] $end
$var wire 1 ,! DB~combout [0] $end
$var wire 1 -! inst13|latches [6] $end
$var wire 1 .! inst13|latches [5] $end
$var wire 1 /! inst13|latches [4] $end
$var wire 1 0! inst13|latches [3] $end
$var wire 1 1! inst13|latches [2] $end
$var wire 1 2! inst13|latches [1] $end
$var wire 1 3! inst13|latches [0] $end
$var wire 1 4! inst12|latches [4] $end
$var wire 1 5! inst12|latches [3] $end
$var wire 1 6! inst12|latches [2] $end
$var wire 1 7! inst12|latches [1] $end
$var wire 1 8! inst12|latches [0] $end
$var wire 1 9! A~combout [7] $end
$var wire 1 :! A~combout [6] $end
$var wire 1 ;! A~combout [5] $end
$var wire 1 <! A~combout [4] $end
$var wire 1 =! A~combout [3] $end
$var wire 1 >! A~combout [2] $end
$var wire 1 ?! A~combout [1] $end
$var wire 1 @! A~combout [0] $end
$var wire 1 A! inst1|inst1|inst|LPM_MUX_component|auto_generated|result_node [0] $end
$var wire 1 B! inst14|latches [1] $end
$var wire 1 C! inst14|latches [0] $end
$upscope $end
$upscope $end
$enddefinitions $end
#0
$dumpvars
b0 !
0"
b0 #
1$
1%
1&
0'
x)
x(
x*
x6
x5
x4
x3
x2
x1
x0
x/
x.
x-
x,
x+
x7
x8
x9
x:
x;
x<
0=
1>
x?
1@
1A
1B
xC
xD
xE
xF
xG
xH
xI
xJ
xK
xL
xM
xN
xO
xP
0Q
xR
xS
xT
1U
1V
1W
xX
xY
xZ
x[
1\
x]
0^
x_
x`
xa
xb
xc
xd
xe
xf
xg
xh
xi
xj
xk
xl
xm
xn
xo
xp
xq
xr
xs
xt
xu
xv
xw
xx
xy
xz
x{
x|
x}
x~
x$!
x#!
x"!
x!!
0,!
0+!
0*!
0)!
0(!
0'!
0&!
0%!
x3!
x2!
x1!
x0!
x/!
x.!
x-!
x8!
x7!
x6!
x5!
x4!
0@!
0?!
0>!
0=!
0<!
0;!
0:!
09!
xA!
xC!
xB!
$end
#143
1]
#267
0H
0J
0X
0$!
0#!
0"!
0!!
#660
1L
#906
0K
#956
0_
#1083
0~
#1166
1R
#1308
1c
#1319
0e
#1345
0a
#1373
1[
#1412
1k
#1608
0}
#1753
0Z
#1754
0Y
#1756
0g
#1814
0d
#1825
0f
#1851
0b
#2073
0D
#2075
0E
#2236
1T
#2382
1I
#2485
05!
#2652
0p
#2655
0.!
#2657
04!
#2663
0B!
#2664
0C!
#2721
1y
#2750
0P
#2753
0x
#2813
0F
#2844
0/!
#2847
0{
#2848
0-!
0u
0v
#2849
0O
#2880
0o
#2884
0i
#2937
07!
#2940
03!
#2951
02!
#2952
01!
#2954
06!
#2955
08!
#2999
0q
#3110
0m
#3113
0l
#3120
00!
0M
#3122
0N
#3137
0r
#3139
0j
0t
#3171
0A!
#3877
0G
#3917
0C
#3934
1z
#4037
0h
#4357
08
#4461
0s
#4482
0n
#4565
0w
#5000
1"
0<
#5227
0:
#5238
0|
#5468
19
#5901
0*
#5984
1Q
#6055
0`
#6306
1S
#6337
07
#6496
0;
#6699
0,
#6860
0+
#7139
04
#7143
0-
#7365
00
#7375
02
#7486
0.
#7506
0/
#7511
01
#7545
0)
#7572
0(
#7847
05
#7857
06
#8186
03
#8366
0I
#9155
1A!
#10000
0&
0"
1<
#10984
0Q
#11140
0\
#11283
0]
#13300
1H
#13366
1I
#13693
0L
#13939
1K
#14155
0A!
#15000
1"
0<
#15984
1Q
#18366
0I
#19155
1A!
#20000
0"
1<
#20984
0Q
#23300
1J
0H
#23366
1I
#23693
1L
0K
#23939
1K
#24155
0A!
#25000
1"
0<
#25984
1Q
#28366
0I
#29155
1A!
#30000
b10000000 !
b10000100 !
b10000101 !
b100000 #
b110000 #
b110100 #
b110101 #
0%
0"
1<
#30964
1*!
#30975
1>!
#30984
0Q
1,!
#30985
19!
1'!
#30995
1(!
#31005
0W
1@!
#33300
1H
#33366
1I
#33693
0L
#33939
0K
#34155
0A!
#35000
1"
0<
#35984
1Q
#37266
0R
#37291
0S
#38366
0I
#38730
0T
#38781
1Y
#38939
1g
#39155
1A!
#39911
1i
#40000
1%
0"
1<
#40984
0Q
#41005
1W
#41220
1h
#41485
1/!
#41486
1.!
#41488
11!
#41489
13!
#42958
1j
#42990
1;
1M
#43024
1{
#43026
1v
#43300
0J
0H
#43364
17
#43366
1I
#43693
1L
1K
#43747
1G
#43939
0K
#44155
0A!
#45000
1"
0<
#45108
1|
#45675
14
#45984
1Q
#46016
12
#46342
11
#46406
16
#47158
0Y
#47696
0g
#48288
0i
#48366
0I
#49155
1A!
#49977
0h
#50000
0"
1<
#50984
0Q
#51741
07
#53300
1H
#53366
1I
#53693
0L
#53939
1K
#54155
0A!
#55000
1"
0<
#55984
1Q
#58366
0I
#59155
1A!
#60000
0"
1<
#60984
0Q
#63300
1J
0H
#63366
1I
#63693
1L
0K
#63939
1K
#64155
0A!
#65000
1"
0<
#65984
1Q
#68366
0I
#69155
1A!
#70000
b10110101 #
b10111101 #
b10111111 #
b10011111 #
b10001111 #
b10001011 #
0%
0"
1<
#70964
0*!
#70984
0Q
1+!
#70985
0'!
#70994
1)!
#70995
0(!
#71005
0W
1%!
#73300
1H
#73366
1I
#73693
0L
#73939
0K
#74155
0A!
#75000
1"
0<
#75984
1Q
#77363
1Z
#77696
1g
#78366
0I
#78490
1o
#79155
1A!
#79977
1h
#80000
1%
0"
1<
#80052
15!
#80067
17!
#80069
18!
#80984
0Q
#81005
1W
#81511
1*
#81719
1p
#81747
1r
#81748
1t
#82557
1s
#82984
1C
#83078
1w
#83300
0J
0H
#83366
1I
#83409
0s
#83693
1L
1K
#83939
0K
#84155
0A!
#84266
1,
#84616
1.
#84620
1/
#85000
1"
0<
#85984
1Q
#87168
0Z
#87696
0g
#88295
0o
#88366
0I
#89155
1A!
#89977
0h
#90000
0"
1<
#90984
0Q
#91316
0*
#93300
1H
#93366
1I
#93693
0L
#93939
1K
#94155
0A!
#95000
1"
0<
#95984
1Q
#98366
0I
#99155
1A!
#100000
0"
1<
#100984
0Q
#103300
1J
0H
#103366
1I
#103693
1L
0K
#103939
1K
#104155
0A!
#105000
1"
0<
#105984
1Q
#108366
0I
#109155
1A!
#110000
b10001010 #
b1010 #
b10 #
b0 #
0"
1<
#110984
0Q
0+!
0,!
#110994
0)!
#111005
0%!
#113300
1H
#113366
1I
#113693
0L
#113939
0K
#114155
0A!
#115000
1"
0<
#115984
1Q
#118366
0I
#119155
1A!
#120000
0"
1<
#120984
0Q
#123300
0J
0H
#123366
1I
#123693
1L
1K
#123939
0K
#124155
0A!
#125000
1"
0<
#125984
1Q
#128366
0I
#129155
1A!
#130000
0$
0"
1<
#130984
0Q
#131005
0U
#132827
1X
#133300
1H
#133366
1I
#133643
1~
#133693
0L
#133939
1K
#134155
0A!
#135000
1"
0<
#135984
1Q
#136917
18
#137787
1:
#138366
0I
#139155
1A!
#140000
1'
1$
0"
1<
#140974
1^
#140984
0Q
#141005
1U
#143300
1J
0H
#143366
1I
#143693
1L
0K
#143939
1K
#144155
0A!
#145000
1"
0<
#145984
1Q
#147029
1`
#148366
0I
#149155
1A!
#150000
0"
1<
#150456
1$!
#150984
0Q
#151145
1_
#151534
1a
#151562
0[
#151567
0C
#151573
0k
#151827
0G
#152040
1b
#152882
0y
#153188
0|
#153300
1H
#153366
1I
#153693
0L
#153939
0K
#154095
0z
#154155
0A!
#155000
1"
0<
#155657
09
#155984
1Q
#156135
0~
#158366
0I
#159155
1A!
#160000
0'
0"
1<
#160279
0:
#160456
0$!
1#!
#160974
0^
#160984
0Q
#161497
0c
#161524
0b
#161534
0a
#161562
1[
#161567
1C
#161573
1k
#161601
1|
#161620
1c
#162040
1b
#162882
1y
#162938
0C
#162942
1x
#163300
0J
0H
#163366
1I
#163693
1L
1K
#163939
0K
#164095
1z
#164155
0A!
#165000
1"
0<
#165984
1Q
#166135
1~
#168366
0I
#169155
1A!
#170000
0"
1<
#170279
1:
#170456
1$!
#170984
0Q
#171534
1a
#171562
0[
#171567
1C
#171573
0k
#171620
0c
#171827
1G
#172040
0b
#172126
1d
#172882
0y
#173300
1H
#173366
1I
#173693
0L
#173939
1K
#174095
0z
#174155
0A!
#175000
1"
0<
#175984
1Q
#176135
0~
#178366
0I
#179155
1A!
#180000
0"
1<
#180279
0:
#180456
0$!
0#!
1"!
#180984
0Q
#181497
1c
#181524
1b
#181534
0a
#181562
1[
#181567
0C
#181573
1k
#181591
1y
#181797
1}
#182040
0b
#182938
1C
#182942
0x
#183300
1J
0H
#183366
1I
#183693
1L
0K
#183782
1~
#183939
1K
#184155
0A!
#185000
1"
0<
#185984
1Q
#187926
1:
#188366
0I
#189155
1A!
#190000
0"
1<
#190456
1$!
#190984
0Q
#191534
1a
#191562
0[
#191567
0C
#191573
0k
#191827
0G
#192040
1b
#192905
0y
#193188
0|
#193300
1H
#193366
1I
#193693
0L
#193939
0K
#194058
0}
#194155
0A!
#195000
1"
0<
#195984
1Q
#196043
0~
#198366
0I
#199155
1A!
#200000
0"
1<
#200187
0:
#200456
0$!
1#!
#200984
0Q
#201497
0c
#201524
0b
#201534
0a
#201562
1[
#201567
1C
#201573
1k
#201583
1e
#201601
1|
#201620
1c
#201706
0e
#202040
1b
#202471
1}
#202905
1y
#202938
0C
#202942
1x
#203300
0J
0H
#203366
1I
#203693
1L
1K
#203939
0K
#204155
0A!
#204456
1~
#205000
1"
0<
#205984
1Q
#208366
0I
#208600
1:
#209155
1A!
#210000
0"
1<
#210456
1$!
#210984
0Q
#211534
1a
#211562
0[
#211567
1C
#211573
0k
#211620
0c
#211706
1e
#211827
1G
#212040
0b
#212126
0d
#212212
1f
#213300
1H
#213366
1I
#213693
0L
#213939
1K
#214155
0A!
#215000
1"
0<
#215984
1Q
#218366
0I
#219155
1A!
#220000
0"
1<
#220456
0$!
0#!
0"!
1!!
#220984
0Q
#221101
0f
#221497
1c
#221508
0e
#221524
1b
#221534
0a
#221562
1[
#221567
0C
#221573
1k
#221591
0y
#221797
0}
#222014
1f
#222040
0b
#222262
1D
#222882
1y
#222938
1C
#222942
0x
#223300
1J
0H
#223366
1I
#223693
1L
0K
#223782
0~
#223939
1K
#224155
0A!
#225000
1"
0<
#225984
1Q
#227926
0:
#228366
0I
#229155
1A!
#230000
0"
1<
#230456
1$!
#230984
0Q
#231148
1E
#231534
1a
#231562
0[
#231567
0C
#231572
0D
#231573
0k
#231827
0G
#231886
1F
#232040
1b
#232882
0y
#233188
0|
#233250
1z
#233300
1H
#233366
1I
#233693
0L
#233939
0K
#234155
0A!
#235000
1"
0<
#235290
1~
#235984
1Q
#238366
0I
#239155
1A!
#239434
1:
#240000
0"
1<
#240456
0$!
1#!
#240984
0Q
#241148
0E
#241497
0c
#241524
0b
#241534
0a
#241562
1[
#241567
1C
#241572
1D
#241573
1k
#241601
1|
#241620
1c
#241886
0F
#242040
1b
#242882
1y
#242903
1F
#242938
0C
#242942
1x
#243250
0z
#243300
0J
0H
#243366
1I
#243693
1L
1K
#243939
0K
#244155
0A!
#244267
1z
#245000
1"
0<
#245984
1Q
#248366
0I
#249155
1A!
#250000
0"
1<
#250456
1$!
#250984
0Q
#251148
1E
#251534
1a
#251562
0[
#251567
1C
#251572
0D
#251573
0k
#251620
0c
#251827
1G
#252040
0b
#252126
1d
#252143
0F
#252882
0y
#253300
1H
#253366
1I
#253507
0z
#253693
0L
#253939
1K
#254155
0A!
#255000
1"
0<
#255547
0~
#255984
1Q
#258366
0I
#259155
1A!
#259691
0:
#260000
0"
1<
#260456
0$!
0#!
1"!
#260984
0Q
#261148
0E
#261497
1c
#261524
1b
#261534
0a
#261562
1[
#261567
0C
#261572
1D
#261573
1k
#261591
1y
#262040
0b
#262143
1F
#262804
1z
#262903
0F
#262938
1C
#262942
0x
#263300
1J
0H
#263366
1I
#263693
1L
0K
#263939
1K
#264155
0A!
#264844
1~
#265000
1"
0<
#265984
1Q
#268366
0I
#268988
1:
#269155
1A!
#270000
0"
1<
#270456
1$!
#270984
0Q
#271148
1E
#271534
1a
#271562
0[
#271567
0C
#271572
0D
#271573
0k
#271827
0G
#271886
1F
#272040
1b
#272905
0y
#273188
0|
#273300
1H
#273366
1I
#273693
0L
#273939
0K
#274118
0z
#274155
0A!
#275000
1"
0<
#275984
1Q
#276158
0~
#278366
0I
#279155
1A!
#280000
0"
1<
#280302
0:
#280456
0$!
1#!
#280984
0Q
#281148
0E
#281497
0c
#281524
0b
#281534
0a
#281562
1[
#281567
1C
#281572
1D
#281573
1k
#281583
1e
#281601
1|
#281620
1c
#281706
0e
#281886
0F
#282040
1b
#282903
1F
#282905
1y
#282938
0C
#282942
1x
#283300
0J
0H
#283366
1I
#283693
1L
1K
#283939
0K
#284118
1z
#284155
0A!
#285000
1"
0<
#285984
1Q
#286158
1~
#288366
0I
#289155
1A!
#290000
0"
1<
#290302
1:
#290456
1$!
#290984
0Q
#291148
1E
#291534
1a
#291562
0[
#291567
1C
#291572
0D
#291573
0k
#291620
0c
#291706
1e
#291827
1G
#292040
0b
#292126
0d
#292143
0F
#292212
0f
#293300
1H
#293366
1I
#293693
0L
#293939
1K
#294155
0A!
#295000
1"
0<
#295984
1Q
#298366
0I
#299155
1A!
#300000
0"
1<
#300456
0$!
0#!
0"!
0!!
#300984
0Q
#301101
1f
#301145
0_
#301148
0E
#301497
1c
#301508
0e
#301524
1b
#301534
0a
#301562
1[
#301567
0C
#301572
1D
#301573
1k
#301591
0y
#301732
0`
#302014
0f
#302040
0b
#302143
1F
#302262
0D
#302804
0z
#302882
1y
#302903
0F
#302938
1C
#302942
0x
#303300
1J
0H
#303366
1I
#303507
1z
#303693
1L
0K
#303939
1K
#304155
0A!
#305000
1"
0<
#305657
19
#305984
1Q
#308366
0I
#309155
1A!
#310000
0"
1<
#310984
0Q
#313300
1H
#313366
1I
#313693
0L
#313939
0K
#314155
0A!
#315000
1"
0<
#315984
1Q
#318366
0I
#319155
1A!
#320000
0"
1<
#320984
0Q
#323300
0J
0H
#323366
1I
#323693
1L
1K
#323939
0K
#324155
0A!
#325000
1"
0<
#325984
1Q
#328366
0I
#329155
1A!
#330000
0"
1<
#330984
0Q
#333300
1H
#333366
1I
#333693
0L
#333939
1K
#334155
0A!
#335000
1"
0<
#335984
1Q
#338366
0I
#339155
1A!
#340000
0"
1<
#340984
0Q
#343300
1J
0H
#343366
1I
#343693
1L
0K
#343939
1K
#344155
0A!
#345000
1"
0<
#345984
1Q
#348366
0I
#349155
1A!
#350000
0"
1<
#350984
0Q
#353300
1H
#353366
1I
#353693
0L
#353939
0K
#354155
0A!
#355000
1"
0<
#355984
1Q
#358366
0I
#359155
1A!
#360000
b100000 #
b110000 #
b110100 #
0%
0"
1<
#360964
1*!
#360984
0Q
#360985
1'!
#360995
1(!
#361005
0W
#363300
0J
0H
#363366
1I
#363693
1L
1K
#363939
0K
#364155
0A!
#365000
1"
0<
#365984
1Q
#367158
1Y
#367696
1g
#368026
0X
#368288
1i
#368366
0I
#368842
0~
#369155
1A!
#369866
03!
#369977
1h
#370000
1%
0"
1<
#370984
0Q
#371005
1W
#371715
0j
#371741
17
#372116
08
#372478
1n
#372986
0:
#373300
1H
#373366
1I
#373693
0L
#373939
1K
#374155
0A!
#374783
06
#375000
1"
0<
#375984
1Q
#377158
0Y
#377696
0g
#378288
0i
#378366
0I
#379155
1A!
#379977
0h
#380000
0"
1<
#380984
0Q
#381741
07
#383300
1J
0H
#383366
1I
#383693
1L
0K
#383939
1K
#384155
0A!
#385000
1"
0<
#385984
1Q
#388366
0I
#389155
1A!
#390000
0"
1<
#390984
0Q
#393300
1H
#393366
1I
#393693
0L
#393939
0K
#394155
0A!
#395000
1"
0<
#395984
1Q
#398366
0I
#399155
1A!
#400000
b110101 #
b10110101 #
b10111101 #
b10111111 #
b10101111 #
b10101011 #
0%
0"
1<
#400964
0*!
#400984
0Q
1+!
1,!
#400994
1)!
#400995
0(!
#401005
0W
1%!
#403300
0J
0H
#403366
1I
#403693
1L
1K
#403939
0K
#404155
0A!
#405000
1"
0<
#405984
1Q
#407363
1Z
#407696
1g
#408366
0I
#408490
1o
#409155
1A!
#409977
1h
#410000
1%
0"
1<
#410064
1C!
#410650
1O
#410984
0Q
#411005
1W
#411404
1I
#411511
1*
#412193
0A!
#413300
1H
#413693
0L
#413939
1K
#413940
0I
#414729
1A!
#414945
1)
#415000
1"
0<
#415984
1Q
#417168
0Z
#417696
0g
#418295
0o
#419977
0h
#420000
0"
1<
#420984
0Q
#421316
0*
#423300
1J
0H
#423693
1L
0K
#423939
1K
#423940
1I
#424729
0A!
#425000
1"
0<
#425984
1Q
#430000
0"
1<
#430984
0Q
#433300
1H
#433693
0L
#433939
0K
#433940
0I
#434729
1A!
#435000
1"
0<
#435984
1Q
#440000
0$
b10001011 #
b10001010 #
b1010 #
b10 #
b0 #
0"
1<
#440984
0Q
0+!
0,!
#440985
0'!
#440994
0)!
#441005
0U
0%!
#442827
1X
#443300
0J
0H
#443643
1~
#443693
1L
1K
#443939
0K
#443940
1I
#444729
0A!
#445000
1"
0<
#445984
1Q
#446917
18
#447787
1:
#450000
1'
1$
0"
1<
#450974
1^
#450984
0Q
#451005
1U
#453300
1H
#453693
0L
#453939
1K
#453940
0I
#454729
1A!
#455000
1"
0<
#455984
1Q
#457029
1`
#460000
0"
1<
#460984
0Q
#463300
1J
0H
#463693
1L
0K
#463939
1K
#463940
1I
#464729
0A!
#465000
1"
0<
#465984
1Q
#470000
0'
0"
1<
#470974
0^
#470984
0Q
#473300
1H
#473693
0L
#473939
0K
#473940
0I
#474729
1A!
#475000
1"
0<
#475984
1Q
#476030
1$!
#476719
1_
#477029
0`
#477108
1a
#477136
0[
#477141
0C
#477147
0k
#477306
1`
#477401
0G
#477614
1b
#478456
0y
#478762
0|
#479669
0z
#480000
0"
1<
#480984
0Q
#481231
09
#481709
0~
#483300
0J
0H
#483693
1L
1K
#483939
0K
#483940
1I
#484729
0A!
#485000
1"
0<
#485853
0:
#485984
1Q
#490000
0"
1<
#490984
0Q
#493300
1H
#493693
0L
#493939
1K
#493940
0I
#494729
1A!
#495000
1"
0<
#495984
1Q
#496030
0$!
1#!
#497071
0c
#497098
0b
#497108
0a
#497136
1[
#497141
1C
#497175
1|
#497194
1c
#497614
1b
#498512
0C
#500000
0"
1<
#500984
0Q
#503300
1J
0H
#503693
1L
0K
#503939
1K
#503940
1I
#504729
0A!
#505000
1"
0<
#505984
1Q
#510000
0"
1<
#510984
0Q
#513300
1H
#513693
0L
#513939
0K
#513940
0I
#514729
1A!
#515000
1"
0<
#515984
1Q
#516030
1$!
#517108
1a
#517136
0[
#517141
1C
#517194
0c
#517401
1G
#517614
0b
#517700
1d
#520000
0"
1<
#520984
0Q
#523300
0J
0H
#523693
1L
1K
#523939
0K
#523940
1I
#524729
0A!
#525000
1"
0<
#525984
1Q
#530000
0"
1<
#530984
0Q
#533300
1H
#533693
0L
#533939
1K
#533940
0I
#534729
1A!
#535000
1"
0<
#535984
1Q
#536030
0$!
0#!
1"!
#537071
1c
#537098
1b
#537108
0a
#537136
1[
#537141
0C
#537165
1y
#537175
1k
#537371
1}
#537614
0b
#538479
0y
#538512
1C
#539356
1~
#539850
1y
#540000
0"
1<
#540984
0Q
#543300
1J
0H
#543500
1:
#543693
1L
0K
#543939
1K
#543940
1I
#544729
0A!
#545000
1"
0<
#545984
1Q
#550000
0"
1<
#550984
0Q
#553300
1H
#553693
0L
#553939
0K
#553940
0I
#554729
1A!
#555000
1"
0<
#555984
1Q
#556030
1$!
#557108
1a
#557136
0[
#557141
0C
#557147
0k
#557401
0G
#557614
1b
#558479
0y
#558762
0|
#559632
0}
#560000
0"
1<
#560984
0Q
#561617
0~
#563300
0J
0H
#563693
1L
1K
#563939
0K
#563940
1I
#564729
0A!
#565000
1"
0<
#565761
0:
#565984
1Q
#570000
0"
1<
#570984
0Q
#573300
1H
#573693
0L
#573939
1K
#573940
0I
#574729
1A!
#575000
1"
0<
#575984
1Q
#576030
0$!
1#!
#577071
0c
#577098
0b
#577108
0a
#577136
1[
#577141
1C
#577157
1e
#577175
1|
#577194
1c
#577280
0e
#577614
1b
#578045
1}
#578479
1y
#578512
0C
#579850
0y
#580000
0"
1<
#580030
1~
#580984
0Q
#583300
1J
0H
#583693
1L
0K
#583939
1K
#583940
1I
#584174
1:
#584729
0A!
#585000
1"
0<
#585984
1Q
#590000
0"
1<
#590984
0Q
#593300
1H
#593693
0L
#593939
0K
#593940
0I
#594729
1A!
#595000
1"
0<
#595984
1Q
#596030
1$!
#597108
1a
#597136
0[
#597141
1C
#597194
0c
#597280
1e
#597401
1G
#597614
0b
#597700
0d
#597786
1f
#598479
1y
#600000
0"
1<
#600984
0Q
#603300
0J
0H
#603693
1L
1K
#603939
0K
#603940
1I
#604729
0A!
#605000
1"
0<
#605984
1Q
#610000
0"
1<
#610984
0Q
#613300
1H
#613693
0L
#613939
1K
#613940
0I
#614729
1A!
#615000
1"
0<
#615984
1Q
#616030
0$!
0#!
0"!
1!!
#616675
0f
#617071
1c
#617082
0e
#617098
1b
#617108
0a
#617136
1[
#617141
0C
#617165
0y
#617175
1k
#617371
0}
#617588
1f
#617614
0b
#617836
1D
#618484
1y
#618512
1C
#619356
0~
#620000
0"
1<
#620984
0Q
#623300
1J
0H
#623500
0:
#623693
1L
0K
#623939
1K
#623940
1I
#624729
0A!
#625000
1"
0<
#625984
1Q
#630000
0"
1<
#630984
0Q
#633300
1H
#633693
0L
#633939
0K
#633940
0I
#634729
1A!
#635000
1"
0<
#635984
1Q
#636030
1$!
#636722
1E
#637108
1a
#637136
0[
#637141
0C
#637146
0D
#637147
0k
#637401
0G
#637460
1F
#637614
1b
#638456
0y
#638762
0|
#638824
1z
#640000
0"
1<
#640864
1~
#640984
0Q
#643300
0J
0H
#643693
1L
1K
#643939
0K
#643940
1I
#644729
0A!
#645000
1"
0<
#645008
1:
#645984
1Q
#650000
0"
1<
#650984
0Q
#653300
1H
#653693
0L
#653939
1K
#653940
0I
#654729
1A!
#655000
1"
0<
#655984
1Q
#656030
0$!
1#!
#656722
0E
#657071
0c
#657098
0b
#657108
0a
#657136
1[
#657141
1C
#657146
1D
#657175
1|
#657194
1c
#657460
0F
#657614
1b
#658477
1F
#658512
0C
#658824
0z
#659841
1z
#660000
0"
1<
#660984
0Q
#663300
1J
0H
#663693
1L
0K
#663939
1K
#663940
1I
#664729
0A!
#665000
1"
0<
#665984
1Q
#670000
0"
1<
#670984
0Q
#673300
1H
#673693
0L
#673939
0K
#673940
0I
#674729
1A!
#675000
1"
0<
#675984
1Q
#676030
1$!
#676722
1E
#677108
1a
#677136
0[
#677141
1C
#677146
0D
#677194
0c
#677401
1G
#677614
0b
#677700
1d
#677717
0F
#679081
0z
#680000
0"
1<
#680984
0Q
#681121
0~
#683300
0J
0H
#683693
1L
1K
#683939
0K
#683940
1I
#684729
0A!
#685000
1"
0<
#685265
0:
#685984
1Q
#690000
0"
1<
#690984
0Q
#693300
1H
#693693
0L
#693939
1K
#693940
0I
#694729
1A!
#695000
1"
0<
#695984
1Q
#696030
0$!
0#!
1"!
#696722
0E
#697071
1c
#697098
1b
#697108
0a
#697136
1[
#697141
0C
#697146
1D
#697165
1y
#697175
1k
#697614
0b
#697717
1F
#698378
1z
#698477
0F
#698479
0y
#698512
1C
#699692
0z
#699850
1y
#700000
0"
1<
#700984
0Q
#701063
1z
#703103
1~
#703300
1J
0H
#703693
1L
0K
#703939
1K
#703940
1I
#704729
0A!
#705000
1"
0<
#705984
1Q
#707247
1:
#710000
0"
1<
#710984
0Q
#713300
1H
#713693
0L
#713939
0K
#713940
0I
#714729
1A!
#715000
1"
0<
#715984
1Q
#716030
1$!
#716722
1E
#717108
1a
#717136
0[
#717141
0C
#717146
0D
#717147
0k
#717401
0G
#717460
1F
#717614
1b
#718479
0y
#718762
0|
#719692
0z
#720000
0"
1<
#720984
0Q
#721732
0~
#723300
0J
0H
#723693
1L
1K
#723939
0K
#723940
1I
#724729
0A!
#725000
1"
0<
#725876
0:
#725984
1Q
#730000
0"
1<
#730984
0Q
#733300
1H
#733693
0L
#733939
1K
#733940
0I
#734729
1A!
#735000
1"
0<
#735984
1Q
#736030
0$!
1#!
#736722
0E
#737071
0c
#737098
0b
#737108
0a
#737136
1[
#737141
1C
#737146
1D
#737157
1e
#737175
1|
#737194
1c
#737280
0e
#737460
0F
#737614
1b
#738477
1F
#738479
1y
#738512
0C
#739692
1z
#739850
0y
#740000
0"
1<
#740984
0Q
#741063
0z
#743300
1J
0H
