course_var3.4/interface/simulation/qsim/int_v1.msim.vcd
$comment
	File created using the following command:
		vcd file int_v1.msim.vcd -direction
$end
$date
	Fri Jun 06 01:01:49 2025
$end
$version
	ModelSim Version 10.1d
$end
$timescale
	1ps
$end
$scope module int_v1_vlg_vec_tst $end
$var reg 8 ! A [7:0] $end
$var reg 1 " C $end
$var reg 2 # DB [1:0] $end
$var reg 1 $ nIOR $end
$var reg 1 % nIOW $end
$var reg 1 & R $end
$var wire 1 ' cs [1] $end
$var wire 1 ( cs [0] $end
$var wire 1 ) Read $end
$var wire 1 * Result [2] $end
$var wire 1 + Result [1] $end
$var wire 1 , Result [0] $end
$var wire 1 - SEL $end
$var wire 1 . sampler $end
$scope module i1 $end
$var wire 1 / gnd $end
$var wire 1 0 vcc $end
$var wire 1 1 unknown $end
$var tri1 1 2 devclrn $end
$var tri1 1 3 devpor $end
$var tri1 1 4 devoe $end
$var wire 1 5 C~combout $end
$var wire 1 6 C~clkctrl_outclk $end
$var wire 1 7 inst~1_combout $end
$var wire 1 8 inst~0_combout $end
$var wire 1 9 inst~combout $end
$var wire 1 : nIOR~combout $end
$var wire 1 ; inst2~feeder_combout $end
$var wire 1 < nIOW~combout $end
$var wire 1 = inst2~regout $end
$var wire 1 > inst13~combout $end
$var wire 1 ? inst14~combout $end
$var wire 1 @ inst4|inst3|inst1|dffs[4]~feeder_combout $end
$var wire 1 A R~combout $end
$var wire 1 B R~clkctrl_outclk $end
$var wire 1 C inst4|inst11~0_combout $end
$var wire 1 D inst4|inst11~1_combout $end
$var wire 1 E inst4|inst11~regout $end
$var wire 1 F inst4|inst3|inst1|dffs[0]~0_combout $end
$var wire 1 G inst4|inst3|inst1|dffs[1]~feeder_combout $end
$var wire 1 H inst4|inst3|inst1|dffs[2]~feeder_combout $end
$var wire 1 I inst19~0_combout $end
$var wire 1 J inst19~1_combout $end
$var wire 1 K inst16~0_combout $end
$var wire 1 L inst16~1_combout $end
$var wire 1 M inst17~0_combout $end
$var wire 1 N inst17~combout $end
$var wire 1 O DB~combout [1] $end
$var wire 1 P DB~combout [0] $end
$var wire 1 Q A~combout [7] $end
$var wire 1 R A~combout [6] $end
$var wire 1 S A~combout [5] $end
$var wire 1 T A~combout [4] $end
$var wire 1 U A~combout [3] $end
$var wire 1 V A~combout [2] $end
$var wire 1 W A~combout [1] $end
$var wire 1 X A~combout [0] $end
$var wire 1 Y inst4|inst3|inst1|dffs [4] $end
$var wire 1 Z inst4|inst3|inst1|dffs [3] $end
$var wire 1 [ inst4|inst3|inst1|dffs [2] $end
$var wire 1 \ inst4|inst3|inst1|dffs [1] $end
$var wire 1 ] inst4|inst3|inst1|dffs [0] $end
$upscope $end
$upscope $end
$enddefinitions $end
#0
$dumpvars
b0 !
0"
b0 #
1$
1%
0&
x(
x'
x)
x,
x+
x*
x-
x.
0/
10
x1
12
13
14
05
x6
x7
x8
x9
1:
1;
1<
x=
x>
x?
x@
0A
xB
xC
xD
0E
xF
xG
xH
xI
xJ
xK
xL
xM
xN
0P
0O
0X
0W
0V
0U
0T
0S
0R
0Q
x]
x\
x[
xZ
xY
$end
#143
06
0B
#267
0=
0Y
0]
0\
0[
0Z
#907
0G
#914
0H
#917
0@
#1056
0K
#1057
0I
#1107
1F
#1353
0M
#1601
0N
0L
#1652
0J
#4069
0)
#5326
0,
#5336
0+
#5403
0>
#5824
0*
#5887
17
#5941
08
#5990
0C
#6331
0?
#6568
0D
#6930
19
#9141
0'
#10000
1"
0.
#10458
0(
#10665
0-
#11140
15
#11283
16
#20000
0"
1.
#21140
05
#21283
06
#30000
1"
0.
#31140
15
#31283
16
#40000
0"
1.
#41140
05
#41283
06
#50000
1"
0.
#51140
15
#51283
16
#60000
0"
1.
#61140
05
#61283
06
#70000
1"
0.
#71140
15
#71283
16
#80000
b1 !
b1 #
0"
1.
#80985
1X
#81005
1P
#81140
05
#81283
06
#86872
07
#87336
1?
#87915
09
#90000
1"
0.
#91140
15
#91283
16
#91463
1(
#91650
1-
#100000
0%
0"
1.
#100995
0<
#101140
05
#101283
06
#106985
1C
#107563
1D
#110000
b0 #
1%
1"
0.
#110995
1<
#111005
0P
#111140
15
#111283
16
#113080
1E
#117336
0?
#120000
b0 !
0"
1.
#120985
0X
#121140
05
#121283
06
#121463
0(
#126872
17
#127915
19
#130000
1"
0.
#131140
15
#131283
16
#131650
0-
#133080
1]
#133719
1K
#133720
1G
#140000
0"
1.
#141140
05
#141283
06
#150000
1"
0.
#151140
15
#151283
16
#153080
1\
#153727
1H
#160000
0"
1.
#161140
05
#161283
06
#170000
1"
0.
#171140
15
#171283
16
#173080
1[
#180000
0"
1.
#181140
05
#181283
06
#190000
1"
0.
#191140
15
#191283
16
#193080
1Z
#193730
1@
#194155
1I
#200000
1&
0"
1.
#201130
1A
#201140
05
#201273
1B
#201283
06
#203040
0]
0\
0[
0Z
#203680
0G
#203687
0H
#203690
0@
#203829
0K
#204115
0I
#210000
0$
b1 !
0&
1"
0.
#210985
0:
1X
#211130
0A
#211140
15
#211273
0B
#211283
16
#212793
1=
#213080
1]
#213719
1K
#213720
1G
#216595
1)
#216872
07
#217915
09
#217954
1L
#220000
1$
0"
1.
#220985
1:
#221140
05
#221283
06
#221650
1-
#221689
1+
#230000
1"
0.
#231140
15
#231283
16
#233080
1\
#233727
1H
#240000
0"
1.
#241140
05
#241283
06
#250000
1"
0.
#251140
15
#251283
16
#253080
1[
#260000
0"
1.
#261140
05
#261283
06
#270000
1"
0.
#271140
15
#271283
16
#273080
1Z
#273730
1@
#274155
1I
#275185
1J
#279357
1*
#280000
0"
1.
#281140
05
#281283
06
#290000
1"
0.
#291140
15
#291283
16
#293080
1Y
#293920
0F
#300000
0"
1.
#301140
05
#301283
06
#310000
1"
0.
#311140
15
#311283
16
#313080
0]
#313720
0G
#320000
0"
1.
#321140
05
#321283
06
#330000
1"
0.
#331140
15
#331283
16
#333080
0\
#333727
0H
#340000
0"
1.
#341140
05
#341283
06
#350000
1"
0.
#351140
15
#351283
16
#353080
0[
#353869
0K
#353916
1M
#354473
1N
#354754
0L
#358198
1,
#358489
0+
#360000
0"
1.
#361140
05
#361283
06
#370000
1"
0.
#371140
15
#371283
16
#373080
0Z
#373730
0@
#380000
0"
1.
#381140
05
#381283
06
#390000
1"
0.
#391140
15
#391283
16
#393080
0Y
#393870
0I
#393920
1F
#394166
0M
#394723
0N
#394900
0J
#398448
0,
#399072
0*
#400000
0"
1.
#401140
05
#401283
06
#410000
1"
0.
#411140
15
#411283
16
#413080
1]
#413719
1K
#413720
1G
#414604
1L
#418339
1+
#420000
0"
1.
#421140
05
#421283
06
#430000
1"
0.
#431140
15
#431283
16
#433080
1\
#433727
1H
#440000
0"
1.
#441140
05
#441283
06
#450000
1"
0.
#451140
15
#451283
16
#453080
1[
#460000
0"
1.
#461140
05
#461283
06
#470000
1"
0.
#471140
15
#471283
16
#473080
1Z
#473730
1@
#474155
1I
#475185
1J
#479357
1*
#480000
0"
1.
#481140
05
#481283
06
#490000
1"
0.
#491140
15
#491283
16
#493080
1Y
#493920
0F
#500000
0"
1.
#501140
05
#501283
06
#510000
1"
0.
#511140
15
#511283
16
#513080
0]
#513720
0G
#520000
0"
1.
#521140
05
#521283
06
#530000
1"
0.
#531140
15
#531283
16
#533080
0\
#533727
0H
#540000
0"
1.
#541140
05
#541283
06
#550000
1"
0.
#551140
15
#551283
16
#553080
0[
#553869
0K
#553916
1M
#554473
1N
#554754
0L
#558198
1,
#558489
0+
#560000
0"
1.
#561140
05
#561283
06
#570000
1"
0.
#571140
15
#571283
16
#573080
0Z
#573730
0@
#580000
0"
1.
#581140
05
#581283
06
#590000
1"
0.
#591140
15
#591283
16
#593080
0Y
#593870
0I
#593920
1F
#594166
0M
#594723
0N
#594900
0J
#598448
0,
#599072
0*
#600000
0"
1.
#601140
05
#601283
06
#610000
1"
0.
#611140
15
#611283
16
#613080
1]
#613719
1K
#613720
1G
#614604
1L
#618339
1+
#620000
0"
1.
#621140
05
#621283
06
#630000
1"
0.
#631140
15
#631283
16
#633080
1\
#633727
1H
#640000
0"
1.
#641140
05
#641283
06
#650000
1"
0.
#651140
15
#651283
16
#653080
1[
#660000
0"
1.
#661140
05
#661283
06
#670000
1"
0.
#671140
15
#671283
16
#673080
1Z
#673730
1@
#674155
1I
#675185
1J
#679357
1*
#680000
0"
1.
#681140
05
#681283
06
#690000
1"
0.
#691140
15
#691283
16
#693080
1Y
#693920
0F
#700000
0"
1.
#701140
05
#701283
06
#710000
1"
0.
#711140
15
#711283
16
#713080
0]
#713720
0G
#720000
0"
1.
#721140
05
#721283
06
#730000
1"
0.
#731140
15
#731283
16
#733080
0\
#733727
0H
#740000
b10 #
0"
1.
#740985
1O
#741140
05
#741283
06
#746388
1>
#750000
0%
1"
0.
#750126
1'
#750995
0<
#751140
15
#751283
16
#753080
0[
#753869
0K
#753916
1M
#754473
1N
#754754
0L
#756985
0C
#757155
0=
#757563
0D
#758198
1,
#758489
0N
0+
#758540
0J
#760000
1%
0"
1.
#760957
0)
#760995
1<
#761140
05
#761283
06
#762214
0,
#762712
0*
#766985
1C
#767563
1D
#770000
b0 #
1"
0.
#770985
0O
#771140
15
#771283
16
#773080
0Z
#773730
0@
#776388
0>
#780000
0$
0"
1.
#780126
0'
#780985
0:
#781140
05
#781283
06
#782793
1=
#784127
1N
#784178
1J
#786595
1)
#787852
1,
#788350
1*
#790000
1$
1"
0.
#790985
1:
#791140
15
#791283
16
#793080
0Y
#793870
0I
#793920
1F
#794166
0M
#794723
0N
#794900
0J
#798448
0,
#799072
0*
#800000
0"
1.
#801140
05
#801283
06
#810000
1"
0.
#811140
15
#811283
16
#813080
1]
#813719
1K
#813720
1G
#814604
1L
#818339
1+
#820000
0"
1.
#821140
05
#821283
06
#830000
1"
0.
#831140
15
#831283
16
#833080
1\
#833727
1H
#840000
0"
1.
#841140
05
#841283
06
#850000
1"
0.
#851140
15
#851283
16
#853080
1[
#860000
0"
1.
#861140
05
#861283
06
#870000
b1 #
0%
1"
0.
#870995
0<
#871005
1P
#871140
15
#871283
16
#873080
1Z
#873730
1@
#874155
1I
#875185
1J
#877155
0=
#877336
1?
#878489
0L
#878540
0J
#879357
1*
#880000
1%
0"
1.
#880957
0)
#880995
1<
#881140
05
#881283
06
#881463
1(
#882224
0+
#882712
0*
#890000
0$
1"
0.
#890985
0:
#891140
15
#891283
16
#892793
1=
#893080
1Y
#893920
0F
#894127
1L
#894178
1J
#896595
1)
#897862
1+
#898350
1*
#900000
b0 #
1$
0"
1.
#900985
1:
#901005
0P
#901140
05
#901283
06
#907336
0?
#910000
1"
0.
#911140
15
#911283
16
#911463
0(
#913080
0]
#913720
0G
#920000
0"
1.
#921140
05
#921283
06
#930000
1"
0.
#931140
15
#931283
16
#933080
0\
#933727
0H
#940000
b0 !
0"
1.
#940985
0X
#941140
05
#941283
06
#946872
17
#947915
19
#947954
0L
#947957
0J
#950000
1"
0.
#951140
15
#951283
16
#951650
0-
#951689
0+
#952129
0*
#953080
0[
#953869
0K
#953916
1M
#960000
0"
1.
#961140
05
#961283
06
#970000
1"
0.
#971140
15
#971283
16
#973080
0Z
#973730
0@
#980000
0"
1.
#981140
05
#981283
06
#990000
1"
0.
#991140
15
#991283
16
#993080
0Y
#993870
0I
#993920
1F
#994166
0M
